{
  
    "type": "project",
    "cards": {},
    "label": "11928",
    "parent": "",
    "outcomes": [
      {
        "id": "d962f82c-8459-494f-89e8-b1cbed74ea27",
        "type": "outcome",
        "color": "#8FBCFF",
        "label": "HITL",
        "reasons": [],
        "percentage": 33,
        "description": "Human in the Loop",
        "outcomeType": "Project",
        "outcomeValue": "Neutral"
      },
      {
        "id": "3869c092-554a-41e0-9f86-05a7f242bcc5",
        "type": "outcome",
        "color": "#FFBFCB",
        "label": "Abandon",
        "reasons": [],
        "percentage": 33,
        "description": "User exits system without completion point.",
        "outcomeType": "Project",
        "outcomeValue": "Negative"
      },
      {
        "id": "b4c3d140-b599-42fc-a6bd-57cc954492eb",
        "type": "outcome",
        "color": "#FFED8F",
        "label": "Contained",
        "reasons": [],
        "percentage": 33,
        "description": "User completes task without Human Assistance, Golden Call.",
        "outcomeType": "Project",
        "outcomeValue": "Positive"
      },
      {
        "id": "escalate",
        "type": "outcome",
        "color": "#8FBCFF",
        "label": "Escalate",
        "description": "User is moved to Global Agent Transfer pattern, passing along flow and context.",
        "outcomeType": "Global",
        "outcomeValue": "Neutral",
        "destinationPattern": ""
      },
      {
        "id": "fallback",
        "type": "outcome",
        "color": "#EBBFFF",
        "label": "Fallback",
        "description": "If user is stuck in n or more repairs on the voice channel. Offer alternate channel if available, or switch to easier input.",
        "outcomeType": "Global",
        "outcomeValue": "Neutral",
        "destinationPattern": ""
      }
    ],
    "parentId": "",
    "patterns": [
      {
        "label": "11928",
        "id": "5f11a9c8-cfa3-4bf8-b3e8-cc6119bd06e5",
        "parent": "11928",
        "parentId": "f0e14789-d075-4ce4-8bcc-f309a46e2200",
        "patternType": "Inbound",
        "nodeType": "pattern",
        "type": "pattern",
        "channels": [
          {
            "id": "IVR",
            "type": "channel",
            "label": "IVR",
            "description": "Voice over the phone"
          },
          {
            "id": "RWC",
            "type": "channel",
            "label": "RWC",
            "description": "Rich webchat UI"
          },
          {
            "id": "SMS",
            "type": "channel",
            "label": "SMS",
            "description": "Text messaging"
          }
        ],
        "flowData": [
          {
            "id": "f8b6f675-dff1-4a8d-b666-af24823810c7",
            "flow": [
              {
                "id": "b233c56c-c23a-405d-843f-f2405b8f1694",
                "type": "flowCondition",
                "label": "subflow1",
                "order": 1,
                "toNode": "SubFlow1",
                "description": "This is first SubFlow link description",
                "gotoNodeType": "normal"
              }
            ],
            "type": "node",
            "label": "Start",
            "parent": "11928/11928",
            "nodeType": "startPoint",
            "parentId": "f0e14789-d075-4ce4-8bcc-f309a46e2200/5f11a9c8-cfa3-4bf8-b3e8-cc6119bd06e5",
            "description": "Pattern Flow Start",
            "applyInputsToFlow": false,
            "nodeDisplayOption": "description"
          },
          {
            "id": "8a462274-1b76-4425-b375-f5366d2224fb",
            "flow": [
              {
                "id": "efc291f3-ad37-45d0-b1a4-536da91034d3",
                "type": "flowCondition",
                "label": "default",
                "order": 1,
                "toNode": "addPoint",
                "linkType": "down"
              }
            ],
            "type": "node",
            "label": "SubFlow1",
            "parent": "11928/11928",
            "nodeType": "subFlow",
            "parentId": "f0e14789-d075-4ce4-8bcc-f309a46e2200/5f11a9c8-cfa3-4bf8-b3e8-cc6119bd06e5",
            "subflowId": "90efd4d5-1ff5-4bdb-89f0-d8b2c54a0ed8",
            "containsPii": false,
            "description": "This is first SubFlow description",
            "applyInputsToFlow": false,
            "nodeDisplayOption": "description"
          }
        ],
        "entities": [],
        "entityGroups": [
          {
            "id": "5485da7d-4f97-42cf-aa65-e6449ba9bcac",
            "type": "entityGroup",
            "label": "defaultEntityGroup",
            "dependsOn": [],
            "primaryKey": "default",
            "description": "defaultEntityGroup",
            "sharedEndPoint": false
          }
        ],
        "outcomes": [
          {
            "id": "d962f82c-8459-494f-89e8-b1cbed74ea27",
            "type": "outcome",
            "color": "#8FBCFF",
            "label": "HITL",
            "reasons": [],
            "percentage": 33,
            "description": "Human in the Loop",
            "outcomeType": "Project",
            "outcomeValue": "Neutral"
          },
          {
            "id": "3869c092-554a-41e0-9f86-05a7f242bcc5",
            "type": "outcome",
            "color": "#FFBFCB",
            "label": "Abandon",
            "reasons": [],
            "percentage": 33,
            "description": "User exits system without completion point.",
            "outcomeType": "Project",
            "outcomeValue": "Negative"
          },
          {
            "id": "b4c3d140-b599-42fc-a6bd-57cc954492eb",
            "type": "outcome",
            "color": "#FFED8F",
            "label": "Contained",
            "reasons": [],
            "percentage": 33,
            "description": "User completes task without Human Assistance, Golden Call.",
            "outcomeType": "Project",
            "outcomeValue": "Positive"
          }
        ],
        "subflows": [
          {
            "id": "90efd4d5-1ff5-4bdb-89f0-d8b2c54a0ed8",
            "flowDataSet": [
              {
                "channel": {
                  "id": "IVR",
                  "type": "channel",
                  "label": "IVR",
                  "description": "Voice over the phone"
                },
                "flowData": [
                  {
                    "id": "bb770969-0a54-46ea-9a03-da13f4801dfd",
                    "flow": [
                      {
                        "id": "3e07c2d6-4c8d-4790-bed5-6ed2f0de4bce",
                        "type": "flowCondition",
                        "label": "prompt1",
                        "order": 1,
                        "toNode": "Prompt1",
                        "description": "This is first Prompt link description",
                        "gotoNodeType": "normal"
                      }
                    ],
                    "type": "node",
                    "label": "Start",
                    "parent": "11928/11928/SubFlow1",
                    "nodeType": "startPoint",
                    "parentId": "f0e14789-d075-4ce4-8bcc-f309a46e2200/5f11a9c8-cfa3-4bf8-b3e8-cc6119bd06e5/90efd4d5-1ff5-4bdb-89f0-d8b2c54a0ed8",
                    "description": "Pattern Flow Start",
                    "applyInputsToFlow": false,
                    "nodeDisplayOption": "description"
                  },
                  {
                    "id": "0f4694f2-d781-46a0-b67d-7364d15c358b",
                    "flow": [
                      {
                        "label": "default",
                        "order": 1,
                        "linkType": "down",
                        "id": "1387c8ca-f9e4-4c63-ab21-4d39d1794d8e",
                        "toNode": "addPoint",
                        "type": "flowCondition"
                      }
                    ],
                    "type": "node",
                    "label": "Prompt1",
                    "output": [
                      {
                        "id": "8a116b8a-de81-42f8-8a47-90125cd9fb9e",
                        "type": "outputCondition",
                        "label": "Default",
                        "edited": true,
                        "content": [
                          {
                            "id": "c9c38cc6-bda8-49f7-b6ee-8cb5deecf756",
                            "value": "text",
                            "channel": "IVR",
                            "dynamic": false,
                            "contentType": "Prompt"
                          }
                        ],
                        "template": false
                      }
                    ],
                    "parent": "11928/11928/SubFlow1",
                    "nodeType": "prompt",
                    "parentId": "f0e14789-d075-4ce4-8bcc-f309a46e2200/5f11a9c8-cfa3-4bf8-b3e8-cc6119bd06e5/90efd4d5-1ff5-4bdb-89f0-d8b2c54a0ed8",
                    "templateId": "defaultPromptTemplate",
                    "containsPii": false,
                    "description": "This is first Prompt description",
                    "nodeDisplayOption": "description",
                    "applyInputsToFlow": false,
                    "input": [],
                    "nodeRules": {
                      "id": "fe351299-ed3e-4f73-8e02-a7d691b15092",
                      "useGlobalEscalate": true,
                      "useGlobalFallback": true,
                      "useGlobalRepairs": true,
                      "repairRules": []
                    }
                  }
                ]
              },
              {
                "channel": {
                  "id": "RWC",
                  "type": "channel",
                  "label": "RWC",
                  "description": "Rich webchat UI"
                },
                "flowData": [
                  {
                    "id": "489fd0dc-c3c9-40fd-b642-ff6c929521a5",
                    "flow": [
                      {
                        "id": "93478dfd-b08f-4df7-90b3-22feca6da9a0",
                        "type": "flowCondition",
                        "label": "default",
                        "order": 1,
                        "toNode": "addPoint",
                        "description": "Start Experience"
                      }
                    ],
                    "type": "node",
                    "label": "Start",
                    "parent": "11928/11928/SubFlow1",
                    "nodeType": "startPoint",
                    "parentId": "f0e14789-d075-4ce4-8bcc-f309a46e2200/5f11a9c8-cfa3-4bf8-b3e8-cc6119bd06e5/90efd4d5-1ff5-4bdb-89f0-d8b2c54a0ed8",
                    "description": "Pattern Flow Start",
                    "applyInputsToFlow": false,
                    "nodeDisplayOption": "description"
                  }
                ]
              },
              {
                "channel": {
                  "id": "SMS",
                  "type": "channel",
                  "label": "SMS",
                  "description": "Text messaging"
                },
                "flowData": [
                  {
                    "id": "2288e292-a951-428e-a25d-f4e372fcf2e3",
                    "flow": [
                      {
                        "id": "321a2ffb-9a82-4b20-8bde-caf79754a023",
                        "type": "flowCondition",
                        "label": "default",
                        "order": 1,
                        "toNode": "addPoint",
                        "description": "Start Experience"
                      }
                    ],
                    "type": "node",
                    "label": "Start",
                    "parent": "11928/11928/SubFlow1",
                    "nodeType": "startPoint",
                    "parentId": "f0e14789-d075-4ce4-8bcc-f309a46e2200/5f11a9c8-cfa3-4bf8-b3e8-cc6119bd06e5/90efd4d5-1ff5-4bdb-89f0-d8b2c54a0ed8",
                    "description": "Pattern Flow Start",
                    "applyInputsToFlow": false,
                    "nodeDisplayOption": "description"
                  }
                ]
              }
            ],
            "label": "SubFlow1",
            "description": "This is first SubFlow description",
            "parent": "11928/11928",
            "parentId": "f0e14789-d075-4ce4-8bcc-f309a46e2200/5f11a9c8-cfa3-4bf8-b3e8-cc6119bd06e5",
            "subflows": [],
            "type": "subFlow"
          }
        ],
        "mapper": [],
        "description": ""
      }
    ],
    "templates": {
      "YesNoTemplateId": {
        "id": "YesNoTemplateId",
        "label": "YesNoQuestion",
        "description": "This is the default ClosedQuestion template",
        "templateType": "closedQuestion",
        "channelConditions": [
          {
            "flow": [],
            "input": {
              "models": [
                {
                  "id": "7dd2236b-5a9a-45d9-bb39-0ffcd93074b4",
                  "type": "inputCondition",
                  "label": "Yes",
                  "parser": "yes, yeah, yah",
                  "inputType": "Matcher",
                  "containsPii": false,
                  "description": "positive user response"
                },
                {
                  "id": "a2167b25-9760-4925-b909-2551a9b93375",
                  "type": "inputCondition",
                  "label": "No",
                  "parser": "no, nope, nah",
                  "inputType": "Matcher",
                  "containsPii": false,
                  "description": "negative user response"
                }
              ]
            },
            "output": [],
            "channelId": "IVR"
          },
          {
            "flow": [],
            "input": {
              "models": [
                {
                  "id": "a82f9f0a-0b5c-415a-a456-d1dbfe59eb98",
                  "type": "inputCondition",
                  "label": "Yes",
                  "parser": "yes, yeah, yah",
                  "inputType": "Matcher",
                  "containsPii": false,
                  "description": "positive user response"
                },
                {
                  "id": "ed4ebf4d-180c-4e17-883b-3d32fdd6a8ad",
                  "type": "inputCondition",
                  "label": "No",
                  "parser": "no, nope, nah",
                  "inputType": "Matcher",
                  "containsPii": false,
                  "description": "negative user response"
                }
              ]
            },
            "output": [],
            "channelId": "RWC"
          },
          {
            "flow": [],
            "input": {
              "models": [
                {
                  "id": "4773f979-ed8d-4284-b35c-4d8945d8ce9d",
                  "type": "inputCondition",
                  "label": "Yes",
                  "parser": "yes, yeah, yah",
                  "inputType": "Matcher",
                  "containsPii": false,
                  "description": "positive user response"
                },
                {
                  "id": "cffef01f-dbd7-480d-b840-8a8743572a9c",
                  "type": "inputCondition",
                  "label": "No",
                  "parser": "no, nope, nah",
                  "inputType": "Matcher",
                  "containsPii": false,
                  "description": "negative user response"
                }
              ]
            },
            "output": [],
            "channelId": "SMS"
          },
          {
            "flow": [],
            "input": {
              "models": []
            },
            "output": [],
            "channelId": "App"
          },
          {
            "flow": [],
            "input": {
              "models": [
                {
                  "id": "c43540ab-1a62-4737-acdb-b5c917062fa7",
                  "type": "inputCondition",
                  "label": "Yes",
                  "parser": "yes, yeah, yah",
                  "inputType": "Matcher",
                  "containsPii": false,
                  "description": "positive user response"
                },
                {
                  "id": "287aedb5-4ad5-4003-a30a-7157d6f8b245",
                  "type": "inputCondition",
                  "label": "No",
                  "parser": "no, nope, nah",
                  "inputType": "Matcher",
                  "containsPii": false,
                  "description": "negative user response"
                }
              ]
            },
            "output": [],
            "channelId": "rSMS"
          },
          {
            "flow": [],
            "input": {
              "models": [
                {
                  "id": "3e3bc3ca-d418-4f27-ba0e-3c140e1e4ccb",
                  "type": "inputCondition",
                  "label": "Yes",
                  "parser": "yes, yeah, yah",
                  "inputType": "Matcher",
                  "containsPii": false,
                  "description": "positive user response"
                },
                {
                  "id": "62dd4b4b-ad86-4523-8389-868d78c19c82",
                  "type": "inputCondition",
                  "label": "No",
                  "parser": "no, nope, nah",
                  "inputType": "Matcher",
                  "containsPii": false,
                  "description": "negative user response"
                }
              ]
            },
            "output": [],
            "channelId": "VoIP"
          }
        ],
        "hasPre": true,
        "hasPost": true,
        "hasRepair": true
      },
      "defaultOpenTemplate": {
        "id": "defaultOpenTemplate",
        "label": "DefaultOpenTemplate",
        "hasPre": true,
        "hasPost": true,
        "hasRepair": true,
        "description": "This is the default open template.",
        "templateType": "openQuestion",
        "channelConditions": [
          {
            "flow": [],
            "input": {
              "models": []
            },
            "output": [],
            "channelId": "IVR"
          },
          {
            "flow": [],
            "input": {
              "models": []
            },
            "output": [],
            "channelId": "RWC"
          },
          {
            "flow": [],
            "input": {
              "models": []
            },
            "output": [],
            "channelId": "SMS"
          },
          {
            "flow": [],
            "input": {
              "models": []
            },
            "output": [],
            "channelId": "App"
          },
          {
            "flow": [],
            "input": {
              "models": []
            },
            "output": [],
            "channelId": "rSMS"
          },
          {
            "flow": [],
            "input": {
              "models": []
            },
            "output": [],
            "channelId": "VoIP"
          }
        ]
      },
      "defaultClosedTemplate": {
        "id": "defaultClosedTemplate",
        "label": "DefaultClosedTemplate",
        "hasPre": true,
        "hasPost": true,
        "hasRepair": true,
        "description": "This is the default closed template.",
        "templateType": "closedQuestion",
        "channelConditions": [
          {
            "flow": [],
            "input": {
              "models": []
            },
            "output": [],
            "channelId": "IVR"
          },
          {
            "flow": [],
            "input": {
              "models": []
            },
            "output": [],
            "channelId": "RWC"
          },
          {
            "flow": [],
            "input": {
              "models": []
            },
            "output": [],
            "channelId": "SMS"
          },
          {
            "flow": [],
            "input": {
              "models": []
            },
            "output": [],
            "channelId": "App"
          },
          {
            "flow": [],
            "input": {
              "models": []
            },
            "output": [],
            "channelId": "rSMS"
          },
          {
            "flow": [],
            "input": {
              "models": []
            },
            "output": [],
            "channelId": "VoIP"
          }
        ]
      },
      "defaultPromptTemplate": {
        "id": "defaultPromptTemplate",
        "label": "DefaultPromptTemplate",
        "hasPre": true,
        "hasPost": true,
        "hasRepair": true,
        "description": "This is the default prompt template.",
        "templateType": "prompt",
        "channelConditions": [
          {
            "flow": [],
            "input": {
              "models": []
            },
            "output": [],
            "channelId": "IVR"
          },
          {
            "flow": [],
            "input": {
              "models": []
            },
            "output": [],
            "channelId": "RWC"
          },
          {
            "flow": [],
            "input": {
              "models": []
            },
            "output": [],
            "channelId": "SMS"
          },
          {
            "flow": [],
            "input": {
              "models": []
            },
            "output": [],
            "channelId": "App"
          },
          {
            "flow": [],
            "input": {
              "models": []
            },
            "output": [],
            "channelId": "rSMS"
          },
          {
            "flow": [],
            "input": {
              "models": []
            },
            "output": [],
            "channelId": "VoIP"
          }
        ]
      }
    },
    "description": "",
    "projectType": "None",
    "destinationPdes": [],
    "outcomesBaseline": [],
    "globalRepairRules": [
      {
        "id": "OOCRule",
        "label": "Out of Context",
        "outcome": "fallback",
        "repairType": "outOfContext",
        "description": "Out of context response are when the NLU is unable to classify the user's input. The user is asked to repeat.",
        "numberOfAttempts": 2
      },
      {
        "id": "NRRule",
        "label": "No Response",
        "outcome": "fallback",
        "repairType": "noResponse",
        "description": "No response is when the user does not provide any input. The system will reprompt the user to provide a response",
        "numberOfAttempts": 2
      },
      {
        "id": "ARRule",
        "label": "Agent Request",
        "outcome": "escalate",
        "repairType": "agentRequest",
        "description": "User requests Agent Transfer will trigger an Escalate flow",
        "numberOfAttempts": 1
      },
      {
        "id": "MRBFrule",
        "label": "Maximum Repair before Fallback",
        "outcome": "fallback",
        "repairType": "maximum",
        "description": "Total number of repairs before triggering a fallback action. Fallback should be offering another channel or escalating to an agent",
        "numberOfAttempts": 3
      }
    ],
    "projectObjectVersion": 1
  }
