{
 
    "type": "project",
    "cards": {},
    "label": "11029",
    "parent": "",
    "outcomes": [
      {
        "id": "f737b8e1-7b7f-4816-9f16-36a2321e2bd0",
        "type": "outcome",
        "color": "#8FBCFF",
        "label": "HITL",
        "reasons": [],
        "percentage": 33,
        "description": "Human in the Loop",
        "outcomeType": "Project",
        "outcomeValue": "Neutral"
      },
      {
        "id": "a11df6e5-b8d3-4987-93d4-d77b776ac075",
        "type": "outcome",
        "color": "#FFBFCB",
        "label": "Abandon",
        "reasons": [],
        "percentage": 33,
        "description": "User exits system without completion point.",
        "outcomeType": "Project",
        "outcomeValue": "Negative"
      },
      {
        "id": "53b8b631-1df0-495e-8912-d02fe5867499",
        "type": "outcome",
        "color": "#FFED8F",
        "label": "Contained",
        "reasons": [],
        "percentage": 33,
        "description": "User completes task without Human Assistance, Golden Call.",
        "outcomeType": "Project",
        "outcomeValue": "Positive"
      },
      {
        "id": "escalate",
        "type": "outcome",
        "color": "#8FBCFF",
        "label": "Escalate",
        "description": "User is moved to Global Agent Transfer pattern, passing along flow and context.",
        "outcomeType": "Global",
        "outcomeValue": "Neutral",
        "destinationPattern": ""
      },
      {
        "id": "fallback",
        "type": "outcome",
        "color": "#EBBFFF",
        "label": "Fallback",
        "description": "If user is stuck in n or more repairs on the voice channel. Offer alternate channel if available, or switch to easier input.",
        "outcomeType": "Global",
        "outcomeValue": "Neutral",
        "destinationPattern": ""
      }
    ],
    "parentId": "",
    "patterns": [
      {
        "label": "11029",
        "id": "ffbe9c05-0663-4951-a96b-2b1444b7e020",
        "parent": "11029",
        "parentId": "74399dfa-eee6-46b0-b453-aa992666fa00",
        "patternType": "Inbound",
        "nodeType": "pattern",
        "type": "pattern",
        "channels": [
          {
            "id": "IVR",
            "type": "channel",
            "label": "IVR",
            "description": "Voice over the phone"
          },
          {
            "id": "RWC",
            "type": "channel",
            "label": "RWC",
            "description": "Rich webchat UI"
          },
          {
            "id": "SMS",
            "type": "channel",
            "label": "SMS",
            "description": "Text messaging"
          }
        ],
        "flowData": [
          {
            "id": "d552b4e5-dc9f-4000-84df-f3ecb4901776",
            "flow": [
              {
                "id": "c2f965d0-7f94-476e-9ab7-13b04f936385",
                "type": "flowCondition",
                "label": "subflow1",
                "order": 1,
                "toNode": "SubFlow1",
                "description": "This is first SubFlow link description",
                "gotoNodeType": "normal"
              }
            ],
            "type": "node",
            "label": "Start",
            "parent": "11029/11029",
            "nodeType": "startPoint",
            "parentId": "74399dfa-eee6-46b0-b453-aa992666fa00/ffbe9c05-0663-4951-a96b-2b1444b7e020",
            "description": "Pattern Flow Start",
            "applyInputsToFlow": false,
            "nodeDisplayOption": "description"
          },
          {
            "id": "01c01020-cae3-4837-b54d-e864712b7bdb",
            "flow": [
              {
                "label": "subflow2",
                "order": 2,
                "toNode": "SubFlow2",
                "linkType": "down",
                "description": "This is second SubFlow link description",
                "gotoNodeType": "normal",
                "id": "f6a6cbd4-a51b-456a-8d7a-34e23e0c35fe",
                "type": "flowCondition"
              }
            ],
            "type": "node",
            "label": "SubFlow1",
            "nodeType": "subFlow",
            "subflowId": "31262d1d-f92c-41ff-b7d4-a27187994c20",
            "containsPii": false,
            "description": "This is first SubFlow description",
            "nodeDisplayOption": "description",
            "parent": "11029/11029",
            "parentId": "74399dfa-eee6-46b0-b453-aa992666fa00/ffbe9c05-0663-4951-a96b-2b1444b7e020",
            "applyInputsToFlow": false
          },
          {
            "id": "adc0eef0-c3c3-4db8-87b4-35cb70fdaa2c",
            "flow": [
              {
                "label": "default",
                "order": 1,
                "linkType": "down",
                "id": "49e1de30-44d6-42e7-a45a-2b06431ab54d",
                "toNode": "addPoint",
                "type": "flowCondition"
              }
            ],
            "type": "node",
            "label": "SubFlow2",
            "nodeType": "subFlow",
            "subflowId": "0e0a377a-bd68-4e35-9288-e1da401bc544",
            "containsPii": false,
            "description": "This is second SubFlow description",
            "nodeDisplayOption": "description",
            "parent": "11029/11029",
            "parentId": "74399dfa-eee6-46b0-b453-aa992666fa00/ffbe9c05-0663-4951-a96b-2b1444b7e020",
            "applyInputsToFlow": false
          }
        ],
        "entities": [],
        "entityGroups": [
          {
            "id": "9bc7f564-9379-4f8e-86ed-340c1b544408",
            "type": "entityGroup",
            "label": "defaultEntityGroup",
            "dependsOn": [],
            "primaryKey": "default",
            "description": "defaultEntityGroup",
            "sharedEndPoint": false
          }
        ],
        "outcomes": [
          {
            "id": "f737b8e1-7b7f-4816-9f16-36a2321e2bd0",
            "type": "outcome",
            "color": "#8FBCFF",
            "label": "HITL",
            "reasons": [],
            "percentage": 33,
            "description": "Human in the Loop",
            "outcomeType": "Project",
            "outcomeValue": "Neutral"
          },
          {
            "id": "a11df6e5-b8d3-4987-93d4-d77b776ac075",
            "type": "outcome",
            "color": "#FFBFCB",
            "label": "Abandon",
            "reasons": [],
            "percentage": 33,
            "description": "User exits system without completion point.",
            "outcomeType": "Project",
            "outcomeValue": "Negative"
          },
          {
            "id": "53b8b631-1df0-495e-8912-d02fe5867499",
            "type": "outcome",
            "color": "#FFED8F",
            "label": "Contained",
            "reasons": [],
            "percentage": 33,
            "description": "User completes task without Human Assistance, Golden Call.",
            "outcomeType": "Project",
            "outcomeValue": "Positive"
          }
        ],
        "subflows": [
          {
            "id": "31262d1d-f92c-41ff-b7d4-a27187994c20",
            "flowDataSet": [
              {
                "channel": {
                  "id": "IVR",
                  "type": "channel",
                  "label": "IVR",
                  "description": "Voice over the phone"
                },
                "flowData": [
                  {
                    "id": "9aef99b8-6c7a-4dc3-bf3a-a9765fcd463b",
                    "flow": [
                      {
                        "id": "cb527073-f96e-497f-8fdb-ea937b70d11c",
                        "label": "default",
                        "order": 1,
                        "toNode": "addPoint",
                        "description": "Start Experience",
                        "type": "flowCondition"
                      }
                    ],
                    "type": "node",
                    "label": "Start",
                    "nodeType": "startPoint",
                    "description": "Pattern Flow Start",
                    "parent": "11029/11029/SubFlow1",
                    "parentId": "74399dfa-eee6-46b0-b453-aa992666fa00/ffbe9c05-0663-4951-a96b-2b1444b7e020/31262d1d-f92c-41ff-b7d4-a27187994c20",
                    "nodeDisplayOption": "description",
                    "applyInputsToFlow": false
                  }
                ]
              },
              {
                "channel": {
                  "id": "RWC",
                  "type": "channel",
                  "label": "RWC",
                  "description": "Rich webchat UI"
                },
                "flowData": [
                  {
                    "id": "473d2832-098d-4722-bc88-157fea6b24e9",
                    "flow": [
                      {
                        "id": "5100a631-a673-4d66-b5d4-66af982250f0",
                        "label": "default",
                        "order": 1,
                        "toNode": "addPoint",
                        "description": "Start Experience",
                        "type": "flowCondition"
                      }
                    ],
                    "type": "node",
                    "label": "Start",
                    "nodeType": "startPoint",
                    "description": "Pattern Flow Start",
                    "parent": "11029/11029/SubFlow1",
                    "parentId": "74399dfa-eee6-46b0-b453-aa992666fa00/ffbe9c05-0663-4951-a96b-2b1444b7e020/31262d1d-f92c-41ff-b7d4-a27187994c20",
                    "nodeDisplayOption": "description",
                    "applyInputsToFlow": false
                  }
                ]
              },
              {
                "channel": {
                  "id": "SMS",
                  "type": "channel",
                  "label": "SMS",
                  "description": "Text messaging"
                },
                "flowData": [
                  {
                    "id": "975797c1-af2f-49d5-954f-f0aaf2f9f1e7",
                    "flow": [
                      {
                        "id": "6f062b6b-f19d-4d9f-8f48-5d78b58bd58d",
                        "label": "default",
                        "order": 1,
                        "toNode": "addPoint",
                        "description": "Start Experience",
                        "type": "flowCondition"
                      }
                    ],
                    "type": "node",
                    "label": "Start",
                    "nodeType": "startPoint",
                    "description": "Pattern Flow Start",
                    "parent": "11029/11029/SubFlow1",
                    "parentId": "74399dfa-eee6-46b0-b453-aa992666fa00/ffbe9c05-0663-4951-a96b-2b1444b7e020/31262d1d-f92c-41ff-b7d4-a27187994c20",
                    "nodeDisplayOption": "description",
                    "applyInputsToFlow": false
                  }
                ]
              }
            ],
            "label": "SubFlow1",
            "description": "This is first SubFlow description",
            "parent": "11029/11029",
            "parentId": "74399dfa-eee6-46b0-b453-aa992666fa00/ffbe9c05-0663-4951-a96b-2b1444b7e020",
            "subflows": [],
            "type": "subFlow"
          },
          {
            "id": "0e0a377a-bd68-4e35-9288-e1da401bc544",
            "flowDataSet": [
              {
                "channel": {
                  "id": "IVR",
                  "type": "channel",
                  "label": "IVR",
                  "description": "Voice over the phone"
                },
                "flowData": [
                  {
                    "id": "f2faedb6-0e3f-4e23-8271-beddc2a3942b",
                    "flow": [
                      {
                        "id": "e5e759c0-b3bb-44ae-959d-a128e377f865",
                        "label": "default",
                        "order": 1,
                        "toNode": "addPoint",
                        "description": "Start Experience",
                        "type": "flowCondition"
                      }
                    ],
                    "type": "node",
                    "label": "Start",
                    "nodeType": "startPoint",
                    "description": "Pattern Flow Start",
                    "parent": "11029/11029/SubFlow2",
                    "parentId": "74399dfa-eee6-46b0-b453-aa992666fa00/ffbe9c05-0663-4951-a96b-2b1444b7e020/0e0a377a-bd68-4e35-9288-e1da401bc544",
                    "nodeDisplayOption": "description",
                    "applyInputsToFlow": false
                  }
                ]
              },
              {
                "channel": {
                  "id": "RWC",
                  "type": "channel",
                  "label": "RWC",
                  "description": "Rich webchat UI"
                },
                "flowData": [
                  {
                    "id": "985172d1-bf7b-4f93-bb0f-a35974d018bc",
                    "flow": [
                      {
                        "id": "214c707f-7502-40f9-b2a7-aaca5fcfdf01",
                        "label": "default",
                        "order": 1,
                        "toNode": "addPoint",
                        "description": "Start Experience",
                        "type": "flowCondition"
                      }
                    ],
                    "type": "node",
                    "label": "Start",
                    "nodeType": "startPoint",
                    "description": "Pattern Flow Start",
                    "parent": "11029/11029/SubFlow2",
                    "parentId": "74399dfa-eee6-46b0-b453-aa992666fa00/ffbe9c05-0663-4951-a96b-2b1444b7e020/0e0a377a-bd68-4e35-9288-e1da401bc544",
                    "nodeDisplayOption": "description",
                    "applyInputsToFlow": false
                  }
                ]
              },
              {
                "channel": {
                  "id": "SMS",
                  "type": "channel",
                  "label": "SMS",
                  "description": "Text messaging"
                },
                "flowData": [
                  {
                    "id": "cf816e12-2bf2-4517-a2c7-5026caf8120d",
                    "flow": [
                      {
                        "id": "86f85828-a66b-41f9-9aab-54defa965e44",
                        "label": "default",
                        "order": 1,
                        "toNode": "addPoint",
                        "description": "Start Experience",
                        "type": "flowCondition"
                      }
                    ],
                    "type": "node",
                    "label": "Start",
                    "nodeType": "startPoint",
                    "description": "Pattern Flow Start",
                    "parent": "11029/11029/SubFlow2",
                    "parentId": "74399dfa-eee6-46b0-b453-aa992666fa00/ffbe9c05-0663-4951-a96b-2b1444b7e020/0e0a377a-bd68-4e35-9288-e1da401bc544",
                    "nodeDisplayOption": "description",
                    "applyInputsToFlow": false
                  }
                ]
              }
            ],
            "label": "SubFlow2",
            "description": "This is second SubFlow description",
            "parent": "11029/11029",
            "parentId": "74399dfa-eee6-46b0-b453-aa992666fa00/ffbe9c05-0663-4951-a96b-2b1444b7e020",
            "subflows": [],
            "type": "subFlow"
          }
        ],
        "mapper": [],
        "description": ""
      }
    ],
    "templates": {
      "YesNoTemplateId": {
        "id": "YesNoTemplateId",
        "label": "YesNoQuestion",
        "description": "This is the default ClosedQuestion template",
        "templateType": "closedQuestion",
        "channelConditions": [
          {
            "flow": [],
            "input": {
              "models": [
                {
                  "id": "940feda7-8db1-4558-ab79-6dbaa65514c2",
                  "type": "inputCondition",
                  "label": "Yes",
                  "parser": "yes, yeah, yah",
                  "inputType": "Matcher",
                  "containsPii": false,
                  "description": "positive user response"
                },
                {
                  "id": "9c74a57e-1465-4102-bdb7-14e31d10502b",
                  "type": "inputCondition",
                  "label": "No",
                  "parser": "no, nope, nah",
                  "inputType": "Matcher",
                  "containsPii": false,
                  "description": "negative user response"
                }
              ]
            },
            "output": [],
            "channelId": "IVR"
          },
          {
            "flow": [],
            "input": {
              "models": [
                {
                  "id": "b8af1c17-6b4d-4d23-b0cb-d64a0b45e7b6",
                  "type": "inputCondition",
                  "label": "Yes",
                  "parser": "yes, yeah, yah",
                  "inputType": "Matcher",
                  "containsPii": false,
                  "description": "positive user response"
                },
                {
                  "id": "307f3a3d-05c2-4beb-91db-1c445d45029f",
                  "type": "inputCondition",
                  "label": "No",
                  "parser": "no, nope, nah",
                  "inputType": "Matcher",
                  "containsPii": false,
                  "description": "negative user response"
                }
              ]
            },
            "output": [],
            "channelId": "RWC"
          },
          {
            "flow": [],
            "input": {
              "models": [
                {
                  "id": "e16bce72-65c3-4f9d-9fb4-aa8655d35c0b",
                  "type": "inputCondition",
                  "label": "Yes",
                  "parser": "yes, yeah, yah",
                  "inputType": "Matcher",
                  "containsPii": false,
                  "description": "positive user response"
                },
                {
                  "id": "bc462302-b4f8-4917-aef9-e9d9a2c8589a",
                  "type": "inputCondition",
                  "label": "No",
                  "parser": "no, nope, nah",
                  "inputType": "Matcher",
                  "containsPii": false,
                  "description": "negative user response"
                }
              ]
            },
            "output": [],
            "channelId": "SMS"
          },
          {
            "flow": [],
            "input": {
              "models": []
            },
            "output": [],
            "channelId": "App"
          },
          {
            "flow": [],
            "input": {
              "models": [
                {
                  "id": "03cb2b6f-5ce4-4f0c-98c0-155ccf14977d",
                  "type": "inputCondition",
                  "label": "Yes",
                  "parser": "yes, yeah, yah",
                  "inputType": "Matcher",
                  "containsPii": false,
                  "description": "positive user response"
                },
                {
                  "id": "7ed8397a-a3c8-4ba4-9485-ce3913fd4c21",
                  "type": "inputCondition",
                  "label": "No",
                  "parser": "no, nope, nah",
                  "inputType": "Matcher",
                  "containsPii": false,
                  "description": "negative user response"
                }
              ]
            },
            "output": [],
            "channelId": "rSMS"
          },
          {
            "flow": [],
            "input": {
              "models": [
                {
                  "id": "ee45587f-0c8c-493d-8877-cda5aff10bf4",
                  "type": "inputCondition",
                  "label": "Yes",
                  "parser": "yes, yeah, yah",
                  "inputType": "Matcher",
                  "containsPii": false,
                  "description": "positive user response"
                },
                {
                  "id": "176fd583-e139-41e5-bbc6-f5b2c25f2560",
                  "type": "inputCondition",
                  "label": "No",
                  "parser": "no, nope, nah",
                  "inputType": "Matcher",
                  "containsPii": false,
                  "description": "negative user response"
                }
              ]
            },
            "output": [],
            "channelId": "VoIP"
          }
        ],
        "hasPre": true,
        "hasPost": true,
        "hasRepair": true
      },
      "defaultOpenTemplate": {
        "id": "defaultOpenTemplate",
        "label": "DefaultOpenTemplate",
        "hasPre": true,
        "hasPost": true,
        "hasRepair": true,
        "description": "This is the default open template.",
        "templateType": "openQuestion",
        "channelConditions": [
          {
            "flow": [],
            "input": {
              "models": []
            },
            "output": [],
            "channelId": "IVR"
          },
          {
            "flow": [],
            "input": {
              "models": []
            },
            "output": [],
            "channelId": "RWC"
          },
          {
            "flow": [],
            "input": {
              "models": []
            },
            "output": [],
            "channelId": "SMS"
          },
          {
            "flow": [],
            "input": {
              "models": []
            },
            "output": [],
            "channelId": "App"
          },
          {
            "flow": [],
            "input": {
              "models": []
            },
            "output": [],
            "channelId": "rSMS"
          },
          {
            "flow": [],
            "input": {
              "models": []
            },
            "output": [],
            "channelId": "VoIP"
          }
        ]
      },
      "defaultClosedTemplate": {
        "id": "defaultClosedTemplate",
        "label": "DefaultClosedTemplate",
        "hasPre": true,
        "hasPost": true,
        "hasRepair": true,
        "description": "This is the default closed template.",
        "templateType": "closedQuestion",
        "channelConditions": [
          {
            "flow": [],
            "input": {
              "models": []
            },
            "output": [],
            "channelId": "IVR"
          },
          {
            "flow": [],
            "input": {
              "models": []
            },
            "output": [],
            "channelId": "RWC"
          },
          {
            "flow": [],
            "input": {
              "models": []
            },
            "output": [],
            "channelId": "SMS"
          },
          {
            "flow": [],
            "input": {
              "models": []
            },
            "output": [],
            "channelId": "App"
          },
          {
            "flow": [],
            "input": {
              "models": []
            },
            "output": [],
            "channelId": "rSMS"
          },
          {
            "flow": [],
            "input": {
              "models": []
            },
            "output": [],
            "channelId": "VoIP"
          }
        ]
      },
      "defaultPromptTemplate": {
        "id": "defaultPromptTemplate",
        "label": "DefaultPromptTemplate",
        "hasPre": true,
        "hasPost": true,
        "hasRepair": true,
        "description": "This is the default prompt template.",
        "templateType": "prompt",
        "channelConditions": [
          {
            "flow": [],
            "input": {
              "models": []
            },
            "output": [],
            "channelId": "IVR"
          },
          {
            "flow": [],
            "input": {
              "models": []
            },
            "output": [],
            "channelId": "RWC"
          },
          {
            "flow": [],
            "input": {
              "models": []
            },
            "output": [],
            "channelId": "SMS"
          },
          {
            "flow": [],
            "input": {
              "models": []
            },
            "output": [],
            "channelId": "App"
          },
          {
            "flow": [],
            "input": {
              "models": []
            },
            "output": [],
            "channelId": "rSMS"
          },
          {
            "flow": [],
            "input": {
              "models": []
            },
            "output": [],
            "channelId": "VoIP"
          }
        ]
      }
    },
    "description": "",
    "projectType": "None",
    "destinationPdes": [],
    "outcomesBaseline": [],
    "globalRepairRules": [
      {
        "id": "OOCRule",
        "label": "Out of Context",
        "outcome": "fallback",
        "repairType": "outOfContext",
        "description": "Out of context response are when the NLU is unable to classify the user's input. The user is asked to repeat.",
        "numberOfAttempts": 2
      },
      {
        "id": "NRRule",
        "label": "No Response",
        "outcome": "fallback",
        "repairType": "noResponse",
        "description": "No response is when the user does not provide any input. The system will reprompt the user to provide a response",
        "numberOfAttempts": 2
      },
      {
        "id": "ARRule",
        "label": "Agent Request",
        "outcome": "escalate",
        "repairType": "agentRequest",
        "description": "User requests Agent Transfer will trigger an Escalate flow",
        "numberOfAttempts": 1
      },
      {
        "id": "MRBFrule",
        "label": "Maximum Repair before Fallback",
        "outcome": "fallback",
        "repairType": "maximum",
        "description": "Total number of repairs before triggering a fallback action. Fallback should be offering another channel or escalating to an agent",
        "numberOfAttempts": 3
      }
    ],
    "projectObjectVersion": 1
  }
