{

    "type": "project",
    "cards": {},
    "label": "11250",
    "parent": "",
    "outcomes": [
      {
        "id": "70c5768d-7cfa-43ea-9f4a-4ea4e2c75b42",
        "type": "outcome",
        "color": "#8FBCFF",
        "label": "HITL",
        "reasons": [],
        "percentage": 33,
        "description": "Human in the Loop",
        "outcomeType": "Project",
        "outcomeValue": "Neutral"
      },
      {
        "id": "8003b53d-e803-417d-818e-1101531c3b55",
        "type": "outcome",
        "color": "#FFBFCB",
        "label": "Abandon",
        "reasons": [],
        "percentage": 33,
        "description": "User exits system without completion point.",
        "outcomeType": "Project",
        "outcomeValue": "Negative"
      },
      {
        "id": "e17f7206-7c43-4be0-9889-b0578d326de7",
        "type": "outcome",
        "color": "#FFED8F",
        "label": "Contained",
        "reasons": [],
        "percentage": 33,
        "description": "User completes task without Human Assistance, Golden Call.",
        "outcomeType": "Project",
        "outcomeValue": "Positive"
      },
      {
        "id": "escalate",
        "type": "outcome",
        "color": "#8FBCFF",
        "label": "Escalate",
        "description": "User is moved to Global Agent Transfer pattern, passing along flow and context.",
        "outcomeType": "Global",
        "outcomeValue": "Neutral",
        "destinationPattern": ""
      },
      {
        "id": "fallback",
        "type": "outcome",
        "color": "#EBBFFF",
        "label": "Fallback",
        "description": "If user is stuck in n or more repairs on the voice channel. Offer alternate channel if available, or switch to easier input.",
        "outcomeType": "Global",
        "outcomeValue": "Neutral",
        "destinationPattern": ""
      }
    ],
    "parentId": "",
    "patterns": [
      {
        "label": "11250",
        "id": "ed9e6db9-fe00-41e7-b50e-5ef337231ebd",
        "parent": "11250",
        "parentId": "16cafa33-1a9b-44be-834a-216ac5a0cdc1",
        "patternType": "Inbound",
        "nodeType": "pattern",
        "type": "pattern",
        "channels": [
          {
            "id": "IVR",
            "type": "channel",
            "label": "IVR",
            "description": "Voice over the phone"
          },
          {
            "id": "RWC",
            "type": "channel",
            "label": "RWC",
            "description": "Rich webchat UI"
          },
          {
            "id": "SMS",
            "type": "channel",
            "label": "SMS",
            "description": "Text messaging"
          }
        ],
        "flowData": [
          {
            "id": "8cc6b315-7a57-4f00-83c8-10ed3d50dcc4",
            "flow": [
              {
                "id": "1a9ba94b-6123-4f40-8036-ab5eadca8d2d",
                "type": "flowCondition",
                "label": "subflow1",
                "order": 1,
                "toNode": "SubFlow1",
                "description": "This is first SubFlow link description",
                "gotoNodeType": "normal"
              }
            ],
            "type": "node",
            "label": "Start",
            "parent": "11250/11250",
            "nodeType": "startPoint",
            "parentId": "16cafa33-1a9b-44be-834a-216ac5a0cdc1/ed9e6db9-fe00-41e7-b50e-5ef337231ebd",
            "description": "Pattern Flow Start",
            "applyInputsToFlow": false,
            "nodeDisplayOption": "description"
          },
          {
            "id": "359cdf85-8879-41f7-9a4b-067d70606cc0",
            "flow": [
              {
                "label": "subflow2",
                "order": 2,
                "toNode": "SubFlow2",
                "linkType": "down",
                "description": "This is second SubFlow link description",
                "gotoNodeType": "normal",
                "id": "4feb0489-4355-42ed-af3b-e94a4961396e",
                "type": "flowCondition"
              }
            ],
            "type": "node",
            "label": "SubFlow1",
            "nodeType": "subFlow",
            "subflowId": "f91d701f-7452-4e03-998d-eff3b57542ff",
            "containsPii": false,
            "description": "This is first SubFlow description",
            "nodeDisplayOption": "description",
            "parent": "11250/11250",
            "parentId": "16cafa33-1a9b-44be-834a-216ac5a0cdc1/ed9e6db9-fe00-41e7-b50e-5ef337231ebd",
            "applyInputsToFlow": false
          },
          {
            "id": "c266d840-0e5c-4a4e-a488-85bbbae4a1fd",
            "flow": [
              {
                "label": "default",
                "order": 1,
                "linkType": "down",
                "id": "c1392f36-618a-424f-8a2e-ecbfea948472",
                "toNode": "addPoint",
                "type": "flowCondition"
              }
            ],
            "type": "node",
            "label": "SubFlow2",
            "nodeType": "subFlow",
            "subflowId": "21954a77-bb01-4504-bf09-c42d5b2821dc",
            "containsPii": false,
            "description": "This is second SubFlow description",
            "nodeDisplayOption": "description",
            "parent": "11250/11250",
            "parentId": "16cafa33-1a9b-44be-834a-216ac5a0cdc1/ed9e6db9-fe00-41e7-b50e-5ef337231ebd",
            "applyInputsToFlow": false
          }
        ],
        "entities": [],
        "entityGroups": [
          {
            "id": "67220399-6a13-4962-bc61-98f9c09a7aaf",
            "type": "entityGroup",
            "label": "defaultEntityGroup",
            "dependsOn": [],
            "primaryKey": "default",
            "description": "defaultEntityGroup",
            "sharedEndPoint": false
          }
        ],
        "outcomes": [
          {
            "id": "8003b53d-e803-417d-818e-1101531c3b55",
            "type": "outcome",
            "color": "#FFBFCB",
            "label": "Abandon",
            "reasons": [],
            "percentage": 33,
            "description": "User exits system without completion point.",
            "outcomeType": "Project",
            "outcomeValue": "Negative"
          },
          {
            "id": "e17f7206-7c43-4be0-9889-b0578d326de7",
            "type": "outcome",
            "color": "#FFED8F",
            "label": "Contained",
            "reasons": [],
            "percentage": 33,
            "description": "User completes task without Human Assistance, Golden Call.",
            "outcomeType": "Project",
            "outcomeValue": "Positive"
          },
          {
            "id": "70c5768d-7cfa-43ea-9f4a-4ea4e2c75b42",
            "type": "outcome",
            "color": "#8FBCFF",
            "label": "HITL",
            "reasons": [],
            "percentage": 33,
            "description": "Human in the Loop",
            "outcomeType": "Project",
            "outcomeValue": "Neutral"
          }
        ],
        "subflows": [
          {
            "id": "f91d701f-7452-4e03-998d-eff3b57542ff",
            "flowDataSet": [
              {
                "channel": {
                  "id": "IVR",
                  "type": "channel",
                  "label": "IVR",
                  "description": "Voice over the phone"
                },
                "flowData": [
                  {
                    "id": "bbe9a3d0-8d76-4d0c-bb65-728c9601137d",
                    "flow": [
                      {
                        "id": "6d7485f8-c8d2-4872-8121-e35fd6aa44e7",
                        "label": "default",
                        "order": 1,
                        "toNode": "addPoint",
                        "description": "Start Experience",
                        "type": "flowCondition"
                      }
                    ],
                    "type": "node",
                    "label": "Start",
                    "nodeType": "startPoint",
                    "description": "Pattern Flow Start",
                    "parent": "11250/11250/SubFlow1",
                    "parentId": "16cafa33-1a9b-44be-834a-216ac5a0cdc1/ed9e6db9-fe00-41e7-b50e-5ef337231ebd/f91d701f-7452-4e03-998d-eff3b57542ff",
                    "nodeDisplayOption": "description",
                    "applyInputsToFlow": false
                  }
                ]
              },
              {
                "channel": {
                  "id": "RWC",
                  "type": "channel",
                  "label": "RWC",
                  "description": "Rich webchat UI"
                },
                "flowData": [
                  {
                    "id": "b7674c23-78cd-4054-8476-85e3ab4ac0f6",
                    "flow": [
                      {
                        "id": "a495d96b-8651-4170-a0db-924fd475c5cb",
                        "label": "default",
                        "order": 1,
                        "toNode": "addPoint",
                        "description": "Start Experience",
                        "type": "flowCondition"
                      }
                    ],
                    "type": "node",
                    "label": "Start",
                    "nodeType": "startPoint",
                    "description": "Pattern Flow Start",
                    "parent": "11250/11250/SubFlow1",
                    "parentId": "16cafa33-1a9b-44be-834a-216ac5a0cdc1/ed9e6db9-fe00-41e7-b50e-5ef337231ebd/f91d701f-7452-4e03-998d-eff3b57542ff",
                    "nodeDisplayOption": "description",
                    "applyInputsToFlow": false
                  }
                ]
              },
              {
                "channel": {
                  "id": "SMS",
                  "type": "channel",
                  "label": "SMS",
                  "description": "Text messaging"
                },
                "flowData": [
                  {
                    "id": "53051620-144e-4f9f-a467-1704dd5af2f4",
                    "flow": [
                      {
                        "id": "90c9dbd4-5fb4-45c8-b64c-65eb1c52520d",
                        "label": "default",
                        "order": 1,
                        "toNode": "addPoint",
                        "description": "Start Experience",
                        "type": "flowCondition"
                      }
                    ],
                    "type": "node",
                    "label": "Start",
                    "nodeType": "startPoint",
                    "description": "Pattern Flow Start",
                    "parent": "11250/11250/SubFlow1",
                    "parentId": "16cafa33-1a9b-44be-834a-216ac5a0cdc1/ed9e6db9-fe00-41e7-b50e-5ef337231ebd/f91d701f-7452-4e03-998d-eff3b57542ff",
                    "nodeDisplayOption": "description",
                    "applyInputsToFlow": false
                  }
                ]
              }
            ],
            "label": "SubFlow1",
            "description": "This is first SubFlow description",
            "parent": "11250/11250",
            "parentId": "16cafa33-1a9b-44be-834a-216ac5a0cdc1/ed9e6db9-fe00-41e7-b50e-5ef337231ebd",
            "subflows": [],
            "type": "subFlow"
          },
          {
            "id": "21954a77-bb01-4504-bf09-c42d5b2821dc",
            "flowDataSet": [
              {
                "channel": {
                  "id": "IVR",
                  "type": "channel",
                  "label": "IVR",
                  "description": "Voice over the phone"
                },
                "flowData": [
                  {
                    "id": "fc16a868-4b25-4686-a580-47176783f31a",
                    "flow": [
                      {
                        "id": "730c9c31-f38b-4596-833f-771b094223e8",
                        "label": "default",
                        "order": 1,
                        "toNode": "addPoint",
                        "description": "Start Experience",
                        "type": "flowCondition"
                      }
                    ],
                    "type": "node",
                    "label": "Start",
                    "nodeType": "startPoint",
                    "description": "Pattern Flow Start",
                    "parent": "11250/11250/SubFlow2",
                    "parentId": "16cafa33-1a9b-44be-834a-216ac5a0cdc1/ed9e6db9-fe00-41e7-b50e-5ef337231ebd/21954a77-bb01-4504-bf09-c42d5b2821dc",
                    "nodeDisplayOption": "description",
                    "applyInputsToFlow": false
                  }
                ]
              },
              {
                "channel": {
                  "id": "RWC",
                  "type": "channel",
                  "label": "RWC",
                  "description": "Rich webchat UI"
                },
                "flowData": [
                  {
                    "id": "60624bf6-d39a-47df-b38f-bcc6856969c4",
                    "flow": [
                      {
                        "id": "c672e98a-e4e2-41be-b5e9-d4d559d58198",
                        "label": "default",
                        "order": 1,
                        "toNode": "addPoint",
                        "description": "Start Experience",
                        "type": "flowCondition"
                      }
                    ],
                    "type": "node",
                    "label": "Start",
                    "nodeType": "startPoint",
                    "description": "Pattern Flow Start",
                    "parent": "11250/11250/SubFlow2",
                    "parentId": "16cafa33-1a9b-44be-834a-216ac5a0cdc1/ed9e6db9-fe00-41e7-b50e-5ef337231ebd/21954a77-bb01-4504-bf09-c42d5b2821dc",
                    "nodeDisplayOption": "description",
                    "applyInputsToFlow": false
                  }
                ]
              },
              {
                "channel": {
                  "id": "SMS",
                  "type": "channel",
                  "label": "SMS",
                  "description": "Text messaging"
                },
                "flowData": [
                  {
                    "id": "04a6ff81-b12b-4a8a-9c82-237a861f44c5",
                    "flow": [
                      {
                        "id": "db0fd547-d99d-4aa0-b139-529ec958bee1",
                        "label": "default",
                        "order": 1,
                        "toNode": "addPoint",
                        "description": "Start Experience",
                        "type": "flowCondition"
                      }
                    ],
                    "type": "node",
                    "label": "Start",
                    "nodeType": "startPoint",
                    "description": "Pattern Flow Start",
                    "parent": "11250/11250/SubFlow2",
                    "parentId": "16cafa33-1a9b-44be-834a-216ac5a0cdc1/ed9e6db9-fe00-41e7-b50e-5ef337231ebd/21954a77-bb01-4504-bf09-c42d5b2821dc",
                    "nodeDisplayOption": "description",
                    "applyInputsToFlow": false
                  }
                ]
              }
            ],
            "label": "SubFlow2",
            "description": "This is second SubFlow description",
            "parent": "11250/11250",
            "parentId": "16cafa33-1a9b-44be-834a-216ac5a0cdc1/ed9e6db9-fe00-41e7-b50e-5ef337231ebd",
            "subflows": [],
            "type": "subFlow"
          }
        ],
        "mapper": [],
        "description": ""
      }
    ],
    "templates": {
      "YesNoTemplateId": {
        "id": "YesNoTemplateId",
        "label": "YesNoQuestion",
        "description": "This is the default ClosedQuestion template",
        "templateType": "closedQuestion",
        "channelConditions": [
          {
            "flow": [],
            "input": {
              "models": [
                {
                  "id": "84c27951-62b5-4409-9a76-02db84905a74",
                  "type": "inputCondition",
                  "label": "Yes",
                  "parser": "yes, yeah, yah",
                  "inputType": "Matcher",
                  "containsPii": false,
                  "description": "positive user response"
                },
                {
                  "id": "d6e9ed57-eec3-4b63-9b40-2636d8afb51d",
                  "type": "inputCondition",
                  "label": "No",
                  "parser": "no, nope, nah",
                  "inputType": "Matcher",
                  "containsPii": false,
                  "description": "negative user response"
                }
              ]
            },
            "output": [],
            "channelId": "IVR"
          },
          {
            "flow": [],
            "input": {
              "models": [
                {
                  "id": "883419c6-6bc2-4cd3-b940-589803512a75",
                  "type": "inputCondition",
                  "label": "Yes",
                  "parser": "yes, yeah, yah",
                  "inputType": "Matcher",
                  "containsPii": false,
                  "description": "positive user response"
                },
                {
                  "id": "1f4a6d0a-7102-4d21-b48b-eda5f2468238",
                  "type": "inputCondition",
                  "label": "No",
                  "parser": "no, nope, nah",
                  "inputType": "Matcher",
                  "containsPii": false,
                  "description": "negative user response"
                }
              ]
            },
            "output": [],
            "channelId": "RWC"
          },
          {
            "flow": [],
            "input": {
              "models": [
                {
                  "id": "55b44d08-3640-46c4-a41d-4df1be80ecd0",
                  "type": "inputCondition",
                  "label": "Yes",
                  "parser": "yes, yeah, yah",
                  "inputType": "Matcher",
                  "containsPii": false,
                  "description": "positive user response"
                },
                {
                  "id": "37788313-3293-44ac-99e5-5106508d49e0",
                  "type": "inputCondition",
                  "label": "No",
                  "parser": "no, nope, nah",
                  "inputType": "Matcher",
                  "containsPii": false,
                  "description": "negative user response"
                }
              ]
            },
            "output": [],
            "channelId": "SMS"
          },
          {
            "flow": [],
            "input": {
              "models": []
            },
            "output": [],
            "channelId": "App"
          },
          {
            "flow": [],
            "input": {
              "models": [
                {
                  "id": "4352e345-2ab9-49f1-8862-d47836bb7d8e",
                  "type": "inputCondition",
                  "label": "Yes",
                  "parser": "yes, yeah, yah",
                  "inputType": "Matcher",
                  "containsPii": false,
                  "description": "positive user response"
                },
                {
                  "id": "e6773ba3-9291-43b4-af2b-5c1d90d91add",
                  "type": "inputCondition",
                  "label": "No",
                  "parser": "no, nope, nah",
                  "inputType": "Matcher",
                  "containsPii": false,
                  "description": "negative user response"
                }
              ]
            },
            "output": [],
            "channelId": "rSMS"
          },
          {
            "flow": [],
            "input": {
              "models": [
                {
                  "id": "c87b6936-6df2-4079-b960-c4e2065bfaa3",
                  "type": "inputCondition",
                  "label": "Yes",
                  "parser": "yes, yeah, yah",
                  "inputType": "Matcher",
                  "containsPii": false,
                  "description": "positive user response"
                },
                {
                  "id": "10be9778-a848-436c-b450-ed5ac7b02003",
                  "type": "inputCondition",
                  "label": "No",
                  "parser": "no, nope, nah",
                  "inputType": "Matcher",
                  "containsPii": false,
                  "description": "negative user response"
                }
              ]
            },
            "output": [],
            "channelId": "VoIP"
          }
        ],
        "hasPre": true,
        "hasPost": true,
        "hasRepair": true
      },
      "defaultOpenTemplate": {
        "id": "defaultOpenTemplate",
        "label": "DefaultOpenTemplate",
        "hasPre": true,
        "hasPost": true,
        "hasRepair": true,
        "description": "This is the default open template.",
        "templateType": "openQuestion",
        "channelConditions": [
          {
            "flow": [],
            "input": {
              "models": []
            },
            "output": [],
            "channelId": "IVR"
          },
          {
            "flow": [],
            "input": {
              "models": []
            },
            "output": [],
            "channelId": "RWC"
          },
          {
            "flow": [],
            "input": {
              "models": []
            },
            "output": [],
            "channelId": "SMS"
          },
          {
            "flow": [],
            "input": {
              "models": []
            },
            "output": [],
            "channelId": "App"
          },
          {
            "flow": [],
            "input": {
              "models": []
            },
            "output": [],
            "channelId": "rSMS"
          },
          {
            "flow": [],
            "input": {
              "models": []
            },
            "output": [],
            "channelId": "VoIP"
          }
        ]
      },
      "defaultClosedTemplate": {
        "id": "defaultClosedTemplate",
        "label": "DefaultClosedTemplate",
        "hasPre": true,
        "hasPost": true,
        "hasRepair": true,
        "description": "This is the default closed template.",
        "templateType": "closedQuestion",
        "channelConditions": [
          {
            "flow": [],
            "input": {
              "models": []
            },
            "output": [],
            "channelId": "IVR"
          },
          {
            "flow": [],
            "input": {
              "models": []
            },
            "output": [],
            "channelId": "RWC"
          },
          {
            "flow": [],
            "input": {
              "models": []
            },
            "output": [],
            "channelId": "SMS"
          },
          {
            "flow": [],
            "input": {
              "models": []
            },
            "output": [],
            "channelId": "App"
          },
          {
            "flow": [],
            "input": {
              "models": []
            },
            "output": [],
            "channelId": "rSMS"
          },
          {
            "flow": [],
            "input": {
              "models": []
            },
            "output": [],
            "channelId": "VoIP"
          }
        ]
      },
      "defaultPromptTemplate": {
        "id": "defaultPromptTemplate",
        "label": "DefaultPromptTemplate",
        "hasPre": true,
        "hasPost": true,
        "hasRepair": true,
        "description": "This is the default prompt template.",
        "templateType": "prompt",
        "channelConditions": [
          {
            "flow": [],
            "input": {
              "models": []
            },
            "output": [],
            "channelId": "IVR"
          },
          {
            "flow": [],
            "input": {
              "models": []
            },
            "output": [],
            "channelId": "RWC"
          },
          {
            "flow": [],
            "input": {
              "models": []
            },
            "output": [],
            "channelId": "SMS"
          },
          {
            "flow": [],
            "input": {
              "models": []
            },
            "output": [],
            "channelId": "App"
          },
          {
            "flow": [],
            "input": {
              "models": []
            },
            "output": [],
            "channelId": "rSMS"
          },
          {
            "flow": [],
            "input": {
              "models": []
            },
            "output": [],
            "channelId": "VoIP"
          }
        ]
      }
    },
    "description": "",
    "projectType": "None",
    "destinationPdes": [],
    "outcomesBaseline": [],
    "globalRepairRules": [
      {
        "id": "OOCRule",
        "label": "Out of Context",
        "outcome": "fallback",
        "repairType": "outOfContext",
        "description": "Out of context response are when the NLU is unable to classify the user's input. The user is asked to repeat.",
        "numberOfAttempts": 2
      },
      {
        "id": "NRRule",
        "label": "No Response",
        "outcome": "fallback",
        "repairType": "noResponse",
        "description": "No response is when the user does not provide any input. The system will reprompt the user to provide a response",
        "numberOfAttempts": 2
      },
      {
        "id": "ARRule",
        "label": "Agent Request",
        "outcome": "escalate",
        "repairType": "agentRequest",
        "description": "User requests Agent Transfer will trigger an Escalate flow",
        "numberOfAttempts": 1
      },
      {
        "id": "MRBFrule",
        "label": "Maximum Repair before Fallback",
        "outcome": "fallback",
        "repairType": "maximum",
        "description": "Total number of repairs before triggering a fallback action. Fallback should be offering another channel or escalating to an agent",
        "numberOfAttempts": 3
      }
    ],
    "projectObjectVersion": 1
  }
