{
  "type": "project",
  "label": "11978",
  "outcomes": [
    {
      "id": "396f481c-c873-4955-86ff-98599ab8159e",
      "type": "outcome",
      "color": "#FFED8F",
      "label": "Contained",
      "reasons": [],
      "percentage": 33,
      "description": "User completes task without Human Assistance, Golden Call.",
      "outcomeType": "Project",
      "outcomeValue": "Positive"
    },
    {
      "id": "637fbbe0-0a4c-41ac-9768-6a0b07ef9638",
      "type": "outcome",
      "color": "#8FBCFF",
      "label": "HITL",
      "reasons": [],
      "percentage": 33,
      "description": "Human in the Loop",
      "outcomeType": "Project",
      "outcomeValue": "Neutral"
    },
    {
      "id": "e751b164-d468-475b-a1a1-159defbcceae",
      "type": "outcome",
      "color": "#FFBFCB",
      "label": "Abandon",
      "reasons": [],
      "percentage": 33,
      "description": "User exits system without completion point.",
      "outcomeType": "Project",
      "outcomeValue": "Negative"
    },
    {
      "id": "escalate",
      "label": "Escalate",
      "description": "User is moved to Global Agent Transfer pattern, passing along flow and context.",
      "destinationPattern": "",
      "outcomeType": "Global",
      "outcomeValue": "Neutral",
      "type": "outcome",
      "color": "#8FBCFF"
    },
    {
      "id": "fallback",
      "label": "Fallback",
      "description": "If user is stuck in n or more repairs on the voice channel. Offer alternate channel if available, or switch to easier input.",
      "destinationPattern": "",
      "outcomeType": "Global",
      "outcomeValue": "Neutral",
      "type": "outcome",
      "color": "#EBBFFF"
    }
  ],
  "patterns": [
    {
      "label": "11978",
      "id": "4756e72a-a614-4526-aa9a-572355a40f3e",
      "parent": "11978",
      "parentId": "5543e3a5-9a21-4d78-a275-0abd17eb2755",
      "patternType": "Inbound",
      "nodeType": "pattern",
      "type": "pattern",
      "channels": [
        {
          "id": "IVR",
          "type": "channel",
          "label": "IVR",
          "description": "Voice over the phone"
        },
        {
          "id": "RWC",
          "type": "channel",
          "label": "RWC",
          "description": "Rich webchat UI"
        },
        {
          "id": "SMS",
          "type": "channel",
          "label": "SMS",
          "description": "Text messaging"
        }
      ],
      "flowData": [
        {
          "id": "81284214-73dc-4fe0-906f-d5cc11ed9e0b",
          "flow": [
            {
              "id": "1763ef03-d171-4703-90b5-c04c8ffb2e29",
              "type": "flowCondition",
              "label": "subflow1",
              "order": 1,
              "toNode": "SubFlow1",
              "description": "This is first SubFlow link description",
              "gotoNodeType": "normal"
            }
          ],
          "type": "node",
          "label": "Start",
          "parent": "11978/11978",
          "nodeType": "startPoint",
          "parentId": "5543e3a5-9a21-4d78-a275-0abd17eb2755/4756e72a-a614-4526-aa9a-572355a40f3e",
          "description": "Pattern Flow Start",
          "applyInputsToFlow": false,
          "nodeDisplayOption": "description"
        },
        {
          "id": "114e3258-b32d-4f8e-82b0-ffcfd18b7a6b",
          "flow": [
            {
              "id": "2524fb5d-94c9-47ee-a47d-222baa3b4356",
              "type": "flowCondition",
              "label": "default",
              "order": 1,
              "toNode": "addPoint",
              "linkType": "down"
            }
          ],
          "type": "node",
          "label": "SubFlow1",
          "parent": "11978/11978",
          "nodeType": "subFlow",
          "parentId": "5543e3a5-9a21-4d78-a275-0abd17eb2755/4756e72a-a614-4526-aa9a-572355a40f3e",
          "subflowId": "612f15c3-59bd-4bf7-ac4d-77cbea2c4f3b",
          "containsPii": false,
          "description": "This is first SubFlow description",
          "applyInputsToFlow": false,
          "nodeDisplayOption": "description"
        }
      ],
      "entities": [],
      "entityGroups": [
        {
          "id": "a212df12-f83c-4300-9ea5-12c8b58ba218",
          "type": "entityGroup",
          "label": "defaultEntityGroup",
          "dependsOn": [],
          "primaryKey": "default",
          "description": "defaultEntityGroup",
          "sharedEndPoint": false
        }
      ],
      "outcomes": [
        {
          "id": "396f481c-c873-4955-86ff-98599ab8159e",
          "type": "outcome",
          "color": "#FFED8F",
          "label": "Contained",
          "reasons": [],
          "percentage": 33,
          "description": "User completes task without Human Assistance, Golden Call.",
          "outcomeType": "Project",
          "outcomeValue": "Positive"
        },
        {
          "id": "637fbbe0-0a4c-41ac-9768-6a0b07ef9638",
          "type": "outcome",
          "color": "#8FBCFF",
          "label": "HITL",
          "reasons": [],
          "percentage": 33,
          "description": "Human in the Loop",
          "outcomeType": "Project",
          "outcomeValue": "Neutral"
        },
        {
          "id": "e751b164-d468-475b-a1a1-159defbcceae",
          "type": "outcome",
          "color": "#FFBFCB",
          "label": "Abandon",
          "reasons": [],
          "percentage": 33,
          "description": "User exits system without completion point.",
          "outcomeType": "Project",
          "outcomeValue": "Negative"
        }
      ],
      "subflows": [
        {
          "id": "612f15c3-59bd-4bf7-ac4d-77cbea2c4f3b",
          "flowDataSet": [
            {
              "channel": {
                "id": "IVR",
                "type": "channel",
                "label": "IVR",
                "description": "Voice over the phone"
              },
              "flowData": [
                {
                  "id": "a12f7bda-2b69-41fd-a7de-928529bfddf7",
                  "flow": [
                    {
                      "id": "425ae015-c8b5-4378-bee2-5668420f272d",
                      "type": "flowCondition",
                      "label": "tag1",
                      "order": 1,
                      "toNode": "Tag1",
                      "description": "This is first Tag link description",
                      "gotoNodeType": "normal"
                    }
                  ],
                  "type": "node",
                  "label": "Start",
                  "parent": "11978/11978/SubFlow1",
                  "nodeType": "startPoint",
                  "parentId": "5543e3a5-9a21-4d78-a275-0abd17eb2755/4756e72a-a614-4526-aa9a-572355a40f3e/612f15c3-59bd-4bf7-ac4d-77cbea2c4f3b",
                  "description": "Pattern Flow Start",
                  "applyInputsToFlow": false,
                  "nodeDisplayOption": "description"
                },
                {
                  "id": "adaa4d20-7fb1-4ff7-825a-800018c146a9",
                  "flow": [
                    {
                      "label": "closedquestion2",
                      "order": 1,
                      "toNode": "ClosedQuestion2",
                      "linkType": "down",
                      "description": "This is second ClosedQuestion link description",
                      "gotoNodeType": "normal",
                      "id": "781a1b4e-fac8-4114-87b1-e35f7291a28b",
                      "type": "flowCondition"
                    },
                    {
                      "label": "closedquestion1",
                      "order": 2,
                      "toNode": "ClosedQuestion1",
                      "linkType": "down",
                      "description": "This is first ClosedQuestion link description",
                      "gotoNodeType": "normal",
                      "id": "c898f4bd-36bc-4870-90a9-859034ec67a7",
                      "type": "flowCondition"
                    }
                  ],
                  "type": "node",
                  "label": "Tag1",
                  "parent": "11978/11978/SubFlow1",
                  "nodeType": "tagNode",
                  "parentId": "5543e3a5-9a21-4d78-a275-0abd17eb2755/4756e72a-a614-4526-aa9a-572355a40f3e/612f15c3-59bd-4bf7-ac4d-77cbea2c4f3b",
                  "containsPii": false,
                  "description": "This is first Tag description",
                  "nodeDisplayOption": "description",
                  "applyInputsToFlow": false
                },
                {
                  "id": "f50eca98-b054-412c-8d7e-0ee26ed0d908",
                  "flow": [
                    {
                      "label": "default",
                      "order": 1,
                      "linkType": "down",
                      "id": "e56b60c1-2cd3-4645-8b59-7c73da249801",
                      "toNode": "addPoint",
                      "type": "flowCondition"
                    },
                    {
                      "label": "Repair",
                      "order": 2,
                      "toNode": "ClosedQuestion1",
                      "linkType": "loop",
                      "id": "a507b283-0826-4be5-a5e9-9990f3a2aa0b",
                      "type": "flowCondition"
                    },
                    {
                      "label": "gotoLink",
                      "order": 3,
                      "toNode": "ClosedQuestion2",
                      "linkType": "down",
                      "description": "This is GoToNode description.",
                      "gotoNodeType": "gotoLink",
                      "id": "4620a9c8-33ee-4d8a-ba2e-6a6fb31b1446",
                      "type": "flowCondition"
                    }
                  ],
                  "type": "node",
                  "input": [
                    {
                      "id": "ad7c5431-c724-473c-b6f1-536383e4acee",
                      "type": "inputCondition",
                      "label": "OfferParser",
                      "order": 1,
                      "parser": "HelloModel",
                      "inputType": "NLUModel"
                    }
                  ],
                  "label": "ClosedQuestion1",
                  "output": [
                    {
                      "id": "0ae09fd0-24f5-4cdb-a4a0-1921d0340ea4",
                      "type": "outputCondition",
                      "label": "Default",
                      "edited": true,
                      "content": [
                        {
                          "id": "9a2aa942-49d7-4433-9054-231016268baf",
                          "value": "text",
                          "channel": "IVR",
                          "dynamic": false,
                          "contentType": "Prompt"
                        }
                      ],
                      "template": false,
                      "conditionType": "primary"
                    }
                  ],
                  "parent": "11978/11978/SubFlow1",
                  "nodeType": "closedQuestion",
                  "parentId": "5543e3a5-9a21-4d78-a275-0abd17eb2755/4756e72a-a614-4526-aa9a-572355a40f3e/612f15c3-59bd-4bf7-ac4d-77cbea2c4f3b",
                  "nodeRules": {
                    "repairRules": [],
                    "useGlobalRepairs": true,
                    "useGlobalEscalate": true,
                    "useGlobalFallback": true
                  },
                  "templateId": "defaultClosedTemplate",
                  "containsPii": false,
                  "description": "This is first ClosedQuestion description",
                  "channelSettings": {
                    "ttsEngine": "",
                    "acceptDTMF": true,
                    "talkingSpeed": 10
                  },
                  "nodeDisplayOption": "description",
                  "applyInputsToFlow": false
                },
                {
                  "id": "2520ba12-cf33-4d34-940c-b5482969eace",
                  "flow": [
                    {
                      "label": "closedquestion3",
                      "order": 1,
                      "toNode": "ClosedQuestion3",
                      "linkType": "down",
                      "description": "This is third ClosedQuestion link description",
                      "gotoNodeType": "normal",
                      "id": "ab8e6b61-42d7-4437-87d4-d78349ede65a",
                      "type": "flowCondition"
                    },
                    {
                      "label": "Repair",
                      "order": 2,
                      "toNode": "ClosedQuestion2",
                      "linkType": "loop",
                      "id": "c57ee664-9976-46c4-a704-77b583335191",
                      "type": "flowCondition"
                    },
                    {
                      "label": "closedquestion4",
                      "order": 3,
                      "toNode": "ClosedQuestion4",
                      "linkType": "down",
                      "description": "This is fourth ClosedQuestion link description",
                      "gotoNodeType": "normal",
                      "id": "5b71e453-891a-42ad-b26e-e3afd2ef382a",
                      "type": "flowCondition"
                    }
                  ],
                  "type": "node",
                  "input": [
                    {
                      "id": "5ea140fa-e753-4cc7-bca0-988df48f6947",
                      "type": "inputCondition",
                      "label": "OfferParser",
                      "order": 1,
                      "parser": "HelloModel",
                      "inputType": "NLUModel"
                    }
                  ],
                  "label": "ClosedQuestion2",
                  "output": [
                    {
                      "id": "f51bd7db-79b2-49d9-b650-1cb1d890de67",
                      "type": "outputCondition",
                      "label": "Default",
                      "edited": true,
                      "content": [
                        {
                          "id": "ebb26938-4722-4e54-a45b-0554431c5a97",
                          "value": "text",
                          "channel": "IVR",
                          "dynamic": false,
                          "contentType": "Prompt"
                        }
                      ],
                      "template": false,
                      "conditionType": "primary"
                    }
                  ],
                  "parent": "11978/11978/SubFlow1",
                  "nodeType": "closedQuestion",
                  "parentId": "5543e3a5-9a21-4d78-a275-0abd17eb2755/4756e72a-a614-4526-aa9a-572355a40f3e/612f15c3-59bd-4bf7-ac4d-77cbea2c4f3b",
                  "nodeRules": {
                    "repairRules": [],
                    "useGlobalRepairs": true,
                    "useGlobalEscalate": true,
                    "useGlobalFallback": true
                  },
                  "templateId": "defaultClosedTemplate",
                  "containsPii": false,
                  "description": "This is second ClosedQuestion description",
                  "channelSettings": {
                    "ttsEngine": "",
                    "acceptDTMF": true,
                    "talkingSpeed": 10
                  },
                  "nodeDisplayOption": "description",
                  "applyInputsToFlow": false
                },
                {
                  "id": "f51870d9-ee1c-43ec-800f-af1d40cadfc3",
                  "flow": [
                    {
                      "label": "gotoLink",
                      "order": 1,
                      "toNode": "ClosedQuestion4",
                      "linkType": "down",
                      "description": "This is GoToNode description.",
                      "gotoNodeType": "gotoLink",
                      "id": "31a59e11-e335-4560-85b7-aae42500d5a0",
                      "type": "flowCondition"
                    },
                    {
                      "label": "Repair",
                      "order": 2,
                      "toNode": "ClosedQuestion3",
                      "linkType": "loop",
                      "id": "b2b26dc0-deec-4818-a853-0e1d1b844cc3",
                      "type": "flowCondition"
                    }
                  ],
                  "type": "node",
                  "input": [
                    {
                      "id": "9f12a4b1-d978-481b-904f-f868ae28c2c9",
                      "type": "inputCondition",
                      "label": "OfferParser",
                      "order": 1,
                      "parser": "HelloModel",
                      "inputType": "NLUModel"
                    }
                  ],
                  "label": "ClosedQuestion3",
                  "output": [
                    {
                      "id": "fc03540f-9bff-4732-8f4c-0dff0f791d27",
                      "type": "outputCondition",
                      "label": "Default",
                      "edited": true,
                      "content": [
                        {
                          "id": "16e4e0c6-7b67-408f-b806-bb0c7992bd8c",
                          "value": "text",
                          "channel": "IVR",
                          "dynamic": false,
                          "contentType": "Prompt"
                        }
                      ],
                      "template": false,
                      "conditionType": "primary"
                    }
                  ],
                  "parent": "11978/11978/SubFlow1",
                  "nodeType": "closedQuestion",
                  "parentId": "5543e3a5-9a21-4d78-a275-0abd17eb2755/4756e72a-a614-4526-aa9a-572355a40f3e/612f15c3-59bd-4bf7-ac4d-77cbea2c4f3b",
                  "nodeRules": {
                    "repairRules": [],
                    "useGlobalRepairs": true,
                    "useGlobalEscalate": true,
                    "useGlobalFallback": true
                  },
                  "templateId": "defaultClosedTemplate",
                  "containsPii": false,
                  "description": "This is third ClosedQuestion description",
                  "channelSettings": {
                    "ttsEngine": "",
                    "acceptDTMF": true,
                    "talkingSpeed": 10
                  },
                  "nodeDisplayOption": "description",
                  "applyInputsToFlow": false
                },
                {
                  "id": "d0195247-9dcb-40b3-8a54-e3c956985672",
                  "flow": [
                    {
                      "label": "prompt1",
                      "order": 1,
                      "toNode": "Prompt1",
                      "linkType": "down",
                      "description": "This is first Prompt link description",
                      "gotoNodeType": "normal",
                      "id": "770ad853-3e61-4e65-8389-034e1913a2d8",
                      "type": "flowCondition"
                    },
                    {
                      "label": "Repair",
                      "order": 2,
                      "toNode": "ClosedQuestion4",
                      "linkType": "loop",
                      "id": "cdaf2ed9-f08e-4fed-ad3d-8a2ae016fef9",
                      "type": "flowCondition"
                    }
                  ],
                  "type": "node",
                  "input": [
                    {
                      "id": "003da754-0eda-43b9-81f7-1c2ff453ca2b",
                      "type": "inputCondition",
                      "label": "OfferParser",
                      "order": 1,
                      "parser": "HelloModel",
                      "inputType": "NLUModel"
                    }
                  ],
                  "label": "ClosedQuestion4",
                  "output": [
                    {
                      "id": "8f381c9b-be94-456c-be92-ae620cf02cf3",
                      "type": "outputCondition",
                      "label": "Default",
                      "edited": true,
                      "content": [
                        {
                          "id": "3a93c029-39f0-4cd1-89d4-40240fb2e9b2",
                          "value": "text",
                          "channel": "IVR",
                          "dynamic": false,
                          "contentType": "Prompt"
                        }
                      ],
                      "template": false,
                      "conditionType": "primary"
                    }
                  ],
                  "parent": "11978/11978/SubFlow1",
                  "nodeType": "closedQuestion",
                  "parentId": "5543e3a5-9a21-4d78-a275-0abd17eb2755/4756e72a-a614-4526-aa9a-572355a40f3e/612f15c3-59bd-4bf7-ac4d-77cbea2c4f3b",
                  "nodeRules": {
                    "repairRules": [],
                    "useGlobalRepairs": true,
                    "useGlobalEscalate": true,
                    "useGlobalFallback": true
                  },
                  "templateId": "defaultClosedTemplate",
                  "containsPii": false,
                  "description": "This is fourth ClosedQuestion description",
                  "channelSettings": {
                    "ttsEngine": "",
                    "acceptDTMF": true,
                    "talkingSpeed": 10
                  },
                  "nodeDisplayOption": "description",
                  "applyInputsToFlow": false
                },
                {
                  "id": "33062f1c-2a5a-4d5a-90f2-94041fec64a3",
                  "flow": [
                    {
                      "label": "default",
                      "order": 1,
                      "toNode": "default",
                      "linkType": "down",
                      "description": "",
                      "gotoNodeType": "endPoint",
                      "id": "67378921-70d0-4524-b182-69c9fc3ad6aa",
                      "type": "flowCondition"
                    },
                    {
                      "label": "tag2",
                      "order": 2,
                      "toNode": "tag2",
                      "linkType": "down",
                      "description": "This is second Tag link description",
                      "gotoNodeType": "normal",
                      "id": "f4e9d6eb-a400-4511-b66d-ff5af5d385fc",
                      "type": "flowCondition"
                    }
                  ],
                  "type": "node",
                  "label": "Prompt1",
                  "output": [
                    {
                      "id": "ce7567b1-7d17-43dd-9f4e-aa179968c1b6",
                      "type": "outputCondition",
                      "label": "Default",
                      "edited": true,
                      "content": [
                        {
                          "id": "ce6cabdc-7e46-4d8a-bc16-bf4ef8254b2c",
                          "value": "text",
                          "channel": "IVR",
                          "dynamic": false,
                          "contentType": "Prompt"
                        }
                      ],
                      "template": false,
                      "conditionType": "primary"
                    }
                  ],
                  "parent": "11978/11978/SubFlow1",
                  "nodeType": "prompt",
                  "parentId": "5543e3a5-9a21-4d78-a275-0abd17eb2755/4756e72a-a614-4526-aa9a-572355a40f3e/612f15c3-59bd-4bf7-ac4d-77cbea2c4f3b",
                  "templateId": "defaultPromptTemplate",
                  "containsPii": false,
                  "description": "This is first Prompt description",
                  "nodeDisplayOption": "description",
                  "applyInputsToFlow": false,
                  "input": [],
                  "nodeRules": {
                    "id": "769cb449-1acc-4587-a64c-fcf5082a08c4",
                    "useGlobalEscalate": true,
                    "useGlobalFallback": true,
                    "useGlobalRepairs": true,
                    "repairRules": []
                  }
                },
                {
                  "id": "4dcae2d1-7a23-4298-802b-1c5192eb91fe",
                  "flow": [
                    {
                      "label": "prompt2",
                      "order": 1,
                      "toNode": "Prompt2",
                      "linkType": "down",
                      "description": "This is second Prompt link description",
                      "gotoNodeType": "normal",
                      "id": "1089f930-f853-4453-839d-21941a62591c",
                      "type": "flowCondition"
                    },
                    {
                      "label": "closedquestion5",
                      "order": 2,
                      "toNode": "ClosedQuestion5",
                      "linkType": "down",
                      "description": "This is fifth ClosedQuestion link description",
                      "gotoNodeType": "normal",
                      "id": "e91eaaba-36fb-4dfe-ad22-e7e55b013103",
                      "type": "flowCondition"
                    }
                  ],
                  "type": "node",
                  "label": "tag2",
                  "parent": "11978/11978/SubFlow1",
                  "nodeType": "tagNode",
                  "parentId": "5543e3a5-9a21-4d78-a275-0abd17eb2755/4756e72a-a614-4526-aa9a-572355a40f3e/612f15c3-59bd-4bf7-ac4d-77cbea2c4f3b",
                  "containsPii": false,
                  "description": "This is second Tag description",
                  "nodeDisplayOption": "description",
                  "applyInputsToFlow": false
                },
                {
                  "id": "cdecd9bc-1aa2-461d-b82c-86367609f03e",
                  "flow": [
                    {
                      "label": "default",
                      "order": 1,
                      "toNode": "default",
                      "linkType": "down",
                      "description": "",
                      "gotoNodeType": "endPoint",
                      "id": "376be96b-712e-443c-8894-5ea3ea9589d1",
                      "type": "flowCondition"
                    }
                  ],
                  "type": "node",
                  "label": "Prompt2",
                  "output": [
                    {
                      "id": "38b1e4bd-29e8-4b25-8c7c-9e328c87fcb2",
                      "type": "outputCondition",
                      "label": "Default",
                      "edited": true,
                      "content": [
                        {
                          "id": "d0c503e0-8440-4bd2-ba59-b6638ab94be7",
                          "value": "text",
                          "channel": "IVR",
                          "dynamic": false,
                          "contentType": "Prompt"
                        }
                      ],
                      "template": false,
                      "conditionType": "primary"
                    }
                  ],
                  "parent": "11978/11978/SubFlow1",
                  "nodeType": "prompt",
                  "parentId": "5543e3a5-9a21-4d78-a275-0abd17eb2755/4756e72a-a614-4526-aa9a-572355a40f3e/612f15c3-59bd-4bf7-ac4d-77cbea2c4f3b",
                  "templateId": "defaultPromptTemplate",
                  "containsPii": false,
                  "description": "This is second Prompt description",
                  "nodeDisplayOption": "description",
                  "applyInputsToFlow": false,
                  "input": [],
                  "nodeRules": {
                    "id": "d9057a37-bade-4627-9048-bc9ce839187d",
                    "useGlobalEscalate": true,
                    "useGlobalFallback": true,
                    "useGlobalRepairs": true,
                    "repairRules": []
                  }
                },
                {
                  "id": "7d15a253-5a1f-4373-baaf-002a0fb90233",
                  "flow": [
                    {
                      "label": "prompt3",
                      "order": 1,
                      "toNode": "Prompt3",
                      "linkType": "down",
                      "description": "This is third Prompt link description",
                      "gotoNodeType": "normal",
                      "id": "d7002150-e50b-498a-a2e4-2c69b1c55d88",
                      "type": "flowCondition"
                    },
                    {
                      "label": "Repair",
                      "order": 2,
                      "toNode": "ClosedQuestion5",
                      "linkType": "loop",
                      "id": "00f6e312-b2f9-438b-b8dd-d5231f2f4f9e",
                      "type": "flowCondition"
                    }
                  ],
                  "type": "node",
                  "input": [
                    {
                      "id": "085e05f9-4051-440d-ab08-04c66a00d081",
                      "type": "inputCondition",
                      "label": "OfferParser",
                      "order": 1,
                      "parser": "HelloModel",
                      "inputType": "NLUModel"
                    }
                  ],
                  "label": "ClosedQuestion5",
                  "output": [
                    {
                      "id": "ee7e8e5f-c2e6-4834-8e37-ea4c8262da0b",
                      "type": "outputCondition",
                      "label": "Default",
                      "edited": true,
                      "content": [
                        {
                          "id": "4d3f11d9-3426-43f2-9983-ba020c3bed6f",
                          "value": "text",
                          "channel": "IVR",
                          "dynamic": false,
                          "contentType": "Prompt"
                        }
                      ],
                      "template": false,
                      "conditionType": "primary"
                    }
                  ],
                  "parent": "11978/11978/SubFlow1",
                  "nodeType": "closedQuestion",
                  "parentId": "5543e3a5-9a21-4d78-a275-0abd17eb2755/4756e72a-a614-4526-aa9a-572355a40f3e/612f15c3-59bd-4bf7-ac4d-77cbea2c4f3b",
                  "nodeRules": {
                    "repairRules": [],
                    "useGlobalRepairs": true,
                    "useGlobalEscalate": true,
                    "useGlobalFallback": true
                  },
                  "templateId": "defaultClosedTemplate",
                  "containsPii": false,
                  "description": "This is fifth ClosedQuestion description",
                  "channelSettings": {
                    "ttsEngine": "",
                    "acceptDTMF": true,
                    "talkingSpeed": 10
                  },
                  "nodeDisplayOption": "description",
                  "applyInputsToFlow": false
                },
                {
                  "id": "45c87ec0-e263-4f25-a296-8bf1dee62660",
                  "flow": [
                    {
                      "label": "default",
                      "order": 1,
                      "toNode": "default",
                      "linkType": "down",
                      "description": "",
                      "gotoNodeType": "endPoint",
                      "id": "4c16b505-2c67-4272-959b-da56c758cf61",
                      "type": "flowCondition"
                    }
                  ],
                  "type": "node",
                  "label": "Prompt3",
                  "output": [
                    {
                      "id": "9bc98167-7580-44eb-852e-f9444379eb65",
                      "type": "outputCondition",
                      "label": "Default",
                      "edited": true,
                      "content": [
                        {
                          "id": "1d9f7639-0819-4617-a1b4-20794a633595",
                          "value": "text",
                          "channel": "IVR",
                          "dynamic": false,
                          "contentType": "Prompt"
                        }
                      ],
                      "template": false,
                      "conditionType": "primary"
                    }
                  ],
                  "parent": "11978/11978/SubFlow1",
                  "nodeType": "prompt",
                  "parentId": "5543e3a5-9a21-4d78-a275-0abd17eb2755/4756e72a-a614-4526-aa9a-572355a40f3e/612f15c3-59bd-4bf7-ac4d-77cbea2c4f3b",
                  "templateId": "defaultPromptTemplate",
                  "containsPii": false,
                  "description": "This is third Prompt description",
                  "nodeDisplayOption": "description",
                  "applyInputsToFlow": false,
                  "input": [],
                  "nodeRules": {
                    "id": "021adb85-55b7-46af-9783-33f8b5f541ec",
                    "useGlobalEscalate": true,
                    "useGlobalFallback": true,
                    "useGlobalRepairs": true,
                    "repairRules": []
                  }
                }
              ]
            },
            {
              "channel": {
                "id": "RWC",
                "type": "channel",
                "label": "RWC",
                "description": "Rich webchat UI"
              },
              "flowData": [
                {
                  "id": "99068a42-2092-4419-831e-b60eb9dfd942",
                  "flow": [
                    {
                      "id": "27595757-d9d4-4ff6-9700-31b0b89e633d",
                      "type": "flowCondition",
                      "label": "default",
                      "order": 1,
                      "toNode": "addPoint",
                      "description": "Start Experience"
                    }
                  ],
                  "type": "node",
                  "label": "Start",
                  "parent": "11978/11978/SubFlow1",
                  "nodeType": "startPoint",
                  "parentId": "5543e3a5-9a21-4d78-a275-0abd17eb2755/4756e72a-a614-4526-aa9a-572355a40f3e/612f15c3-59bd-4bf7-ac4d-77cbea2c4f3b",
                  "description": "Pattern Flow Start",
                  "applyInputsToFlow": false,
                  "nodeDisplayOption": "description"
                }
              ]
            },
            {
              "channel": {
                "id": "SMS",
                "type": "channel",
                "label": "SMS",
                "description": "Text messaging"
              },
              "flowData": [
                {
                  "id": "e6cff911-e543-4dc6-8b26-e1de2b3ea5a5",
                  "flow": [
                    {
                      "id": "51c2ee3f-b6c8-4787-bb12-54ac10f8e7a6",
                      "type": "flowCondition",
                      "label": "default",
                      "order": 1,
                      "toNode": "addPoint",
                      "description": "Start Experience"
                    }
                  ],
                  "type": "node",
                  "label": "Start",
                  "parent": "11978/11978/SubFlow1",
                  "nodeType": "startPoint",
                  "parentId": "5543e3a5-9a21-4d78-a275-0abd17eb2755/4756e72a-a614-4526-aa9a-572355a40f3e/612f15c3-59bd-4bf7-ac4d-77cbea2c4f3b",
                  "description": "Pattern Flow Start",
                  "applyInputsToFlow": false,
                  "nodeDisplayOption": "description"
                }
              ]
            }
          ],
          "label": "SubFlow1",
          "description": "This is first SubFlow description",
          "parent": "11978/11978",
          "parentId": "5543e3a5-9a21-4d78-a275-0abd17eb2755/4756e72a-a614-4526-aa9a-572355a40f3e",
          "subflows": [],
          "type": "subFlow"
        }
      ],
      "mapper": [],
      "description": ""
    }
  ],
  "templates": {
    "defaultOpenTemplate": {
      "id": "defaultOpenTemplate",
      "label": "DefaultOpenTemplate",
      "hasPre": true,
      "hasPost": true,
      "hasRepair": true,
      "description": "This is the default open template.",
      "templateType": "openQuestion",
      "channelConditions": [
        {
          "flow": [],
          "input": {
            "models": []
          },
          "output": [],
          "channelId": "IVR"
        },
        {
          "flow": [],
          "input": {
            "models": []
          },
          "output": [],
          "channelId": "RWC"
        },
        {
          "flow": [],
          "input": {
            "models": []
          },
          "output": [],
          "channelId": "SMS"
        },
        {
          "flow": [],
          "input": {
            "models": []
          },
          "output": [],
          "channelId": "App"
        },
        {
          "flow": [],
          "input": {
            "models": []
          },
          "output": [],
          "channelId": "rSMS"
        },
        {
          "flow": [],
          "input": {
            "models": []
          },
          "output": [],
          "channelId": "VoIP"
        }
      ]
    },
    "defaultClosedTemplate": {
      "id": "defaultClosedTemplate",
      "label": "DefaultClosedTemplate",
      "hasPre": true,
      "hasPost": true,
      "hasRepair": true,
      "description": "This is the default closed template.",
      "templateType": "closedQuestion",
      "channelConditions": [
        {
          "flow": [],
          "input": {
            "models": []
          },
          "output": [],
          "channelId": "IVR"
        },
        {
          "flow": [],
          "input": {
            "models": []
          },
          "output": [],
          "channelId": "RWC"
        },
        {
          "flow": [],
          "input": {
            "models": []
          },
          "output": [],
          "channelId": "SMS"
        },
        {
          "flow": [],
          "input": {
            "models": []
          },
          "output": [],
          "channelId": "App"
        },
        {
          "flow": [],
          "input": {
            "models": []
          },
          "output": [],
          "channelId": "rSMS"
        },
        {
          "flow": [],
          "input": {
            "models": []
          },
          "output": [],
          "channelId": "VoIP"
        }
      ]
    },
    "defaultPromptTemplate": {
      "id": "defaultPromptTemplate",
      "label": "DefaultPromptTemplate",
      "hasPre": true,
      "hasPost": true,
      "hasRepair": true,
      "description": "This is the default prompt template.",
      "templateType": "prompt",
      "channelConditions": [
        {
          "flow": [],
          "input": {
            "models": []
          },
          "output": [],
          "channelId": "IVR"
        },
        {
          "flow": [],
          "input": {
            "models": []
          },
          "output": [],
          "channelId": "RWC"
        },
        {
          "flow": [],
          "input": {
            "models": []
          },
          "output": [],
          "channelId": "SMS"
        },
        {
          "flow": [],
          "input": {
            "models": []
          },
          "output": [],
          "channelId": "App"
        },
        {
          "flow": [],
          "input": {
            "models": []
          },
          "output": [],
          "channelId": "rSMS"
        },
        {
          "flow": [],
          "input": {
            "models": []
          },
          "output": [],
          "channelId": "VoIP"
        }
      ]
    },
    "YesNoTemplateId": {
      "label": "YesNoQuestion",
      "description": "This is the default ClosedQuestion template",
      "templateType": "closedQuestion",
      "id": "YesNoTemplateId",
      "channelConditions": [
        {
          "channelId": "IVR",
          "output": [],
          "input": {
            "models": [
              {
                "label": "Yes",
                "type": "inputCondition",
                "containsPii": false,
                "id": "2a411004-c900-4037-8446-11d23a32c0a0",
                "description": "positive user response",
                "inputType": "Matcher",
                "parser": "yes, yeah, yah"
              },
              {
                "label": "No",
                "type": "inputCondition",
                "containsPii": false,
                "id": "91b28ec8-0133-4f33-9863-56b087b41126",
                "description": "negative user response",
                "inputType": "Matcher",
                "parser": "no, nope, nah"
              }
            ]
          },
          "flow": []
        },
        {
          "channelId": "RWC",
          "output": [],
          "input": {
            "models": [
              {
                "label": "Yes",
                "type": "inputCondition",
                "containsPii": false,
                "id": "179ea228-cbc5-4ff4-9ce0-82c62411f0be",
                "description": "positive user response",
                "inputType": "Matcher",
                "parser": "yes, yeah, yah"
              },
              {
                "label": "No",
                "type": "inputCondition",
                "containsPii": false,
                "id": "dba9310f-cd7b-4f1c-8317-9b5a0f981d5d",
                "description": "negative user response",
                "inputType": "Matcher",
                "parser": "no, nope, nah"
              }
            ]
          },
          "flow": []
        },
        {
          "channelId": "SMS",
          "output": [],
          "input": {
            "models": [
              {
                "label": "Yes",
                "type": "inputCondition",
                "containsPii": false,
                "id": "340b46f3-0a61-4708-8b51-f78f9ca1bbbf",
                "description": "positive user response",
                "inputType": "Matcher",
                "parser": "yes, yeah, yah"
              },
              {
                "label": "No",
                "type": "inputCondition",
                "containsPii": false,
                "id": "d5f4486e-5a27-4481-9fff-e87c804c69ea",
                "description": "negative user response",
                "inputType": "Matcher",
                "parser": "no, nope, nah"
              }
            ]
          },
          "flow": []
        },
        {
          "channelId": "App",
          "output": [],
          "input": {
            "models": []
          },
          "flow": []
        },
        {
          "channelId": "rSMS",
          "output": [],
          "input": {
            "models": [
              {
                "label": "Yes",
                "type": "inputCondition",
                "containsPii": false,
                "id": "3a78a41c-940c-4935-afb1-0ee122af7865",
                "description": "positive user response",
                "inputType": "Matcher",
                "parser": "yes, yeah, yah"
              },
              {
                "label": "No",
                "type": "inputCondition",
                "containsPii": false,
                "id": "81526624-707a-466a-a384-d2b562c590f9",
                "description": "negative user response",
                "inputType": "Matcher",
                "parser": "no, nope, nah"
              }
            ]
          },
          "flow": []
        },
        {
          "channelId": "VoIP",
          "output": [],
          "input": {
            "models": [
              {
                "label": "Yes",
                "type": "inputCondition",
                "containsPii": false,
                "id": "ef5a2a2e-b010-4c77-ae44-15457daf37aa",
                "description": "positive user response",
                "inputType": "Matcher",
                "parser": "yes, yeah, yah"
              },
              {
                "label": "No",
                "type": "inputCondition",
                "containsPii": false,
                "id": "936eea86-ce61-4569-b6b8-8ad6fffe3faa",
                "description": "negative user response",
                "inputType": "Matcher",
                "parser": "no, nope, nah"
              }
            ]
          },
          "flow": []
        }
      ]
    }
  },
  "description": "",
  "projectType": "None",
  "outcomesBaseline": [],
  "projectObjectVersion": 1,
  "parent": "",
  "parentId": "",
  "destinationPdes": [],
  "cards": {},
  "globalRepairRules": [
    {
      "label": "Out of Context",
      "description": "Out of context response are when the NLU is unable to classify the user's input. The user is asked to repeat.",
      "id": "OOCRule",
      "repairType": "outOfContext",
      "numberOfAttempts": 2,
      "outcome": "fallback"
    },
    {
      "label": "No Response",
      "description": "No response is when the user does not provide any input. The system will reprompt the user to provide a response",
      "id": "NRRule",
      "repairType": "noResponse",
      "numberOfAttempts": 2,
      "outcome": "fallback"
    },
    {
      "label": "Agent Request",
      "id": "ARRule",
      "description": "User requests Agent Transfer will trigger an Escalate flow",
      "repairType": "agentRequest",
      "numberOfAttempts": 1,
      "outcome": "escalate"
    },
    {
      "label": "Maximum Repair before Fallback",
      "id": "MRBFrule",
      "description": "Total number of repairs before triggering a fallback action. Fallback should be offering another channel or escalating to an agent",
      "repairType": "maximum",
      "numberOfAttempts": 3,
      "outcome": "fallback"
    }
  ]
}
