{
  "type": "project",
  "label": "13925",
  "outcomes": [
    {
      "id": "3e3db37d-a192-4060-b332-85811f017255",
      "type": "outcome",
      "color": "#FFBFCB",
      "label": "Abandon",
      "reasons": [],
      "percentage": 33,
      "description": "User exits system without completion point.",
      "outcomeType": "Project",
      "outcomeValue": "Negative"
    },
    {
      "id": "696769b4-826d-4d6c-8581-80198a9449e7",
      "type": "outcome",
      "color": "#FFED8F",
      "label": "Contained",
      "reasons": [],
      "percentage": 33,
      "description": "User completes task without Human Assistance, Golden Call.",
      "outcomeType": "Project",
      "outcomeValue": "Positive"
    },
    {
      "id": "b9bd26d4-ea32-45cc-b875-5e4e7c8cfd46",
      "type": "outcome",
      "color": "#8FBCFF",
      "label": "HITL",
      "reasons": [],
      "percentage": 33,
      "description": "Human in the Loop",
      "outcomeType": "Project",
      "outcomeValue": "Neutral"
    },
    {
      "id": "escalate",
      "label": "Escalate",
      "description": "User is moved to Global Agent Transfer pattern, passing along flow and context.",
      "destinationPattern": "",
      "outcomeType": "Global",
      "outcomeValue": "Neutral",
      "type": "outcome",
      "color": "#8FBCFF"
    },
    {
      "id": "fallback",
      "label": "Fallback",
      "description": "If user is stuck in n or more repairs on the voice channel. Offer alternate channel if available, or switch to easier input.",
      "destinationPattern": "",
      "outcomeType": "Global",
      "outcomeValue": "Neutral",
      "type": "outcome",
      "color": "#EBBFFF"
    }
  ],
  "patterns": [
    {
      "label": "13925",
      "id": "9a76b12f-3996-4141-9b59-ca879bf419c7",
      "parent": "13925",
      "parentId": "273ab412-79f5-42b7-8ce4-2df2302108fd",
      "patternType": "Inbound",
      "nodeType": "pattern",
      "type": "pattern",
      "channels": [
        {
          "id": "IVR",
          "type": "channel",
          "label": "IVR",
          "description": "Voice over the phone"
        }
      ],
      "flowData": [
        {
          "id": "29bc5408-180f-41ec-ab0a-8c23cabecb16",
          "flow": [
            {
              "id": "0a6cdf49-04c4-48b2-a13d-5ed890e6051f",
              "type": "flowCondition",
              "label": "subflow1",
              "order": 1,
              "toNode": "SubFlow1",
              "description": "This is first SubFlow link description",
              "gotoNodeType": "normal"
            }
          ],
          "type": "node",
          "label": "Start",
          "parent": "13925/13925",
          "nodeType": "startPoint",
          "parentId": "273ab412-79f5-42b7-8ce4-2df2302108fd/9a76b12f-3996-4141-9b59-ca879bf419c7",
          "description": "Pattern Flow Start",
          "applyInputsToFlow": false,
          "nodeDisplayOption": "description"
        },
        {
          "id": "91264229-d828-4ba3-b473-827323e99e2d",
          "flow": [
            {
              "label": "default",
              "order": 1,
              "linkType": "down",
              "id": "2a67a3b7-4800-430d-95ae-ca04c5042423",
              "toNode": "addPoint",
              "type": "flowCondition"
            }
          ],
          "type": "node",
          "label": "SubFlow1",
          "nodeType": "subFlow",
          "subflowId": "45c08345-7536-4e72-bdf7-bbdae375cd09",
          "containsPii": false,
          "description": "This is first SubFlow description",
          "nodeDisplayOption": "description",
          "parent": "13925/13925",
          "parentId": "273ab412-79f5-42b7-8ce4-2df2302108fd/9a76b12f-3996-4141-9b59-ca879bf419c7",
          "applyInputsToFlow": false
        }
      ],
      "entities": [],
      "entityGroups": [
        {
          "id": "77c33447-14b1-426b-86a0-c0839da37d91",
          "type": "entityGroup",
          "label": "defaultEntityGroup",
          "dependsOn": [],
          "primaryKey": "default",
          "description": "defaultEntityGroup",
          "sharedEndPoint": false
        }
      ],
      "outcomes": [
        {
          "id": "696769b4-826d-4d6c-8581-80198a9449e7",
          "type": "outcome",
          "color": "#FFED8F",
          "label": "Contained",
          "reasons": [],
          "percentage": 33,
          "description": "User completes task without Human Assistance, Golden Call.",
          "outcomeType": "Project",
          "outcomeValue": "Positive"
        }
      ],
      "subflows": [
        {
          "id": "45c08345-7536-4e72-bdf7-bbdae375cd09",
          "flowDataSet": [
            {
              "channel": {
                "id": "IVR",
                "type": "channel",
                "label": "IVR",
                "description": "Voice over the phone"
              },
              "flowData": [
                {
                  "id": "b89f78e8-a552-4774-9d16-8d52ad0b8d59",
                  "flow": [
                    {
                      "id": "eff04620-b31e-4e36-bdb6-251f865ac809",
                      "label": "default",
                      "order": 1,
                      "toNode": "addPoint",
                      "description": "Start Experience",
                      "type": "flowCondition"
                    }
                  ],
                  "type": "node",
                  "label": "Start",
                  "nodeType": "startPoint",
                  "description": "Pattern Flow Start",
                  "parent": "13925/13925/SubFlow1",
                  "parentId": "273ab412-79f5-42b7-8ce4-2df2302108fd/9a76b12f-3996-4141-9b59-ca879bf419c7/45c08345-7536-4e72-bdf7-bbdae375cd09",
                  "nodeDisplayOption": "description",
                  "applyInputsToFlow": false
                }
              ]
            }
          ],
          "label": "SubFlow1",
          "description": "This is first SubFlow description",
          "parent": "13925/13925",
          "parentId": "273ab412-79f5-42b7-8ce4-2df2302108fd/9a76b12f-3996-4141-9b59-ca879bf419c7",
          "subflows": [],
          "type": "subFlow"
        }
      ],
      "mapper": [],
      "description": ""
    }
  ],
  "templates": {
    "defaultOpenTemplate": {
      "id": "defaultOpenTemplate",
      "label": "DefaultOpenTemplate",
      "hasPre": true,
      "hasPost": true,
      "hasRepair": true,
      "description": "This is the default open template.",
      "templateType": "openQuestion",
      "channelConditions": [
        {
          "flow": [],
          "input": {
            "models": []
          },
          "output": [],
          "channelId": "IVR"
        },
        {
          "flow": [],
          "input": {
            "models": []
          },
          "output": [],
          "channelId": "RWC"
        },
        {
          "flow": [],
          "input": {
            "models": []
          },
          "output": [],
          "channelId": "SMS"
        },
        {
          "flow": [],
          "input": {
            "models": []
          },
          "output": [],
          "channelId": "App"
        },
        {
          "flow": [],
          "input": {
            "models": []
          },
          "output": [],
          "channelId": "rSMS"
        },
        {
          "flow": [],
          "input": {
            "models": []
          },
          "output": [],
          "channelId": "VoIP"
        }
      ]
    },
    "defaultClosedTemplate": {
      "id": "defaultClosedTemplate",
      "label": "DefaultClosedTemplate",
      "hasPre": true,
      "hasPost": true,
      "hasRepair": true,
      "description": "This is the default closed template.",
      "templateType": "closedQuestion",
      "channelConditions": [
        {
          "flow": [],
          "input": {
            "models": []
          },
          "output": [],
          "channelId": "IVR"
        },
        {
          "flow": [],
          "input": {
            "models": []
          },
          "output": [],
          "channelId": "RWC"
        },
        {
          "flow": [],
          "input": {
            "models": []
          },
          "output": [],
          "channelId": "SMS"
        },
        {
          "flow": [],
          "input": {
            "models": []
          },
          "output": [],
          "channelId": "App"
        },
        {
          "flow": [],
          "input": {
            "models": []
          },
          "output": [],
          "channelId": "rSMS"
        },
        {
          "flow": [],
          "input": {
            "models": []
          },
          "output": [],
          "channelId": "VoIP"
        }
      ]
    },
    "defaultPromptTemplate": {
      "id": "defaultPromptTemplate",
      "label": "DefaultPromptTemplate",
      "hasPre": true,
      "hasPost": true,
      "hasRepair": true,
      "description": "This is the default prompt template.",
      "templateType": "prompt",
      "channelConditions": [
        {
          "flow": [],
          "input": {
            "models": []
          },
          "output": [],
          "channelId": "IVR"
        },
        {
          "flow": [],
          "input": {
            "models": []
          },
          "output": [],
          "channelId": "RWC"
        },
        {
          "flow": [],
          "input": {
            "models": []
          },
          "output": [],
          "channelId": "SMS"
        },
        {
          "flow": [],
          "input": {
            "models": []
          },
          "output": [],
          "channelId": "App"
        },
        {
          "flow": [],
          "input": {
            "models": []
          },
          "output": [],
          "channelId": "rSMS"
        },
        {
          "flow": [],
          "input": {
            "models": []
          },
          "output": [],
          "channelId": "VoIP"
        }
      ]
    },
    "YesNoTemplateId": {
      "label": "YesNoQuestion",
      "description": "This is the default ClosedQuestion template",
      "templateType": "closedQuestion",
      "id": "YesNoTemplateId",
      "channelConditions": [
        {
          "channelId": "IVR",
          "output": [],
          "input": {
            "models": [
              {
                "label": "Yes",
                "type": "inputCondition",
                "containsPii": false,
                "id": "8b4f60c8-4d2d-4af7-8dfd-aff29d945b88",
                "description": "positive user response",
                "inputType": "Matcher",
                "parser": "yes, yeah, yah"
              },
              {
                "label": "No",
                "type": "inputCondition",
                "containsPii": false,
                "id": "9f3cb68c-a579-4628-918a-a6c99d120da8",
                "description": "negative user response",
                "inputType": "Matcher",
                "parser": "no, nope, nah"
              }
            ]
          },
          "flow": []
        },
        {
          "channelId": "RWC",
          "output": [],
          "input": {
            "models": [
              {
                "label": "Yes",
                "type": "inputCondition",
                "containsPii": false,
                "id": "3cfbf04b-b832-4ae3-8100-3dca55247bff",
                "description": "positive user response",
                "inputType": "Matcher",
                "parser": "yes, yeah, yah"
              },
              {
                "label": "No",
                "type": "inputCondition",
                "containsPii": false,
                "id": "0470117e-e976-417f-8c6b-28ceca6f51af",
                "description": "negative user response",
                "inputType": "Matcher",
                "parser": "no, nope, nah"
              }
            ]
          },
          "flow": []
        },
        {
          "channelId": "SMS",
          "output": [],
          "input": {
            "models": [
              {
                "label": "Yes",
                "type": "inputCondition",
                "containsPii": false,
                "id": "a5296cd9-b992-4570-b126-9cc11f8f761a",
                "description": "positive user response",
                "inputType": "Matcher",
                "parser": "yes, yeah, yah"
              },
              {
                "label": "No",
                "type": "inputCondition",
                "containsPii": false,
                "id": "77dba50f-435f-40ac-bc4b-22aac3264086",
                "description": "negative user response",
                "inputType": "Matcher",
                "parser": "no, nope, nah"
              }
            ]
          },
          "flow": []
        },
        {
          "channelId": "App",
          "output": [],
          "input": {
            "models": []
          },
          "flow": []
        },
        {
          "channelId": "rSMS",
          "output": [],
          "input": {
            "models": [
              {
                "label": "Yes",
                "type": "inputCondition",
                "containsPii": false,
                "id": "c4ed6a8d-bd19-4dcb-9752-fcaa7bab3f7b",
                "description": "positive user response",
                "inputType": "Matcher",
                "parser": "yes, yeah, yah"
              },
              {
                "label": "No",
                "type": "inputCondition",
                "containsPii": false,
                "id": "fd6b7a68-f92b-48c1-8266-e0609ea8150b",
                "description": "negative user response",
                "inputType": "Matcher",
                "parser": "no, nope, nah"
              }
            ]
          },
          "flow": []
        },
        {
          "channelId": "VoIP",
          "output": [],
          "input": {
            "models": [
              {
                "label": "Yes",
                "type": "inputCondition",
                "containsPii": false,
                "id": "53abecb5-17cd-4b83-9852-05c69740d4b2",
                "description": "positive user response",
                "inputType": "Matcher",
                "parser": "yes, yeah, yah"
              },
              {
                "label": "No",
                "type": "inputCondition",
                "containsPii": false,
                "id": "2c0f0b2f-d435-4a09-be42-ee90f1d6d51d",
                "description": "negative user response",
                "inputType": "Matcher",
                "parser": "no, nope, nah"
              }
            ]
          },
          "flow": []
        }
      ]
    }
  },
  "description": "",
  "projectType": "None",
  "outcomesBaseline": [],
  "projectObjectVersion": 1,
  "parent": "",
  "parentId": "",
  "destinationPdes": [],
  "cards": {},
  "globalRepairRules": [
    {
      "label": "Out of Context",
      "description": "Out of context response are when the NLU is unable to classify the user's input. The user is asked to repeat.",
      "id": "OOCRule",
      "repairType": "outOfContext",
      "numberOfAttempts": 2,
      "outcome": "fallback"
    },
    {
      "label": "No Response",
      "description": "No response is when the user does not provide any input. The system will reprompt the user to provide a response",
      "id": "NRRule",
      "repairType": "noResponse",
      "numberOfAttempts": 2,
      "outcome": "fallback"
    },
    {
      "label": "Agent Request",
      "id": "ARRule",
      "description": "User requests Agent Transfer will trigger an Escalate flow",
      "repairType": "agentRequest",
      "numberOfAttempts": 1,
      "outcome": "escalate"
    },
    {
      "label": "Maximum Repair before Fallback",
      "id": "MRBFrule",
      "description": "Total number of repairs before triggering a fallback action. Fallback should be offering another channel or escalating to an agent",
      "repairType": "maximum",
      "numberOfAttempts": 3,
      "outcome": "fallback"
    }
  ]
}
