{
  "type": "project",
  "label": "13992",
  "outcomes": [
    {
      "id": "3d43137a-a41c-44f2-a50e-efe363983846",
      "type": "outcome",
      "color": "#FFED8F",
      "label": "Contained",
      "reasons": [],
      "percentage": 33,
      "description": "User completes task without Human Assistance, Golden Call.",
      "outcomeType": "Project",
      "outcomeValue": "Positive"
    },
    {
      "id": "8fb0f94c-3f54-4448-91e3-a4478465e8db",
      "type": "outcome",
      "color": "#8FBCFF",
      "label": "HITL",
      "reasons": [],
      "percentage": 33,
      "description": "Human in the Loop",
      "outcomeType": "Project",
      "outcomeValue": "Neutral"
    },
    {
      "id": "ecdc1351-c8f8-4625-9411-bb685f66e8dd",
      "type": "outcome",
      "color": "#FFBFCB",
      "label": "Abandon",
      "reasons": [],
      "percentage": 33,
      "description": "User exits system without completion point.",
      "outcomeType": "Project",
      "outcomeValue": "Negative"
    },
    {
      "id": "escalate",
      "label": "Escalate",
      "description": "User is moved to Global Agent Transfer pattern, passing along flow and context.",
      "destinationPattern": "",
      "outcomeType": "Global",
      "outcomeValue": "Neutral",
      "type": "outcome",
      "color": "#8FBCFF"
    },
    {
      "id": "fallback",
      "label": "Fallback",
      "description": "If user is stuck in n or more repairs on the voice channel. Offer alternate channel if available, or switch to easier input.",
      "destinationPattern": "",
      "outcomeType": "Global",
      "outcomeValue": "Neutral",
      "type": "outcome",
      "color": "#EBBFFF"
    }
  ],
  "patterns": [
    {
      "label": "13992",
      "id": "0c1216fe-373d-4b9e-a8a6-2fb2ec0d96c6",
      "parent": "13992",
      "parentId": "37ce849d-b437-4126-943c-96e04d147364",
      "patternType": "Inbound",
      "nodeType": "pattern",
      "type": "pattern",
      "channels": [
        {
          "id": "IVR",
          "type": "channel",
          "label": "IVR",
          "description": "Voice over the phone"
        }
      ],
      "flowData": [
        {
          "id": "dc2a018e-b1e6-46bd-a6c2-3fd882dc65f8",
          "flow": [
            {
              "id": "af3fe1ab-32cc-4b6d-ae11-e0fe6c5dad89",
              "type": "flowCondition",
              "label": "subflow1",
              "order": 1,
              "toNode": "SubFlow1",
              "description": "This is first SubFlow link description",
              "gotoNodeType": "normal"
            }
          ],
          "type": "node",
          "label": "Start",
          "parent": "13992/13992",
          "nodeType": "startPoint",
          "parentId": "37ce849d-b437-4126-943c-96e04d147364/0c1216fe-373d-4b9e-a8a6-2fb2ec0d96c6",
          "description": "Pattern Flow Start",
          "applyInputsToFlow": false,
          "nodeDisplayOption": "description"
        },
        {
          "id": "b9192dd2-80ae-44a1-a3a9-6d3f2da142da",
          "flow": [
            {
              "label": "default",
              "order": 1,
              "linkType": "down",
              "id": "c4821d82-c60b-43e5-b46b-7bda26c4229c",
              "toNode": "addPoint",
              "type": "flowCondition"
            }
          ],
          "type": "node",
          "label": "SubFlow1",
          "nodeType": "subFlow",
          "subflowId": "3bf55023-b829-4448-850b-0f061db4b0a7",
          "containsPii": false,
          "description": "This is first SubFlow description",
          "nodeDisplayOption": "description",
          "parent": "13992/13992",
          "parentId": "37ce849d-b437-4126-943c-96e04d147364/0c1216fe-373d-4b9e-a8a6-2fb2ec0d96c6",
          "applyInputsToFlow": false
        }
      ],
      "entities": [],
      "entityGroups": [
        {
          "id": "fd44d611-e882-41ef-9742-8892caa76179",
          "type": "entityGroup",
          "label": "defaultEntityGroup",
          "dependsOn": [],
          "primaryKey": "default",
          "description": "defaultEntityGroup",
          "sharedEndPoint": false
        }
      ],
      "outcomes": [
        {
          "id": "3d43137a-a41c-44f2-a50e-efe363983846",
          "type": "outcome",
          "color": "#FFED8F",
          "label": "Contained",
          "reasons": [],
          "percentage": 33,
          "description": "User completes task without Human Assistance, Golden Call.",
          "outcomeType": "Project",
          "outcomeValue": "Positive"
        }
      ],
      "subflows": [
        {
          "id": "3bf55023-b829-4448-850b-0f061db4b0a7",
          "flowDataSet": [
            {
              "channel": {
                "id": "IVR",
                "type": "channel",
                "label": "IVR",
                "description": "Voice over the phone"
              },
              "flowData": [
                {
                  "id": "c750502e-c39b-4c95-986e-8ac7a40100ac",
                  "flow": [
                    {
                      "id": "034be4d4-2ad4-4129-a443-39456d2e5f24",
                      "label": "default",
                      "order": 1,
                      "toNode": "addPoint",
                      "description": "Start Experience",
                      "type": "flowCondition"
                    }
                  ],
                  "type": "node",
                  "label": "Start",
                  "nodeType": "startPoint",
                  "description": "Pattern Flow Start",
                  "parent": "13992/13992/SubFlow1",
                  "parentId": "37ce849d-b437-4126-943c-96e04d147364/0c1216fe-373d-4b9e-a8a6-2fb2ec0d96c6/3bf55023-b829-4448-850b-0f061db4b0a7",
                  "nodeDisplayOption": "description",
                  "applyInputsToFlow": false
                }
              ]
            }
          ],
          "label": "SubFlow1",
          "description": "This is first SubFlow description",
          "parent": "13992/13992",
          "parentId": "37ce849d-b437-4126-943c-96e04d147364/0c1216fe-373d-4b9e-a8a6-2fb2ec0d96c6",
          "subflows": [],
          "type": "subFlow"
        }
      ],
      "mapper": [],
      "description": ""
    }
  ],
  "templates": {
    "defaultOpenTemplate": {
      "id": "defaultOpenTemplate",
      "label": "DefaultOpenTemplate",
      "hasPre": true,
      "hasPost": true,
      "hasRepair": true,
      "description": "This is the default open template.",
      "templateType": "openQuestion",
      "channelConditions": [
        {
          "flow": [],
          "input": {
            "models": []
          },
          "output": [],
          "channelId": "IVR"
        },
        {
          "flow": [],
          "input": {
            "models": []
          },
          "output": [],
          "channelId": "RWC"
        },
        {
          "flow": [],
          "input": {
            "models": []
          },
          "output": [],
          "channelId": "SMS"
        },
        {
          "flow": [],
          "input": {
            "models": []
          },
          "output": [],
          "channelId": "App"
        },
        {
          "flow": [],
          "input": {
            "models": []
          },
          "output": [],
          "channelId": "rSMS"
        },
        {
          "flow": [],
          "input": {
            "models": []
          },
          "output": [],
          "channelId": "VoIP"
        }
      ]
    },
    "defaultClosedTemplate": {
      "id": "defaultClosedTemplate",
      "label": "DefaultClosedTemplate",
      "hasPre": true,
      "hasPost": true,
      "hasRepair": true,
      "description": "This is the default closed template.",
      "templateType": "closedQuestion",
      "channelConditions": [
        {
          "flow": [],
          "input": {
            "models": []
          },
          "output": [],
          "channelId": "IVR"
        },
        {
          "flow": [],
          "input": {
            "models": []
          },
          "output": [],
          "channelId": "RWC"
        },
        {
          "flow": [],
          "input": {
            "models": []
          },
          "output": [],
          "channelId": "SMS"
        },
        {
          "flow": [],
          "input": {
            "models": []
          },
          "output": [],
          "channelId": "App"
        },
        {
          "flow": [],
          "input": {
            "models": []
          },
          "output": [],
          "channelId": "rSMS"
        },
        {
          "flow": [],
          "input": {
            "models": []
          },
          "output": [],
          "channelId": "VoIP"
        }
      ]
    },
    "defaultPromptTemplate": {
      "id": "defaultPromptTemplate",
      "label": "DefaultPromptTemplate",
      "hasPre": true,
      "hasPost": true,
      "hasRepair": true,
      "description": "This is the default prompt template.",
      "templateType": "prompt",
      "channelConditions": [
        {
          "flow": [],
          "input": {
            "models": []
          },
          "output": [],
          "channelId": "IVR"
        },
        {
          "flow": [],
          "input": {
            "models": []
          },
          "output": [],
          "channelId": "RWC"
        },
        {
          "flow": [],
          "input": {
            "models": []
          },
          "output": [],
          "channelId": "SMS"
        },
        {
          "flow": [],
          "input": {
            "models": []
          },
          "output": [],
          "channelId": "App"
        },
        {
          "flow": [],
          "input": {
            "models": []
          },
          "output": [],
          "channelId": "rSMS"
        },
        {
          "flow": [],
          "input": {
            "models": []
          },
          "output": [],
          "channelId": "VoIP"
        }
      ]
    },
    "YesNoTemplateId": {
      "label": "YesNoQuestion",
      "description": "This is the default ClosedQuestion template",
      "templateType": "closedQuestion",
      "id": "YesNoTemplateId",
      "channelConditions": [
        {
          "channelId": "IVR",
          "output": [],
          "input": {
            "models": [
              {
                "label": "Yes",
                "type": "inputCondition",
                "containsPii": false,
                "id": "c7417628-22e9-4a72-8a33-053b23e7acfb",
                "description": "positive user response",
                "inputType": "Matcher",
                "parser": "yes, yeah, yah"
              },
              {
                "label": "No",
                "type": "inputCondition",
                "containsPii": false,
                "id": "0b1569f4-1ae9-40ab-afd5-f5ace16f82f1",
                "description": "negative user response",
                "inputType": "Matcher",
                "parser": "no, nope, nah"
              }
            ]
          },
          "flow": []
        },
        {
          "channelId": "RWC",
          "output": [],
          "input": {
            "models": [
              {
                "label": "Yes",
                "type": "inputCondition",
                "containsPii": false,
                "id": "a746da1d-e3cd-4e89-8992-4eb47de321f8",
                "description": "positive user response",
                "inputType": "Matcher",
                "parser": "yes, yeah, yah"
              },
              {
                "label": "No",
                "type": "inputCondition",
                "containsPii": false,
                "id": "f32e151f-9999-488e-b69a-d808cc802ce6",
                "description": "negative user response",
                "inputType": "Matcher",
                "parser": "no, nope, nah"
              }
            ]
          },
          "flow": []
        },
        {
          "channelId": "SMS",
          "output": [],
          "input": {
            "models": [
              {
                "label": "Yes",
                "type": "inputCondition",
                "containsPii": false,
                "id": "fe219e8a-27cd-4d5a-9705-6103306bf5c7",
                "description": "positive user response",
                "inputType": "Matcher",
                "parser": "yes, yeah, yah"
              },
              {
                "label": "No",
                "type": "inputCondition",
                "containsPii": false,
                "id": "b00d4f80-4d08-49ae-b78f-1f9ce2c3c4c6",
                "description": "negative user response",
                "inputType": "Matcher",
                "parser": "no, nope, nah"
              }
            ]
          },
          "flow": []
        },
        {
          "channelId": "App",
          "output": [],
          "input": {
            "models": []
          },
          "flow": []
        },
        {
          "channelId": "rSMS",
          "output": [],
          "input": {
            "models": [
              {
                "label": "Yes",
                "type": "inputCondition",
                "containsPii": false,
                "id": "322967f4-0054-470e-abd7-f2f0dd15073d",
                "description": "positive user response",
                "inputType": "Matcher",
                "parser": "yes, yeah, yah"
              },
              {
                "label": "No",
                "type": "inputCondition",
                "containsPii": false,
                "id": "e49e1ca9-3279-4c43-9b88-b89957343aea",
                "description": "negative user response",
                "inputType": "Matcher",
                "parser": "no, nope, nah"
              }
            ]
          },
          "flow": []
        },
        {
          "channelId": "VoIP",
          "output": [],
          "input": {
            "models": [
              {
                "label": "Yes",
                "type": "inputCondition",
                "containsPii": false,
                "id": "8f050693-3d42-4ebf-8b20-72784446551d",
                "description": "positive user response",
                "inputType": "Matcher",
                "parser": "yes, yeah, yah"
              },
              {
                "label": "No",
                "type": "inputCondition",
                "containsPii": false,
                "id": "9c3df6f2-b7b1-4136-b02c-935b4acaede4",
                "description": "negative user response",
                "inputType": "Matcher",
                "parser": "no, nope, nah"
              }
            ]
          },
          "flow": []
        }
      ]
    }
  },
  "description": "",
  "projectType": "None",
  "outcomesBaseline": [],
  "projectObjectVersion": 1,
  "parent": "",
  "parentId": "",
  "destinationPdes": [],
  "cards": {},
  "globalRepairRules": [
    {
      "label": "Out of Context",
      "description": "Out of context response are when the NLU is unable to classify the user's input. The user is asked to repeat.",
      "id": "OOCRule",
      "repairType": "outOfContext",
      "numberOfAttempts": 2,
      "outcome": "fallback"
    },
    {
      "label": "No Response",
      "description": "No response is when the user does not provide any input. The system will reprompt the user to provide a response",
      "id": "NRRule",
      "repairType": "noResponse",
      "numberOfAttempts": 2,
      "outcome": "fallback"
    },
    {
      "label": "Agent Request",
      "id": "ARRule",
      "description": "User requests Agent Transfer will trigger an Escalate flow",
      "repairType": "agentRequest",
      "numberOfAttempts": 1,
      "outcome": "escalate"
    },
    {
      "label": "Maximum Repair before Fallback",
      "id": "MRBFrule",
      "description": "Total number of repairs before triggering a fallback action. Fallback should be offering another channel or escalating to an agent",
      "repairType": "maximum",
      "numberOfAttempts": 3,
      "outcome": "fallback"
    }
  ]
}
