{
  "type": "project",
  "label": "add-endpoint",
  "outcomes": [
    {
      "id": "b81adbd9-319d-4506-badf-48580e39655f",
      "type": "outcome",
      "color": "#FFED8F",
      "label": "Contained",
      "reasons": [],
      "percentage": 33,
      "description": "User completes task without Human Assistance, Golden Call.",
      "outcomeType": "Project",
      "outcomeValue": "Positive"
    },
    {
      "id": "bda3067d-e915-4217-813b-9fcdb32545a8",
      "type": "outcome",
      "color": "#8FBCFF",
      "label": "HITL",
      "reasons": [],
      "percentage": 33,
      "description": "Human in the Loop",
      "outcomeType": "Project",
      "outcomeValue": "Neutral"
    },
    {
      "id": "eaa100d9-5545-437e-a72a-df6f858126b1",
      "type": "outcome",
      "color": "#FFBFCB",
      "label": "Abandon",
      "reasons": [],
      "percentage": 33,
      "description": "User exits system without completion point.",
      "outcomeType": "Project",
      "outcomeValue": "Negative"
    },
    {
      "id": "escalate",
      "label": "Escalate",
      "description": "User is moved to Global Agent Transfer pattern, passing along flow and context.",
      "destinationPattern": "",
      "outcomeType": "Global",
      "outcomeValue": "Neutral",
      "type": "outcome",
      "color": "#8FBCFF"
    },
    {
      "id": "fallback",
      "label": "Fallback",
      "description": "If user is stuck in n or more repairs on the voice channel. Offer alternate channel if available, or switch to easier input.",
      "destinationPattern": "",
      "outcomeType": "Global",
      "outcomeValue": "Neutral",
      "type": "outcome",
      "color": "#EBBFFF"
    }
  ],
  "patterns": [
    {
      "id": "dae7c717-415a-4f81-8074-8153c6a84920",
      "type": "pattern",
      "label": "14533",
      "mapper": [],
      "parent": "add-endpoint",
      "channels": [
        {
          "id": "IVR",
          "type": "channel",
          "label": "IVR",
          "description": "Voice over the phone"
        }
      ],
      "entities": [],
      "flowData": [
        {
          "id": "abd3fcbf-2611-41da-b48e-0c0b90652c2b",
          "flow": [
            {
              "id": "f0a01059-606b-44cc-9311-b1ac77451684",
              "type": "flowCondition",
              "label": "subflow1",
              "order": 1,
              "toNode": "SubFlow1",
              "description": "This is first SubFlow link description",
              "gotoNodeType": "normal"
            }
          ],
          "type": "node",
          "label": "Start",
          "parent": "add-endpoint/14533",
          "nodeType": "startPoint",
          "parentId": "1c4f723c-601a-4cba-a85b-ae5dd9e9217c/dae7c717-415a-4f81-8074-8153c6a84920",
          "description": "Pattern Flow Start",
          "applyInputsToFlow": false,
          "nodeDisplayOption": "description"
        },
        {
          "id": "69a3401b-7e08-4061-bf62-6600cf23c59a",
          "flow": [
            {
              "id": "5b1d9781-ec0d-477f-b518-06beed8f2c40",
              "type": "flowCondition",
              "label": "routermenu1",
              "order": 1,
              "toNode": "RouterMenu1",
              "linkType": "down",
              "description": "This is first RouterMenu link description",
              "gotoNodeType": "normal"
            }
          ],
          "type": "node",
          "label": "SubFlow1",
          "parent": "add-endpoint/14533",
          "nodeType": "subFlow",
          "parentId": "1c4f723c-601a-4cba-a85b-ae5dd9e9217c/dae7c717-415a-4f81-8074-8153c6a84920",
          "subflowId": "15096066-274f-42fd-a033-06e93c471b93",
          "containsPii": false,
          "description": "This is first SubFlow description",
          "applyInputsToFlow": false,
          "nodeDisplayOption": "description"
        },
        {
          "id": "60ace9b7-f56a-4bf9-a242-df74835013fa",
          "flow": [
            {
              "id": "839d8172-e27a-4330-8f98-b69564a79515",
              "type": "flowCondition",
              "label": "subflow2",
              "order": 1,
              "toNode": "SubFlow2",
              "linkType": "down",
              "description": "This is second SubFlow link description",
              "gotoNodeType": "normal"
            }
          ],
          "type": "node",
          "label": "RouterMenu1",
          "output": [
            {
              "id": "ae9b0ad8-9b69-4a28-862c-bdec4351c057",
              "type": "outputCondition",
              "label": "default",
              "content": [
                {
                  "id": "3f8a3a3a-b55d-483b-9eca-3c9de01f6dca",
                  "value": "What can I do for you today?"
                }
              ],
              "description": "",
              "conditionType": "primary"
            }
          ],
          "parent": "add-endpoint/14533",
          "skills": [],
          "channels": [],
          "nodeType": "routerMenu",
          "parentId": "1c4f723c-601a-4cba-a85b-ae5dd9e9217c/dae7c717-415a-4f81-8074-8153c6a84920",
          "description": "This is first RouterMenu description",
          "applyInputsToFlow": false,
          "nodeDisplayOption": "description"
        },
        {
          "id": "90de16a1-0750-4fa6-9465-7d4c045541b2",
          "flow": [
            {
              "id": "10e1e97e-b97e-43ff-a574-02a4b7b4b785",
              "type": "flowCondition",
              "label": "default",
              "order": 1,
              "toNode": "Contained",
              "linkType": "down",
              "description": "",
              "gotoNodeType": "outcomePoint"
            },
            {
              "id": "24d1e03b-f268-42ef-aa15-80794672ef73",
              "type": "flowCondition",
              "label": "escalate",
              "order": 2,
              "toNode": "Escalate",
              "linkType": "right",
              "description": "",
              "gotoNodeType": "outcomePoint"
            },
            {
              "id": "bf8c8a6e-0ca3-408d-8a41-8668b7493218",
              "type": "flowCondition",
              "label": "abandonment",
              "order": 3,
              "toNode": "Fallback",
              "linkType": "left",
              "description": "",
              "gotoNodeType": "outcomePoint"
            }
          ],
          "type": "node",
          "label": "SubFlow2",
          "parent": "add-endpoint/14533",
          "nodeType": "subFlow",
          "parentId": "1c4f723c-601a-4cba-a85b-ae5dd9e9217c/dae7c717-415a-4f81-8074-8153c6a84920",
          "subflowId": "a3974e7f-dabe-496d-b41b-28986a34dc5f",
          "containsPii": false,
          "description": "This is second SubFlow description",
          "applyInputsToFlow": false,
          "nodeDisplayOption": "description"
        }
      ],
      "nodeType": "pattern",
      "outcomes": [
        {
          "id": "b81adbd9-319d-4506-badf-48580e39655f",
          "type": "outcome",
          "color": "#FFED8F",
          "label": "Contained",
          "reasons": [],
          "percentage": 33,
          "description": "User completes task without Human Assistance, Golden Call.",
          "outcomeType": "Project",
          "outcomeValue": "Positive"
        }
      ],
      "parentId": "1c4f723c-601a-4cba-a85b-ae5dd9e9217c",
      "subflows": [
        {
          "id": "15096066-274f-42fd-a033-06e93c471b93",
          "type": "subFlow",
          "label": "SubFlow1",
          "parent": "add-endpoint/14533",
          "parentId": "1c4f723c-601a-4cba-a85b-ae5dd9e9217c/dae7c717-415a-4f81-8074-8153c6a84920",
          "subflows": [],
          "description": "This is first SubFlow description",
          "flowDataSet": [
            {
              "channel": {
                "id": "IVR",
                "type": "channel",
                "label": "IVR",
                "description": "Voice over the phone"
              },
              "flowData": [
                {
                  "id": "dd53e945-992c-4956-b7de-b1990f78ac9e",
                  "flow": [
                    {
                      "id": "99afe465-b5e9-4b3d-a151-4bbfae7c895e",
                      "type": "flowCondition",
                      "label": "default",
                      "order": 1,
                      "toNode": "addPoint",
                      "description": "Start Experience"
                    }
                  ],
                  "type": "node",
                  "label": "Start",
                  "parent": "add-endpoint/14533/SubFlow1",
                  "nodeType": "startPoint",
                  "parentId": "1c4f723c-601a-4cba-a85b-ae5dd9e9217c/dae7c717-415a-4f81-8074-8153c6a84920/15096066-274f-42fd-a033-06e93c471b93",
                  "description": "Pattern Flow Start",
                  "applyInputsToFlow": false,
                  "nodeDisplayOption": "description"
                }
              ]
            }
          ]
        },
        {
          "id": "a3974e7f-dabe-496d-b41b-28986a34dc5f",
          "type": "subFlow",
          "label": "SubFlow2",
          "parent": "add-endpoint/14533",
          "parentId": "1c4f723c-601a-4cba-a85b-ae5dd9e9217c/dae7c717-415a-4f81-8074-8153c6a84920",
          "subflows": [],
          "description": "This is second SubFlow description",
          "flowDataSet": [
            {
              "channel": {
                "id": "IVR",
                "type": "channel",
                "label": "IVR",
                "description": "Voice over the phone"
              },
              "flowData": [
                {
                  "id": "296860e8-c61a-4fb8-bc12-a0af4d62b322",
                  "flow": [
                    {
                      "id": "9391c5d7-3428-4053-9fc4-5c5d3164cec0",
                      "type": "flowCondition",
                      "label": "prompt1",
                      "order": 1,
                      "toNode": "Prompt1",
                      "description": "This is first Prompt link description",
                      "gotoNodeType": "normal"
                    }
                  ],
                  "type": "node",
                  "label": "Start",
                  "parent": "add-endpoint/14533/SubFlow2",
                  "nodeType": "startPoint",
                  "parentId": "1c4f723c-601a-4cba-a85b-ae5dd9e9217c/dae7c717-415a-4f81-8074-8153c6a84920/a3974e7f-dabe-496d-b41b-28986a34dc5f",
                  "description": "Pattern Flow Start",
                  "applyInputsToFlow": false,
                  "nodeDisplayOption": "description"
                },
                {
                  "id": "82454a61-37c0-4edd-a2d6-2b4bdd45b30a",
                  "flow": [
                    {
                      "label": "closedquestion1",
                      "order": 1,
                      "toNode": "ClosedQuestion1",
                      "linkType": "down",
                      "description": "This is first ClosedQuestion link description",
                      "gotoNodeType": "normal",
                      "id": "fdc6c16a-00a0-4cb3-993f-9a6755c91c92",
                      "type": "flowCondition"
                    }
                  ],
                  "type": "node",
                  "label": "Prompt1",
                  "output": [
                    {
                      "id": "fe60b897-96da-4297-81c1-43c63b0bdf3f",
                      "type": "outputCondition",
                      "label": "Default",
                      "edited": true,
                      "content": [
                        {
                          "id": "4dbf1fee-2080-48d5-9ed5-3c772db42cf1",
                          "value": "text",
                          "channel": "IVR",
                          "dynamic": false,
                          "contentType": "Prompt"
                        }
                      ],
                      "template": false,
                      "conditionType": "primary"
                    }
                  ],
                  "parent": "add-endpoint/14533/SubFlow2",
                  "nodeType": "prompt",
                  "parentId": "1c4f723c-601a-4cba-a85b-ae5dd9e9217c/dae7c717-415a-4f81-8074-8153c6a84920/a3974e7f-dabe-496d-b41b-28986a34dc5f",
                  "templateId": "defaultPromptTemplate",
                  "containsPii": false,
                  "description": "This is first Prompt description",
                  "nodeDisplayOption": "description",
                  "applyInputsToFlow": false,
                  "input": [],
                  "nodeRules": {
                    "id": "7607d7f9-b626-4b89-92e4-f3f215beae16",
                    "useGlobalEscalate": true,
                    "useGlobalFallback": true,
                    "useGlobalRepairs": true,
                    "repairRules": []
                  }
                },
                {
                  "id": "cc5f2f59-a4b1-43a3-b417-3413c3b68c7d",
                  "flow": [
                    {
                      "label": "default",
                      "order": 1,
                      "linkType": "down",
                      "id": "150089ac-8899-49db-a3ad-3370b18392cd",
                      "toNode": "addPoint",
                      "type": "flowCondition"
                    },
                    {
                      "label": "Repair",
                      "order": 2,
                      "toNode": "ClosedQuestion1",
                      "linkType": "loop",
                      "id": "2fc0e655-7210-4e34-98c3-7100552ea506",
                      "type": "flowCondition"
                    }
                  ],
                  "type": "node",
                  "input": [
                    {
                      "id": "9a88acd0-953d-4e70-b21f-3ac0a3d0a2ec",
                      "type": "inputCondition",
                      "label": "OfferParser",
                      "order": 1,
                      "parser": "HelloModel",
                      "inputType": "NLUModel"
                    }
                  ],
                  "label": "ClosedQuestion1",
                  "output": [
                    {
                      "id": "be851606-3cb1-48e1-a2f4-53fcccb497a4",
                      "type": "outputCondition",
                      "label": "Default",
                      "edited": true,
                      "content": [
                        {
                          "id": "5f311c39-06c5-4157-ab6f-208ed85dd18b",
                          "value": "text",
                          "channel": "IVR",
                          "dynamic": false,
                          "contentType": "Prompt"
                        }
                      ],
                      "template": false,
                      "conditionType": "primary"
                    }
                  ],
                  "parent": "add-endpoint/14533/SubFlow2",
                  "nodeType": "closedQuestion",
                  "parentId": "1c4f723c-601a-4cba-a85b-ae5dd9e9217c/dae7c717-415a-4f81-8074-8153c6a84920/a3974e7f-dabe-496d-b41b-28986a34dc5f",
                  "nodeRules": {
                    "repairRules": [],
                    "useGlobalRepairs": true,
                    "useGlobalEscalate": true,
                    "useGlobalFallback": true
                  },
                  "templateId": "defaultClosedTemplate",
                  "containsPii": false,
                  "description": "This is first ClosedQuestion description",
                  "channelSettings": {
                    "ttsEngine": "",
                    "acceptDTMF": true,
                    "talkingSpeed": 10
                  },
                  "nodeDisplayOption": "description",
                  "applyInputsToFlow": false
                }
              ]
            }
          ]
        }
      ],
      "description": "",
      "patternType": "Inbound",
      "entityGroups": [
        {
          "id": "7a658e05-faf3-4bde-aa83-2f149b85b431",
          "type": "entityGroup",
          "label": "defaultEntityGroup",
          "dependsOn": [],
          "primaryKey": "default",
          "description": "defaultEntityGroup",
          "sharedEndPoint": false
        }
      ]
    },
    {
      "id": "85629395-3306-4c65-b667-e2c96beded04",
      "type": "pattern",
      "label": "14630",
      "mapper": [],
      "parent": "add-endpoint",
      "channels": [
        {
          "id": "IVR",
          "type": "channel",
          "label": "IVR",
          "description": "Voice over the phone"
        }
      ],
      "entities": [],
      "flowData": [
        {
          "id": "6dd744fc-6abd-4e6f-b174-6a3c7c798776",
          "flow": [
            {
              "id": "fc9cfdda-d26f-4110-be97-c2a2885867de",
              "type": "flowCondition",
              "label": "subflow1",
              "order": 1,
              "toNode": "SubFlow1",
              "description": "This is first SubFlow link description",
              "gotoNodeType": "normal"
            }
          ],
          "type": "node",
          "label": "Start",
          "parent": "add-endpoint/14630",
          "nodeType": "startPoint",
          "parentId": "1c4f723c-601a-4cba-a85b-ae5dd9e9217c/85629395-3306-4c65-b667-e2c96beded04",
          "description": "Pattern Flow Start",
          "applyInputsToFlow": false,
          "nodeDisplayOption": "description"
        },
        {
          "id": "3cd881d3-0af2-49e1-87b8-262e63118b9e",
          "flow": [
            {
              "id": "dc3a29c9-0776-4087-9ebb-a5ba2c214c8c",
              "type": "flowCondition",
              "label": "routermenu1",
              "order": 1,
              "toNode": "RouterMenu1",
              "linkType": "down",
              "description": "This is first RouterMenu link description",
              "gotoNodeType": "normal"
            }
          ],
          "type": "node",
          "label": "SubFlow1",
          "parent": "add-endpoint/14630",
          "nodeType": "subFlow",
          "parentId": "1c4f723c-601a-4cba-a85b-ae5dd9e9217c/85629395-3306-4c65-b667-e2c96beded04",
          "subflowId": "d99127d2-6615-46a5-a8c0-da7b1351bb40",
          "containsPii": false,
          "description": "This is first SubFlow description",
          "applyInputsToFlow": false,
          "nodeDisplayOption": "description"
        },
        {
          "id": "25767206-8aaf-419d-b444-9272c6592643",
          "flow": [
            {
              "id": "b10a7977-f4f7-4ec5-9f8a-29434ebc77c1",
              "type": "flowCondition",
              "label": "subflow2",
              "order": 1,
              "toNode": "SubFlow2",
              "linkType": "down",
              "description": "This is second SubFlow link description",
              "gotoNodeType": "normal"
            }
          ],
          "type": "node",
          "label": "RouterMenu1",
          "output": [
            {
              "id": "8bbe1488-585f-42d5-986f-064b69586649",
              "type": "outputCondition",
              "label": "default",
              "content": [
                {
                  "id": "11b73b5b-74e4-4f45-bb8e-91469c712d65",
                  "value": "What can I do for you today?"
                }
              ],
              "description": "",
              "conditionType": "primary"
            }
          ],
          "parent": "add-endpoint/14630",
          "skills": [],
          "channels": [],
          "nodeType": "routerMenu",
          "parentId": "1c4f723c-601a-4cba-a85b-ae5dd9e9217c/85629395-3306-4c65-b667-e2c96beded04",
          "description": "This is first RouterMenu description",
          "applyInputsToFlow": false,
          "nodeDisplayOption": "description"
        },
        {
          "id": "96452f33-63a1-4870-89dd-7d64a919356f",
          "flow": [
            {
              "id": "ece83295-1ce2-43bb-964a-6bfdca7c7637",
              "type": "flowCondition",
              "label": "default",
              "order": 1,
              "toNode": "Contained",
              "linkType": "down",
              "description": "",
              "gotoNodeType": "outcomePoint"
            },
            {
              "id": "23a05e8e-e132-404f-8c6a-c0a14e8fe2dc",
              "type": "flowCondition",
              "label": "escalate",
              "order": 2,
              "toNode": "Escalate",
              "linkType": "right",
              "description": "",
              "gotoNodeType": "outcomePoint"
            },
            {
              "id": "d10b8d6e-1319-4a31-a81b-25e25fa911f0",
              "type": "flowCondition",
              "label": "abandonment",
              "order": 3,
              "toNode": "Fallback",
              "linkType": "left",
              "description": "",
              "gotoNodeType": "outcomePoint"
            }
          ],
          "type": "node",
          "label": "SubFlow2",
          "parent": "add-endpoint/14630",
          "nodeType": "subFlow",
          "parentId": "1c4f723c-601a-4cba-a85b-ae5dd9e9217c/85629395-3306-4c65-b667-e2c96beded04",
          "subflowId": "a6a7da65-ed42-4206-9250-76f0567a4599",
          "containsPii": false,
          "description": "This is second SubFlow description",
          "applyInputsToFlow": false,
          "nodeDisplayOption": "description"
        }
      ],
      "nodeType": "pattern",
      "outcomes": [
        {
          "id": "b81adbd9-319d-4506-badf-48580e39655f",
          "type": "outcome",
          "color": "#FFED8F",
          "label": "Contained",
          "reasons": [],
          "percentage": 33,
          "description": "User completes task without Human Assistance, Golden Call.",
          "outcomeType": "Project",
          "outcomeValue": "Positive"
        }
      ],
      "parentId": "1c4f723c-601a-4cba-a85b-ae5dd9e9217c",
      "subflows": [
        {
          "id": "d99127d2-6615-46a5-a8c0-da7b1351bb40",
          "flowDataSet": [
            {
              "channel": {
                "id": "IVR",
                "type": "channel",
                "label": "IVR",
                "description": "Voice over the phone"
              },
              "flowData": [
                {
                  "id": "079a5bf7-10c2-4a82-876b-2beb83b03b40",
                  "flow": [
                    {
                      "id": "81bb95b6-775c-4f74-bc90-70460749d0db",
                      "type": "flowCondition",
                      "label": "default",
                      "order": 1,
                      "toNode": "addPoint",
                      "description": "Start Experience"
                    }
                  ],
                  "type": "node",
                  "label": "Start",
                  "parent": "add-endpoint/14630/SubFlow1",
                  "nodeType": "startPoint",
                  "parentId": "1c4f723c-601a-4cba-a85b-ae5dd9e9217c/85629395-3306-4c65-b667-e2c96beded04/d99127d2-6615-46a5-a8c0-da7b1351bb40",
                  "description": "Pattern Flow Start",
                  "applyInputsToFlow": false,
                  "nodeDisplayOption": "description"
                }
              ]
            }
          ],
          "label": "SubFlow1",
          "description": "This is first SubFlow description",
          "parent": "add-endpoint/14630",
          "parentId": "1c4f723c-601a-4cba-a85b-ae5dd9e9217c/85629395-3306-4c65-b667-e2c96beded04",
          "subflows": [],
          "type": "subFlow"
        },
        {
          "id": "a6a7da65-ed42-4206-9250-76f0567a4599",
          "flowDataSet": [
            {
              "channel": {
                "id": "IVR",
                "type": "channel",
                "label": "IVR",
                "description": "Voice over the phone"
              },
              "flowData": [
                {
                  "id": "e2175855-f2a8-4e32-b3cc-6e1550c2d2c2",
                  "flow": [
                    {
                      "id": "76221a68-ddb2-4da5-8b80-c21f82cf3bf1",
                      "type": "flowCondition",
                      "label": "prompt1",
                      "order": 1,
                      "toNode": "Prompt1",
                      "description": "This is first Prompt link description",
                      "gotoNodeType": "normal"
                    }
                  ],
                  "type": "node",
                  "label": "Start",
                  "parent": "add-endpoint/14630/SubFlow2",
                  "nodeType": "startPoint",
                  "parentId": "1c4f723c-601a-4cba-a85b-ae5dd9e9217c/85629395-3306-4c65-b667-e2c96beded04/a6a7da65-ed42-4206-9250-76f0567a4599",
                  "description": "Pattern Flow Start",
                  "applyInputsToFlow": false,
                  "nodeDisplayOption": "description"
                },
                {
                  "id": "32ea2300-da06-4923-b2a1-79c3cbff9c6c",
                  "flow": [
                    {
                      "label": "closedquestion1",
                      "order": 1,
                      "toNode": "ClosedQuestion1",
                      "linkType": "down",
                      "description": "This is first ClosedQuestion link description",
                      "gotoNodeType": "normal",
                      "id": "10c9f787-ae9e-4195-a944-8cc2c0433359",
                      "type": "flowCondition"
                    }
                  ],
                  "type": "node",
                  "label": "Prompt1",
                  "output": [
                    {
                      "id": "16026fe0-dc34-4c2e-90b5-cb9fe0b54b90",
                      "type": "outputCondition",
                      "label": "Default",
                      "edited": true,
                      "content": [
                        {
                          "id": "782a77cb-6f2f-42cd-a91f-331d4c7c411e",
                          "value": "text",
                          "channel": "IVR",
                          "dynamic": false,
                          "contentType": "Prompt"
                        }
                      ],
                      "template": false,
                      "conditionType": "primary"
                    }
                  ],
                  "parent": "add-endpoint/14630/SubFlow2",
                  "nodeType": "prompt",
                  "parentId": "1c4f723c-601a-4cba-a85b-ae5dd9e9217c/85629395-3306-4c65-b667-e2c96beded04/a6a7da65-ed42-4206-9250-76f0567a4599",
                  "templateId": "defaultPromptTemplate",
                  "containsPii": false,
                  "description": "This is first Prompt description",
                  "nodeDisplayOption": "description",
                  "applyInputsToFlow": false,
                  "input": [],
                  "nodeRules": {
                    "id": "9f54da82-d6d1-4bed-bbc2-6b72f24e2fc1",
                    "useGlobalEscalate": true,
                    "useGlobalFallback": true,
                    "useGlobalRepairs": true,
                    "repairRules": []
                  }
                },
                {
                  "id": "168e4423-acc5-4762-b061-c8d97f2d7b5e",
                  "flow": [
                    {
                      "label": "Repair",
                      "order": 2,
                      "toNode": "ClosedQuestion1",
                      "linkType": "loop",
                      "id": "7bea240e-7586-4e7b-8ae2-3a0b0cc05ded",
                      "type": "flowCondition"
                    },
                    {
                      "label": "Custom",
                      "order": 2,
                      "toNode": "escalate",
                      "linkType": "down",
                      "description": "",
                      "gotoNodeType": "endPoint",
                      "id": "3e637006-8bf8-4b07-8602-ffe5f8d2af5e",
                      "type": "flowCondition"
                    },
                    {
                      "label": "Agent",
                      "order": 3,
                      "toNode": "escalate",
                      "linkType": "down",
                      "description": "",
                      "gotoNodeType": "endPoint",
                      "id": "b8443f5b-cd54-411d-ba17-f0c26b88222f",
                      "type": "flowCondition"
                    }
                  ],
                  "type": "node",
                  "input": [
                    {
                      "id": "93b8c83e-6bb2-407d-b748-2193febf277f",
                      "type": "inputCondition",
                      "label": "OfferParser",
                      "order": 1,
                      "parser": "HelloModel",
                      "inputType": "NLUModel"
                    }
                  ],
                  "label": "ClosedQuestion1",
                  "output": [
                    {
                      "id": "a867c881-0227-4636-aa78-6e08d5b1f100",
                      "type": "outputCondition",
                      "label": "Default",
                      "edited": true,
                      "content": [
                        {
                          "id": "259172f6-3bfd-45cd-8bec-5d3df48414e1",
                          "value": "text",
                          "channel": "IVR",
                          "dynamic": false,
                          "contentType": "Prompt"
                        }
                      ],
                      "template": false,
                      "conditionType": "primary"
                    }
                  ],
                  "parent": "add-endpoint/14630/SubFlow2",
                  "nodeType": "closedQuestion",
                  "parentId": "1c4f723c-601a-4cba-a85b-ae5dd9e9217c/85629395-3306-4c65-b667-e2c96beded04/a6a7da65-ed42-4206-9250-76f0567a4599",
                  "nodeRules": {
                    "repairRules": [],
                    "useGlobalRepairs": true,
                    "useGlobalEscalate": true,
                    "useGlobalFallback": true
                  },
                  "templateId": "defaultClosedTemplate",
                  "containsPii": false,
                  "description": "This is first ClosedQuestion description",
                  "channelSettings": {
                    "ttsEngine": "",
                    "acceptDTMF": true,
                    "talkingSpeed": 10
                  },
                  "nodeDisplayOption": "description",
                  "applyInputsToFlow": false
                }
              ]
            }
          ],
          "label": "SubFlow2",
          "description": "This is second SubFlow description",
          "parent": "add-endpoint/14630",
          "parentId": "1c4f723c-601a-4cba-a85b-ae5dd9e9217c/85629395-3306-4c65-b667-e2c96beded04",
          "subflows": [],
          "type": "subFlow"
        }
      ],
      "description": "",
      "patternType": "Inbound",
      "entityGroups": [
        {
          "id": "0a433f48-a86f-461e-836d-b1c39913a3c3",
          "type": "entityGroup",
          "label": "defaultEntityGroup",
          "dependsOn": [],
          "primaryKey": "default",
          "description": "defaultEntityGroup",
          "sharedEndPoint": false
        }
      ]
    },
    {
      "label": "14731",
      "id": "44cb8543-a76c-49d2-bd87-dc50284fdb39",
      "parent": "add-endpoint",
      "parentId": "1c4f723c-601a-4cba-a85b-ae5dd9e9217c",
      "patternType": "Inbound",
      "nodeType": "pattern",
      "type": "pattern",
      "channels": [
        {
          "id": "IVR",
          "type": "channel",
          "label": "IVR",
          "description": "Voice over the phone"
        }
      ],
      "flowData": [
        {
          "id": "3ab26bb2-22b6-4210-aef8-c937fbf161e0",
          "flow": [
            {
              "id": "2be814e4-fa65-4eb6-9a2f-8b325208b479",
              "label": "default",
              "order": 1,
              "toNode": "addPoint",
              "description": "Start Experience",
              "type": "flowCondition"
            }
          ],
          "type": "node",
          "label": "Start",
          "nodeType": "startPoint",
          "description": "Pattern Flow Start",
          "parent": "add-endpoint/14731",
          "parentId": "1c4f723c-601a-4cba-a85b-ae5dd9e9217c/44cb8543-a76c-49d2-bd87-dc50284fdb39",
          "nodeDisplayOption": "description",
          "applyInputsToFlow": false
        }
      ],
      "entities": [],
      "entityGroups": [
        {
          "id": "487798ca-1bce-4f5d-8f7a-e585ca5dc360",
          "type": "entityGroup",
          "label": "defaultEntityGroup",
          "dependsOn": [],
          "primaryKey": "default",
          "description": "defaultEntityGroup",
          "sharedEndPoint": false
        }
      ],
      "outcomes": [
        {
          "id": "b81adbd9-319d-4506-badf-48580e39655f",
          "type": "outcome",
          "color": "#FFED8F",
          "label": "Contained",
          "reasons": [],
          "percentage": 33,
          "description": "User completes task without Human Assistance, Golden Call.",
          "outcomeType": "Project",
          "outcomeValue": "Positive"
        }
      ],
      "subflows": [],
      "mapper": [],
      "description": ""
    }
  ],
  "templates": {
    "defaultOpenTemplate": {
      "id": "defaultOpenTemplate",
      "label": "DefaultOpenTemplate",
      "hasPre": true,
      "hasPost": true,
      "hasRepair": true,
      "description": "This is the default open template.",
      "templateType": "openQuestion",
      "channelConditions": [
        {
          "flow": [],
          "input": {
            "models": []
          },
          "output": [],
          "channelId": "IVR"
        },
        {
          "flow": [],
          "input": {
            "models": []
          },
          "output": [],
          "channelId": "RWC"
        },
        {
          "flow": [],
          "input": {
            "models": []
          },
          "output": [],
          "channelId": "SMS"
        },
        {
          "flow": [],
          "input": {
            "models": []
          },
          "output": [],
          "channelId": "App"
        },
        {
          "flow": [],
          "input": {
            "models": []
          },
          "output": [],
          "channelId": "rSMS"
        },
        {
          "flow": [],
          "input": {
            "models": []
          },
          "output": [],
          "channelId": "VoIP"
        }
      ]
    },
    "defaultClosedTemplate": {
      "id": "defaultClosedTemplate",
      "label": "DefaultClosedTemplate",
      "hasPre": true,
      "hasPost": true,
      "hasRepair": true,
      "description": "This is the default closed template.",
      "templateType": "closedQuestion",
      "channelConditions": [
        {
          "flow": [],
          "input": {
            "models": []
          },
          "output": [],
          "channelId": "IVR"
        },
        {
          "flow": [],
          "input": {
            "models": []
          },
          "output": [],
          "channelId": "RWC"
        },
        {
          "flow": [],
          "input": {
            "models": []
          },
          "output": [],
          "channelId": "SMS"
        },
        {
          "flow": [],
          "input": {
            "models": []
          },
          "output": [],
          "channelId": "App"
        },
        {
          "flow": [],
          "input": {
            "models": []
          },
          "output": [],
          "channelId": "rSMS"
        },
        {
          "flow": [],
          "input": {
            "models": []
          },
          "output": [],
          "channelId": "VoIP"
        }
      ]
    },
    "defaultPromptTemplate": {
      "id": "defaultPromptTemplate",
      "label": "DefaultPromptTemplate",
      "hasPre": true,
      "hasPost": true,
      "hasRepair": true,
      "description": "This is the default prompt template.",
      "templateType": "prompt",
      "channelConditions": [
        {
          "flow": [],
          "input": {
            "models": []
          },
          "output": [],
          "channelId": "IVR"
        },
        {
          "flow": [],
          "input": {
            "models": []
          },
          "output": [],
          "channelId": "RWC"
        },
        {
          "flow": [],
          "input": {
            "models": []
          },
          "output": [],
          "channelId": "SMS"
        },
        {
          "flow": [],
          "input": {
            "models": []
          },
          "output": [],
          "channelId": "App"
        },
        {
          "flow": [],
          "input": {
            "models": []
          },
          "output": [],
          "channelId": "rSMS"
        },
        {
          "flow": [],
          "input": {
            "models": []
          },
          "output": [],
          "channelId": "VoIP"
        }
      ]
    },
    "YesNoTemplateId": {
      "label": "YesNoQuestion",
      "description": "This is the default ClosedQuestion template",
      "templateType": "closedQuestion",
      "id": "YesNoTemplateId",
      "channelConditions": [
        {
          "channelId": "IVR",
          "output": [],
          "input": {
            "models": [
              {
                "label": "Yes",
                "type": "inputCondition",
                "containsPii": false,
                "id": "adc40c25-bb7d-46ff-97dd-0aaa029fdef1",
                "description": "positive user response",
                "inputType": "Matcher",
                "parser": "yes, yeah, yah"
              },
              {
                "label": "No",
                "type": "inputCondition",
                "containsPii": false,
                "id": "18eee451-84dd-48bf-ae33-505cfc93074e",
                "description": "negative user response",
                "inputType": "Matcher",
                "parser": "no, nope, nah"
              }
            ]
          },
          "flow": []
        },
        {
          "channelId": "RWC",
          "output": [],
          "input": {
            "models": [
              {
                "label": "Yes",
                "type": "inputCondition",
                "containsPii": false,
                "id": "793fc3d2-1fb7-4d50-ace8-b6fc88ac2c26",
                "description": "positive user response",
                "inputType": "Matcher",
                "parser": "yes, yeah, yah"
              },
              {
                "label": "No",
                "type": "inputCondition",
                "containsPii": false,
                "id": "706a169e-3acb-4393-99b7-507e030a0060",
                "description": "negative user response",
                "inputType": "Matcher",
                "parser": "no, nope, nah"
              }
            ]
          },
          "flow": []
        },
        {
          "channelId": "SMS",
          "output": [],
          "input": {
            "models": [
              {
                "label": "Yes",
                "type": "inputCondition",
                "containsPii": false,
                "id": "7027d040-2356-41b5-8fea-8f4fd742cf2f",
                "description": "positive user response",
                "inputType": "Matcher",
                "parser": "yes, yeah, yah"
              },
              {
                "label": "No",
                "type": "inputCondition",
                "containsPii": false,
                "id": "1b7498f5-05f7-4463-81be-1e08f5b49d3a",
                "description": "negative user response",
                "inputType": "Matcher",
                "parser": "no, nope, nah"
              }
            ]
          },
          "flow": []
        },
        {
          "channelId": "App",
          "output": [],
          "input": {
            "models": []
          },
          "flow": []
        },
        {
          "channelId": "rSMS",
          "output": [],
          "input": {
            "models": [
              {
                "label": "Yes",
                "type": "inputCondition",
                "containsPii": false,
                "id": "a4e21757-5525-4e8a-858f-8b5f86d9b8e9",
                "description": "positive user response",
                "inputType": "Matcher",
                "parser": "yes, yeah, yah"
              },
              {
                "label": "No",
                "type": "inputCondition",
                "containsPii": false,
                "id": "ccb569d5-d167-4f78-905e-12cef9afcc8b",
                "description": "negative user response",
                "inputType": "Matcher",
                "parser": "no, nope, nah"
              }
            ]
          },
          "flow": []
        },
        {
          "channelId": "VoIP",
          "output": [],
          "input": {
            "models": [
              {
                "label": "Yes",
                "type": "inputCondition",
                "containsPii": false,
                "id": "768b2c82-bcdd-4e7c-a228-19e404945d5b",
                "description": "positive user response",
                "inputType": "Matcher",
                "parser": "yes, yeah, yah"
              },
              {
                "label": "No",
                "type": "inputCondition",
                "containsPii": false,
                "id": "9ada6e18-6d1e-4f96-8199-3d0c263ea970",
                "description": "negative user response",
                "inputType": "Matcher",
                "parser": "no, nope, nah"
              }
            ]
          },
          "flow": []
        }
      ]
    }
  },
  "description": "",
  "projectType": "None",
  "outcomesBaseline": [],
  "projectObjectVersion": 1,
  "parent": "",
  "parentId": "",
  "destinationPdes": [],
  "cards": {},
  "globalRepairRules": [
    {
      "label": "Out of Context",
      "description": "Out of context response are when the NLU is unable to classify the user's input. The user is asked to repeat.",
      "id": "OOCRule",
      "repairType": "outOfContext",
      "numberOfAttempts": 2,
      "outcome": "fallback"
    },
    {
      "label": "No Response",
      "description": "No response is when the user does not provide any input. The system will reprompt the user to provide a response",
      "id": "NRRule",
      "repairType": "noResponse",
      "numberOfAttempts": 2,
      "outcome": "fallback"
    },
    {
      "label": "Agent Request",
      "id": "ARRule",
      "description": "User requests Agent Transfer will trigger an Escalate flow",
      "repairType": "agentRequest",
      "numberOfAttempts": 1,
      "outcome": "escalate"
    },
    {
      "label": "Maximum Repair before Fallback",
      "id": "MRBFrule",
      "description": "Total number of repairs before triggering a fallback action. Fallback should be offering another channel or escalating to an agent",
      "repairType": "maximum",
      "numberOfAttempts": 3,
      "outcome": "fallback"
    }
  ]
}
