{
    "type": "project",
    "cards": {},
    "label": "Automation Project",
    "parent": "",
    "outcomes": [
        {
            "id": "36eece74-b55b-4afa-ba5c-61b1c93bc1f6",
            "type": "outcome",
            "color": "#8FBCFF",
            "label": "HITL",
            "reasons": [],
            "percentage": 33,
            "description": "Human in the Loop",
            "outcomeType": "Project",
            "outcomeValue": "Neutral"
        },
        {
            "id": "0b618a6b-f6fe-45f3-afcc-fe4f87052147",
            "type": "outcome",
            "color": "#FFBFCB",
            "label": "Abandon",
            "reasons": [],
            "percentage": 33,
            "description": "User exits system without completion point.",
            "outcomeType": "Project",
            "outcomeValue": "Negative"
        },
        {
            "id": "e47820be-d01f-40bc-bc77-a84eabc6a3d9",
            "type": "outcome",
            "color": "#FFED8F",
            "label": "Contained",
            "reasons": [],
            "percentage": 33,
            "description": "User completes task without Human Assistance, Golden Call.",
            "outcomeType": "Project",
            "outcomeValue": "Positive"
        },
        {
            "id": "escalate",
            "type": "outcome",
            "color": "#8FBCFF",
            "label": "Escalate",
            "description": "User is moved to Global Agent Transfer pattern, passing along flow and context.",
            "outcomeType": "Global",
            "outcomeValue": "Neutral",
            "destinationPattern": ""
        },
        {
            "id": "fallback",
            "type": "outcome",
            "color": "#EBBFFF",
            "label": "Fallback",
            "description": "If user is stuck in n or more repairs on the voice channel. Offer alternate channel if available, or switch to easier input.",
            "outcomeType": "Global",
            "outcomeValue": "Neutral",
            "destinationPattern": ""
        }
    ],
    "parentId": "",
    "patterns": [
        {
            "label": "Pattern",
            "id": "5f099964-cd92-4dd9-98ff-42b3723cfc86",
            "parent": "TestAutomationProject",
            "parentId": "63b1da15-a095-41fc-90a5-ffbe19eeaf29",
            "patternType": "Inbound",
            "nodeType": "pattern",
            "type": "pattern",
            "channels": [
                {
                    "id": "IVR",
                    "type": "channel",
                    "label": "IVR",
                    "description": "Voice over the phone"
                }            
            ],
            "flowData": [
                {
                    "id": "b46e6ae2-1db3-4fb9-9586-1b86445dee92",
                    "flow": [
                        {
                            "id": "29f25912-73d5-4ad9-aec1-0da7526b0c6c",
                            "type": "flowCondition",
                            "label": "default",
                            "order": 1,
                            "toNode": "SubFlow",
                            "description": "",
                            "gotoNodeType": "normal"
                        }
                    ],
                    "type": "node",
                    "label": "Start",
                    "parent": "TestAutomationProject/Pattern",
                    "nodeType": "startPoint",
                    "parentId": "63b1da15-a095-41fc-90a5-ffbe19eeaf29/5f099964-cd92-4dd9-98ff-42b3723cfc86",
                    "description": "Pattern Flow Start",
                    "applyInputsToFlow": false,
                    "nodeDisplayOption": "description"
                },
                {
                    "id": "28e2d130-59ff-411b-a60e-410c2c717d28",
                    "flow": [
                        {
                            "id": "6931551b-a3a9-4a99-b5fe-1f3fc4956d75",
                            "type": "flowCondition",
                            "label": "default",
                            "order": 1,
                            "toNode": "addPoint",
                            "linkType": "down"
                        }
                    ],
                    "type": "node",
                    "label": "SubFlow",
                    "parent": "TestAutomationProject/Pattern",
                    "nodeType": "subFlow",
                    "parentId": "63b1da15-a095-41fc-90a5-ffbe19eeaf29/5f099964-cd92-4dd9-98ff-42b3723cfc86",
                    "subflowId": "c6941324-337d-495c-84af-1cd890afc6fe",
                    "containsPii": false,
                    "description": "",
                    "applyInputsToFlow": false,
                    "nodeDisplayOption": "description"
                }
            ],
            "entities": [],
            "entityGroups": [
                {
                    "id": "985b7697-c5f4-4298-a95c-0a0ba003ee69",
                    "type": "entityGroup",
                    "label": "defaultEntityGroup",
                    "dependsOn": [],
                    "primaryKey": "default",
                    "description": "defaultEntityGroup",
                    "sharedEndPoint": false
                }
            ],
            "outcomes": [
                {
                    "id": "36eece74-b55b-4afa-ba5c-61b1c93bc1f6",
                    "type": "outcome",
                    "color": "#8FBCFF",
                    "label": "HITL",
                    "reasons": [],
                    "percentage": 33,
                    "description": "Human in the Loop",
                    "outcomeType": "Project",
                    "outcomeValue": "Neutral"
                },
                {
                    "id": "0b618a6b-f6fe-45f3-afcc-fe4f87052147",
                    "type": "outcome",
                    "color": "#FFBFCB",
                    "label": "Abandon",
                    "reasons": [],
                    "percentage": 33,
                    "description": "User exits system without completion point.",
                    "outcomeType": "Project",
                    "outcomeValue": "Negative"
                },
                {
                    "id": "e47820be-d01f-40bc-bc77-a84eabc6a3d9",
                    "type": "outcome",
                    "color": "#FFED8F",
                    "label": "Contained",
                    "reasons": [],
                    "percentage": 33,
                    "description": "User completes task without Human Assistance, Golden Call.",
                    "outcomeType": "Project",
                    "outcomeValue": "Positive"
                }
            ],
            "subflows": [
                {
                    "id": "c6941324-337d-495c-84af-1cd890afc6fe",
                    "flowDataSet": [
                        {
                            "channel": {
                                "id": "IVR",
                                "type": "channel",
                                "label": "IVR",
                                "description": "Voice over the phone"
                            },
                            "flowData": [
                                {
                                    "id": "96536121-8a0b-44cd-9767-908c1f74380c",
                                    "flow": [
                                        {
                                            "id": "41c6d8cb-9891-447a-84d1-73ea39692550",
                                            "type": "flowCondition",
                                            "label": "default",
                                            "order": 1,
                                            "toNode": "PromptNode",
                                            "description": "",
                                            "gotoNodeType": "normal"
                                        }
                                    ],
                                    "type": "node",
                                    "label": "Start",
                                    "parent": "TestAutomationProject/Pattern/SubFlow",
                                    "nodeType": "startPoint",
                                    "parentId": "63b1da15-a095-41fc-90a5-ffbe19eeaf29/5f099964-cd92-4dd9-98ff-42b3723cfc86/c6941324-337d-495c-84af-1cd890afc6fe",
                                    "description": "Pattern Flow Start",
                                    "applyInputsToFlow": false,
                                    "nodeDisplayOption": "description"
                                },
                                {
                                    "id": "b6690b3b-2a7b-4bdb-bc0c-32216d6ce9fd",
                                    "flow": [
                                        {
                                            "label": "default",
                                            "order": 1,
                                            "linkType": "down",
                                            "id": "7f1a4892-def8-43b7-a13e-82dc91780522",
                                            "toNode": "addPoint",
                                            "type": "flowCondition"
                                        }
                                    ],
                                    "type": "node",
                                    "label": "PromptNode",
                                    "output": [],
                                    "parent": "TestAutomationProject/Pattern/SubFlow",
                                    "nodeType": "prompt",
                                    "parentId": "63b1da15-a095-41fc-90a5-ffbe19eeaf29/5f099964-cd92-4dd9-98ff-42b3723cfc86/c6941324-337d-495c-84af-1cd890afc6fe",
                                    "templateId": "defaultPromptTemplate",
                                    "containsPii": false,
                                    "description": "Description for Prompt",
                                    "nodeDisplayOption": "description",
                                    "applyInputsToFlow": false,
                                    "input": [],
                                    "nodeRules": {
                                        "id": "7bdebe7a-bcdc-4cde-8106-efd984d20c0b",
                                        "useGlobalEscalate": true,
                                        "useGlobalFallback": true,
                                        "useGlobalRepairs": true,
                                        "repairRules": []
                                    }
                                }
                            ]
                        }
                        
                    ],
                    "label": "SubFlow",
                    "description": "",
                    "parent": "TestAutomationProject/Pattern",
                    "parentId": "63b1da15-a095-41fc-90a5-ffbe19eeaf29/5f099964-cd92-4dd9-98ff-42b3723cfc86",
                    "subflows": [],
                    "type": "subFlow"
                }
            ],
            "mapper": [],
            "description": ""
        }
    ],
    "templates": {
        "YesNoTemplateId": {
            "id": "YesNoTemplateId",
            "label": "YesNoQuestion",
            "hasPre": true,
            "hasPost": true,
            "hasRepair": true,
            "description": "This is the default ClosedQuestion template",
            "templateType": "closedQuestion",
            "channelConditions": [
                {
                    "flow": [],
                    "input": {
                        "models": [
                            {
                                "id": "d5dd7b43-f75a-4012-b264-1d300bbb6bb2",
                                "type": "inputCondition",
                                "label": "Yes",
                                "parser": "yes, yeah, yah",
                                "inputType": "Matcher",
                                "containsPii": false,
                                "description": "positive user response"
                            },
                            {
                                "id": "2a3dc036-f431-400a-a644-63046080bd8a",
                                "type": "inputCondition",
                                "label": "No",
                                "parser": "no, nope, nah",
                                "inputType": "Matcher",
                                "containsPii": false,
                                "description": "negative user response"
                            }
                        ]
                    },
                    "output": [],
                    "channelId": "IVR"
                },
                {
                    "flow": [],
                    "input": {
                        "models": [
                            {
                                "id": "3793b994-f4de-4d24-b42f-6bb712ee73a8",
                                "type": "inputCondition",
                                "label": "Yes",
                                "parser": "yes, yeah, yah",
                                "inputType": "Matcher",
                                "containsPii": false,
                                "description": "positive user response"
                            },
                            {
                                "id": "d1acb3b9-a027-44c9-b86e-c0875e986e76",
                                "type": "inputCondition",
                                "label": "No",
                                "parser": "no, nope, nah",
                                "inputType": "Matcher",
                                "containsPii": false,
                                "description": "negative user response"
                            }
                        ]
                    },
                    "output": [],
                    "channelId": "RWC"
                },
                {
                    "flow": [],
                    "input": {
                        "models": [
                            {
                                "id": "0a6ce375-3025-444d-8185-6d82cc91d900",
                                "type": "inputCondition",
                                "label": "Yes",
                                "parser": "yes, yeah, yah",
                                "inputType": "Matcher",
                                "containsPii": false,
                                "description": "positive user response"
                            },
                            {
                                "id": "f7b6b163-5f9f-49bb-a2d9-9c4cad95c89a",
                                "type": "inputCondition",
                                "label": "No",
                                "parser": "no, nope, nah",
                                "inputType": "Matcher",
                                "containsPii": false,
                                "description": "negative user response"
                            }
                        ]
                    },
                    "output": [],
                    "channelId": "SMS"
                },
                {
                    "flow": [],
                    "input": {
                        "models": []
                    },
                    "output": [],
                    "channelId": "App"
                },
                {
                    "flow": [],
                    "input": {
                        "models": [
                            {
                                "id": "61b3d91c-82e0-470e-8630-edf230daac13",
                                "type": "inputCondition",
                                "label": "Yes",
                                "parser": "yes, yeah, yah",
                                "inputType": "Matcher",
                                "containsPii": false,
                                "description": "positive user response"
                            },
                            {
                                "id": "2d5a1a6c-9999-48ea-a7e3-d8ce45caacca",
                                "type": "inputCondition",
                                "label": "No",
                                "parser": "no, nope, nah",
                                "inputType": "Matcher",
                                "containsPii": false,
                                "description": "negative user response"
                            }
                        ]
                    },
                    "output": [],
                    "channelId": "rSMS"
                },
                {
                    "flow": [],
                    "input": {
                        "models": [
                            {
                                "id": "3e5742e6-c602-478c-b9d4-e1456f384904",
                                "type": "inputCondition",
                                "label": "Yes",
                                "parser": "yes, yeah, yah",
                                "inputType": "Matcher",
                                "containsPii": false,
                                "description": "positive user response"
                            },
                            {
                                "id": "3e813fbf-b041-464d-892e-fcaad01c1692",
                                "type": "inputCondition",
                                "label": "No",
                                "parser": "no, nope, nah",
                                "inputType": "Matcher",
                                "containsPii": false,
                                "description": "negative user response"
                            }
                        ]
                    },
                    "output": [],
                    "channelId": "VoIP"
                }
            ]
        },
        "defaultOpenTemplate": {
            "id": "defaultOpenTemplate",
            "label": "DefaultOpenTemplate",
            "hasPre": true,
            "hasPost": true,
            "hasRepair": true,
            "description": "This is the default open template.",
            "templateType": "openQuestion",
            "channelConditions": [
                {
                    "flow": [],
                    "input": {
                        "models": []
                    },
                    "output": [],
                    "channelId": "IVR"
                },
                {
                    "flow": [],
                    "input": {
                        "models": []
                    },
                    "output": [],
                    "channelId": "RWC"
                },
                {
                    "flow": [],
                    "input": {
                        "models": []
                    },
                    "output": [],
                    "channelId": "SMS"
                },
                {
                    "flow": [],
                    "input": {
                        "models": []
                    },
                    "output": [],
                    "channelId": "App"
                },
                {
                    "flow": [],
                    "input": {
                        "models": []
                    },
                    "output": [],
                    "channelId": "rSMS"
                },
                {
                    "flow": [],
                    "input": {
                        "models": []
                    },
                    "output": [],
                    "channelId": "VoIP"
                }
            ]
        },
        "defaultClosedTemplate": {
            "id": "defaultClosedTemplate",
            "label": "DefaultClosedTemplate",
            "hasPre": true,
            "hasPost": true,
            "hasRepair": true,
            "description": "This is the default closed template.",
            "templateType": "closedQuestion",
            "channelConditions": [
                {
                    "flow": [],
                    "input": {
                        "models": []
                    },
                    "output": [],
                    "channelId": "IVR"
                },
                {
                    "flow": [],
                    "input": {
                        "models": []
                    },
                    "output": [],
                    "channelId": "RWC"
                },
                {
                    "flow": [],
                    "input": {
                        "models": []
                    },
                    "output": [],
                    "channelId": "SMS"
                },
                {
                    "flow": [],
                    "input": {
                        "models": []
                    },
                    "output": [],
                    "channelId": "App"
                },
                {
                    "flow": [],
                    "input": {
                        "models": []
                    },
                    "output": [],
                    "channelId": "rSMS"
                },
                {
                    "flow": [],
                    "input": {
                        "models": []
                    },
                    "output": [],
                    "channelId": "VoIP"
                }
            ]
        },
        "defaultPromptTemplate": {
            "id": "defaultPromptTemplate",
            "label": "DefaultPromptTemplate",
            "hasPre": true,
            "hasPost": true,
            "hasRepair": true,
            "description": "This is the default prompt template.",
            "templateType": "prompt",
            "channelConditions": [
                {
                    "flow": [],
                    "input": {
                        "models": []
                    },
                    "output": [],
                    "channelId": "IVR"
                },
                {
                    "flow": [],
                    "input": {
                        "models": []
                    },
                    "output": [],
                    "channelId": "RWC"
                },
                {
                    "flow": [],
                    "input": {
                        "models": []
                    },
                    "output": [],
                    "channelId": "SMS"
                },
                {
                    "flow": [],
                    "input": {
                        "models": []
                    },
                    "output": [],
                    "channelId": "App"
                },
                {
                    "flow": [],
                    "input": {
                        "models": []
                    },
                    "output": [],
                    "channelId": "rSMS"
                },
                {
                    "flow": [],
                    "input": {
                        "models": []
                    },
                    "output": [],
                    "channelId": "VoIP"
                }
            ]
        }
    },
    "description": "Test Automation Project",
    "projectType": "None",
    "destinationPdes": [],
    "outcomesBaseline": [],
    "globalRepairRules": [
        {
            "id": "OOCRule",
            "label": "Out of Context",
            "outcome": "fallback",
            "repairType": "outOfContext",
            "description": "Out of context response are when the NLU is unable to classify the user's input. The user is asked to repeat.",
            "numberOfAttempts": 2
        },
        {
            "id": "NRRule",
            "label": "No Response",
            "outcome": "fallback",
            "repairType": "noResponse",
            "description": "No response is when the user does not provide any input. The system will reprompt the user to provide a response",
            "numberOfAttempts": 2
        },
        {
            "id": "ARRule",
            "label": "Agent Request",
            "outcome": "escalate",
            "repairType": "agentRequest",
            "description": "User requests Agent Transfer will trigger an Escalate flow",
            "numberOfAttempts": 1
        },
        {
            "id": "MRBFrule",
            "label": "Maximum Repair before Fallback",
            "outcome": "fallback",
            "repairType": "maximum",
            "description": "Total number of repairs before triggering a fallback action. Fallback should be offering another channel or escalating to an agent",
            "numberOfAttempts": 3
        }
    ],
    "projectObjectVersion": 1
}
