{
    "id": "d5766df5-5add-4140-a756-dfa44bcfd5be",
    "type": "project",
    "cards": {},
    "label": "edit-node-project",
    "parent": "",
    "outcomes": [
      {
        "id": "escalate",
        "type": "outcome",
        "color": "#8FBCFF",
        "label": "Escalate",
        "description": "User is moved to Global Agent Transfer pattern, passing along flow and context.",
        "outcomeType": "Global",
        "outcomeValue": "Neutral",
        "destinationPattern": ""
      },
      {
        "id": "fallback",
        "type": "outcome",
        "color": "#EBBFFF",
        "label": "Fallback",
        "description": "If user is stuck in n or more repairs on the voice channel. Offer alternate channel if available, or switch to easier input.",
        "outcomeType": "Global",
        "outcomeValue": "Neutral",
        "destinationPattern": ""
      },
      {
        "id": "14b0d6ed-c9ab-4ceb-a4d9-3441921dc2ae",
        "type": "outcome",
        "color": "#FFBFCB",
        "label": "Abandon",
        "reasons": [],
        "percentage": 33,
        "description": "User exits system without completion point.",
        "outcomeType": "Project",
        "outcomeValue": "Negative"
      },
      {
        "id": "3ddd1a3d-45b7-47f1-8173-b53b6d3410b3",
        "type": "outcome",
        "color": "#FFED8F",
        "label": "Contained",
        "reasons": [],
        "percentage": 33,
        "description": "User completes task without Human Assistance, Golden Call.",
        "outcomeType": "Project",
        "outcomeValue": "Positive"
      },
      {
        "id": "e1f5d180-5561-494c-a915-f6c7c9195ce9",
        "type": "outcome",
        "color": "#8FBCFF",
        "label": "HITL",
        "reasons": [],
        "percentage": 33,
        "description": "Human in the Loop",
        "outcomeType": "Project",
        "outcomeValue": "Neutral"
      }
    ],
    "parentId": "",
    "patterns": [
      {
        "id": "4d881618-22af-492f-89fd-c3e0c069b62b",
        "type": "pattern",
        "label": "skill1",
        "mapper": [],
        "parent": "editnodeproject",
        "channels": [
          {
            "id": "IVR",
            "type": "channel",
            "label": "IVR",
            "description": "Voice over the phone"
          },
          {
            "id": "RWC",
            "type": "channel",
            "label": "RWC",
            "description": "Rich webchat UI"
          },
          {
            "id": "SMS",
            "type": "channel",
            "label": "SMS",
            "description": "Text messaging"
          }
        ],
        "entities": [],
        "flowData": [
          {
            "id": "888cf98f-9563-4a80-a430-9ee8dd40be88",
            "flow": [
              {
                "id": "3c0babe5-165f-4463-98a2-35d56d099eb3",
                "type": "flowCondition",
                "label": "default",
                "order": 1,
                "toNode": "addPoint",
                "description": "Start Experience"
              }
            ],
            "type": "node",
            "label": "Start",
            "parent": "editnodeproject/skill1",
            "nodeType": "startPoint",
            "parentId": "fb923d3a-2be5-4176-8855-907a80d37a1b/618de8c2-ec42-45f3-a448-d9ebbff76695",
            "description": "Pattern Flow Start",
            "applyInputsToFlow": false,
            "nodeDisplayOption": "description"
          }
        ],
        "nodeType": "pattern",
        "outcomes": [
          {
            "id": "5f622c55-5b74-4533-b0b8-46a5dcc854d7",
            "color": "#8FBCFF",
            "label": "skilloutcome1",
            "bucket": "Baseline",
            "percentage": 33,
            "description": "",
            "outcomeType": "Skill",
            "outcomeValue": "Neutral"
          }
        ],
        "parentId": "fb923d3a-2be5-4176-8855-907a80d37a1b",
        "subflows": [],
        "description": "",
        "patternType": "Skill",
        "entityGroups": [
          {
            "id": "f9257ae1-f343-4573-a912-f363cf6e75c8",
            "type": "entityGroup",
            "label": "defaultEntityGroup",
            "dependsOn": [],
            "primaryKey": "default",
            "description": "defaultEntityGroup",
            "sharedEndPoint": false
          }
        ]
      },
      {
        "id": "497db8db-c2cb-495a-b271-cceca5738978",
        "type": "pattern",
        "label": "skill2",
        "mapper": [],
        "parent": "editnodeproject",
        "channels": [
          {
            "id": "IVR",
            "type": "channel",
            "label": "IVR",
            "description": "Voice over the phone"
          },
          {
            "id": "RWC",
            "type": "channel",
            "label": "RWC",
            "description": "Rich webchat UI"
          },
          {
            "id": "SMS",
            "type": "channel",
            "label": "SMS",
            "description": "Text messaging"
          }
        ],
        "entities": [],
        "flowData": [
          {
            "id": "72c5c6de-5a05-4356-bb91-8027feaeb6e8",
            "flow": [
              {
                "id": "dfbd743f-f7c6-41ae-a29c-3731d6714b56",
                "type": "flowCondition",
                "label": "default",
                "order": 1,
                "toNode": "addPoint",
                "description": "Start Experience"
              }
            ],
            "type": "node",
            "label": "Start",
            "parent": "editnodeproject/skill2",
            "nodeType": "startPoint",
            "parentId": "fb923d3a-2be5-4176-8855-907a80d37a1b/159c4879-ed84-418e-9bd8-999bffb6ff70",
            "description": "Pattern Flow Start",
            "applyInputsToFlow": false,
            "nodeDisplayOption": "description"
          }
        ],
        "nodeType": "pattern",
        "outcomes": [
          {
            "id": "8aaff896-509b-4682-a48f-9661fccfe3fe",
            "color": "#8FBCFF",
            "label": "skilloutcome2",
            "percentage": 33,
            "description": "",
            "outcomeType": "Skill",
            "outcomeValue": "Neutral"
          }
        ],
        "parentId": "fb923d3a-2be5-4176-8855-907a80d37a1b",
        "subflows": [],
        "description": "",
        "patternType": "Skill",
        "entityGroups": [
          {
            "id": "d8a8965e-da9c-4d8a-bc8f-8b7c187c3d0d",
            "type": "entityGroup",
            "label": "defaultEntityGroup",
            "dependsOn": [],
            "primaryKey": "default",
            "description": "defaultEntityGroup",
            "sharedEndPoint": false
          }
        ]
      },
      {
        "id": "ca40f04c-f642-43ae-b7e1-62a7b5a55863",
        "type": "pattern",
        "label": "tag",
        "mapper": [],
        "parent": "editnodeproject",
        "channels": [
          {
            "id": "RWC",
            "type": "channel",
            "label": "RWC",
            "description": "Rich webchat UI"
          },
          {
            "id": "SMS",
            "type": "channel",
            "label": "SMS",
            "description": "Text messaging"
          },
          {
            "id": "IVR",
            "type": "channel",
            "label": "IVR",
            "description": "Voice over the phone"
          }
        ],
        "entities": [],
        "flowData": [
          {
            "id": "09ba40c7-7b20-4d39-a1e4-79e4c8a62450",
            "flow": [
              {
                "id": "edab4bdd-7e09-4251-a2e5-0b61d1b1f7de",
                "type": "flowCondition",
                "label": "default",
                "order": 1,
                "toNode": "tag",
                "description": "",
                "gotoNodeType": "normal"
              }
            ],
            "type": "node",
            "label": "Start",
            "parent": "editnodeproject/tag",
            "nodeType": "startPoint",
            "parentId": "fb923d3a-2be5-4176-8855-907a80d37a1b/f0e6b9d3-7639-4e46-84f5-5034d07e70cc",
            "description": "Pattern Flow Start",
            "applyInputsToFlow": false,
            "nodeDisplayOption": "description"
          },
          {
            "id": "d57e67a8-738a-4d01-abe0-915fc7319abc",
            "flow": [
              {
                "id": "4a288606-5375-45c8-ba8d-e4a7a007b094",
                "type": "flowCondition",
                "label": "default",
                "order": 1,
                "toNode": "addPoint",
                "linkType": "down"
              }
            ],
            "type": "node",
            "label": "tag",
            "parent": "editnodeproject/tag",
            "nodeType": "tagNode",
            "parentId": "fb923d3a-2be5-4176-8855-907a80d37a1b/f0e6b9d3-7639-4e46-84f5-5034d07e70cc",
            "containsPii": false,
            "description": "Tagnode Description",
            "applyInputsToFlow": false,
            "nodeDisplayOption": "description"
          }
        ],
        "nodeType": "pattern",
        "outcomes": [
          {
            "id": "3ddd1a3d-45b7-47f1-8173-b53b6d3410b3",
            "type": "outcome",
            "color": "#FFED8F",
            "label": "Contained",
            "reasons": [],
            "percentage": 33,
            "description": "User completes task without Human Assistance, Golden Call.",
            "outcomeType": "Project",
            "outcomeValue": "Positive"
          }
        ],
        "parentId": "fb923d3a-2be5-4176-8855-907a80d37a1b",
        "subflows": [],
        "description": "",
        "patternType": "Inbound",
        "entityGroups": [
          {
            "id": "3af178ed-9c5e-44e2-a483-1fde06ec7187",
            "type": "entityGroup",
            "label": "defaultEntityGroup",
            "dependsOn": [],
            "primaryKey": "default",
            "description": "defaultEntityGroup",
            "sharedEndPoint": false
          }
        ]
      },
      {
        "id": "17160329-87c0-4cd3-98d9-fdd1cd1c000e",
        "type": "pattern",
        "label": "general",
        "mapper": [],
        "parent": "editnodeproject",
        "channels": [
          {
            "id": "IVR",
            "type": "channel",
            "label": "IVR",
            "description": "Voice over the phone"
          },
          {
            "id": "RWC",
            "type": "channel",
            "label": "RWC",
            "description": "Rich webchat UI"
          },
          {
            "id": "SMS",
            "type": "channel",
            "label": "SMS",
            "description": "Text messaging"
          }
        ],
        "entities": [],
        "flowData": [
          {
            "id": "782032f5-0a92-4705-bb08-c6f9683a55a6",
            "flow": [
              {
                "id": "ab91a1a4-5217-4ea3-98fb-c76909aa7949",
                "type": "flowCondition",
                "label": "default",
                "order": 1,
                "toNode": "subflow",
                "description": "",
                "gotoNodeType": "normal"
              }
            ],
            "type": "node",
            "label": "Start",
            "parent": "editnodeproject/general",
            "nodeType": "startPoint",
            "parentId": "fb923d3a-2be5-4176-8855-907a80d37a1b/077958a0-5fcf-4c7d-af62-7e35e7c757c1",
            "description": "Pattern Flow Start",
            "applyInputsToFlow": false,
            "nodeDisplayOption": "description"
          },
          {
            "id": "14f8c4e3-5d53-4842-bcc9-1f3b4efac142",
            "flow": [
              {
                "id": "4430b342-fc78-4488-bb9c-cc858e2ee399",
                "type": "flowCondition",
                "label": "default",
                "order": 1,
                "toNode": "addPoint",
                "linkType": "down"
              }
            ],
            "type": "node",
            "label": "subflow",
            "parent": "editnodeproject/general",
            "nodeType": "subFlow",
            "parentId": "fb923d3a-2be5-4176-8855-907a80d37a1b/077958a0-5fcf-4c7d-af62-7e35e7c757c1",
            "subflowId": "0dee95cb-9b48-4a9b-8126-c0a10b9eb566",
            "containsPii": false,
            "description": "",
            "applyInputsToFlow": false,
            "nodeDisplayOption": "description"
          }
        ],
        "nodeType": "pattern",
        "outcomes": [
          {
            "id": "3ddd1a3d-45b7-47f1-8173-b53b6d3410b3",
            "type": "outcome",
            "color": "#FFED8F",
            "label": "Contained",
            "reasons": [],
            "percentage": 33,
            "description": "User completes task without Human Assistance, Golden Call.",
            "outcomeType": "Project",
            "outcomeValue": "Positive"
          }
        ],
        "parentId": "fb923d3a-2be5-4176-8855-907a80d37a1b",
        "subflows": [
          {
            "id": "0dee95cb-9b48-4a9b-8126-c0a10b9eb566",
            "type": "subFlow",
            "label": "subflow",
            "parent": "editnodeproject/general",
            "parentId": "fb923d3a-2be5-4176-8855-907a80d37a1b/077958a0-5fcf-4c7d-af62-7e35e7c757c1",
            "subflows": [],
            "description": "",
            "flowDataSet": [
              {
                "channel": {
                  "id": "IVR",
                  "type": "channel",
                  "label": "IVR",
                  "description": "Voice over the phone"
                },
                "flowData": [
                  {
                    "id": "2e039985-7602-4727-8a3f-1422cda2f197",
                    "flow": [
                      {
                        "id": "7f992782-dadd-420c-9a64-d5efe2e8b325",
                        "type": "flowCondition",
                        "label": "default",
                        "order": 1,
                        "toNode": "addPoint",
                        "description": "",
                        "gotoNodeType": "addPoint"
                      }
                    ],
                    "type": "node",
                    "label": "Start",
                    "parent": "editnodeproject/general/subflow",
                    "nodeType": "startPoint",
                    "parentId": "fb923d3a-2be5-4176-8855-907a80d37a1b/077958a0-5fcf-4c7d-af62-7e35e7c757c1/0dee95cb-9b48-4a9b-8126-c0a10b9eb566",
                    "description": "Pattern Flow Start",
                    "applyInputsToFlow": false,
                    "nodeDisplayOption": "description"
                  }
                ]
              },
              {
                "channel": {
                  "id": "RWC",
                  "type": "channel",
                  "label": "RWC",
                  "description": "Rich webchat UI"
                },
                "flowData": [
                  {
                    "id": "7bd4fd23-859f-4fe8-b903-30654f02d77f",
                    "flow": [
                      {
                        "id": "c4594945-fe7f-472b-aff1-4ff916daaa13",
                        "type": "flowCondition",
                        "label": "default",
                        "order": 1,
                        "toNode": "Prompt1",
                        "description": "",
                        "gotoNodeType": "normal"
                      }
                    ],
                    "type": "node",
                    "label": "Start",
                    "parent": "editnodeproject/general/subflow",
                    "nodeType": "startPoint",
                    "parentId": "fb923d3a-2be5-4176-8855-907a80d37a1b/077958a0-5fcf-4c7d-af62-7e35e7c757c1/0dee95cb-9b48-4a9b-8126-c0a10b9eb566",
                    "description": "Pattern Flow Start",
                    "applyInputsToFlow": false,
                    "nodeDisplayOption": "description"
                  },
                  {
                    "id": "8fcc7ec5-c07d-4e19-894a-4b2622ea97f6",
                    "flow": [
                      {
                        "label": "default",
                        "order": 1,
                        "linkType": "down",
                        "id": "b3eba1ff-1a24-405d-890e-9b8be809ba6e",
                        "toNode": "addPoint",
                        "type": "flowCondition"
                      }
                    ],
                    "type": "node",
                    "label": "Prompt1",
                    "output": [],
                    "parent": "editnodeproject/general/subflow",
                    "nodeType": "prompt",
                    "parentId": "fb923d3a-2be5-4176-8855-907a80d37a1b/077958a0-5fcf-4c7d-af62-7e35e7c757c1/0dee95cb-9b48-4a9b-8126-c0a10b9eb566",
                    "templateId": "defaultPromptTemplate",
                    "containsPii": false,
                    "description": "Description for Prompt",
                    "nodeDisplayOption": "description",
                    "applyInputsToFlow": false,
                    "input": [],
                    "nodeRules": {
                      "id": "2b3de2da-fab6-4cf8-bf4a-7901b6b877d6",
                      "useGlobalEscalate": true,
                      "useGlobalFallback": true,
                      "useGlobalRepairs": true,
                      "repairRules": []
                    }
                  }
                ]
              }
            ]
          }
        ],
        "description": "",
        "patternType": "Inbound",
        "entityGroups": [
          {
            "id": "95433f64-12ff-4c1e-bb30-18a42a41a20f",
            "type": "entityGroup",
            "label": "defaultEntityGroup",
            "dependsOn": [],
            "primaryKey": "default",
            "description": "defaultEntityGroup",
            "sharedEndPoint": false
          }
        ]
      },
      {
        "id": "50ae1376-2ade-493e-9321-6c409078d47f",
        "type": "pattern",
        "label": "flowNodes",
        "mapper": [],
        "parent": "editnodeproject",
        "channels": [
          {
            "id": "IVR",
            "type": "channel",
            "label": "IVR",
            "description": "Voice over the phone"
          },
          {
            "id": "RWC",
            "type": "channel",
            "label": "RWC",
            "description": "Rich webchat UI"
          },
          {
            "id": "SMS",
            "type": "channel",
            "label": "SMS",
            "description": "Text messaging"
          }
        ],
        "entities": [],
        "flowData": [
          {
            "id": "8589c4d0-917b-4977-be37-c65e7610708b",
            "flow": [
              {
                "id": "75350a70-7271-4307-8227-51601dc2d85e",
                "type": "flowCondition",
                "label": "default",
                "order": 1,
                "toNode": "subflowNodes",
                "description": "",
                "gotoNodeType": "normal"
              }
            ],
            "type": "node",
            "label": "Start",
            "parent": "editnodeproject/flowNodes",
            "nodeType": "startPoint",
            "parentId": "fb923d3a-2be5-4176-8855-907a80d37a1b/849556be-3c98-48a1-afb7-119b9125df7f",
            "description": "Pattern Flow Start",
            "applyInputsToFlow": false,
            "nodeDisplayOption": "description"
          },
          {
            "id": "2505b978-897b-45a4-84e6-bff95a50576f",
            "flow": [
              {
                "id": "e68e8820-73b9-4064-9382-c0140efb1d4e",
                "type": "flowCondition",
                "label": "default",
                "order": 1,
                "toNode": "addPoint",
                "linkType": "down"
              }
            ],
            "type": "node",
            "label": "subflowNodes",
            "parent": "editnodeproject/flowNodes",
            "nodeType": "subFlow",
            "parentId": "fb923d3a-2be5-4176-8855-907a80d37a1b/849556be-3c98-48a1-afb7-119b9125df7f",
            "subflowId": "cb4f90e3-7ecd-4400-b279-62ebe164f324",
            "containsPii": false,
            "description": "",
            "applyInputsToFlow": false,
            "nodeDisplayOption": "description"
          }
        ],
        "nodeType": "pattern",
        "outcomes": [
          {
            "id": "3ddd1a3d-45b7-47f1-8173-b53b6d3410b3",
            "type": "outcome",
            "color": "#FFED8F",
            "label": "Contained",
            "reasons": [],
            "percentage": 33,
            "description": "User completes task without Human Assistance, Golden Call.",
            "outcomeType": "Project",
            "outcomeValue": "Positive"
          }
        ],
        "parentId": "fb923d3a-2be5-4176-8855-907a80d37a1b",
        "subflows": [
          {
            "id": "cb4f90e3-7ecd-4400-b279-62ebe164f324",
            "type": "subFlow",
            "label": "subflowNodes",
            "parent": "editnodeproject/flowNodes",
            "parentId": "fb923d3a-2be5-4176-8855-907a80d37a1b/849556be-3c98-48a1-afb7-119b9125df7f",
            "subflows": [],
            "description": "",
            "flowDataSet": [
              {
                "channel": {
                  "id": "IVR",
                  "type": "channel",
                  "label": "IVR",
                  "description": "Voice over the phone"
                },
                "flowData": [
                  {
                    "id": "1d222cac-b0c1-4645-a87a-e37167075e4a",
                    "flow": [
                      {
                        "id": "773de132-2920-4398-b72c-814f12ffb2e3",
                        "type": "flowCondition",
                        "label": "default",
                        "order": 1,
                        "toNode": "prompt",
                        "description": "default",
                        "gotoNodeType": "normal"
                      }
                    ],
                    "type": "node",
                    "label": "Start",
                    "parent": "editnodeproject/flowNodes/subflowNodes",
                    "nodeType": "startPoint",
                    "parentId": "fb923d3a-2be5-4176-8855-907a80d37a1b/849556be-3c98-48a1-afb7-119b9125df7f/cb4f90e3-7ecd-4400-b279-62ebe164f324",
                    "description": "Pattern Flow Start",
                    "applyInputsToFlow": false,
                    "nodeDisplayOption": "description"
                  },
                  {
                    "id": "6953bdbb-1ae6-4fe4-b621-d0e007c741d5",
                    "flow": [
                      {
                        "id": "6202ea7c-343c-4919-ac14-da8877db53cf",
                        "type": "flowCondition",
                        "label": "default",
                        "order": 1,
                        "toNode": "openq",
                        "linkType": "down",
                        "description": "default",
                        "gotoNodeType": "normal"
                      }
                    ],
                    "type": "node",
                    "input": [],
                    "label": "prompt",
                    "output": [
                      {
                        "id": "9030dc2d-4fb7-40f0-b1c6-eb3c137ddd4d",
                        "type": "outputCondition",
                        "label": "Default",
                        "edited": true,
                        "content": [
                          {
                            "id": "2495a17d-4faa-4aec-a866-84c215cf03e8",
                            "value": "propmt text",
                            "channel": "IVR",
                            "dynamic": false,
                            "contentType": "Prompt"
                          }
                        ],
                        "template": false,
                        "conditionType": "primary"
                      }
                    ],
                    "parent": "editnodeproject/flowNodes/subflowNodes",
                    "nodeType": "prompt",
                    "parentId": "fb923d3a-2be5-4176-8855-907a80d37a1b/849556be-3c98-48a1-afb7-119b9125df7f/cb4f90e3-7ecd-4400-b279-62ebe164f324",
                    "nodeRules": {
                      "id": "d36eb69e-7d96-4358-84f5-074be7e8a589",
                      "repairRules": [],
                      "useGlobalRepairs": true,
                      "useGlobalEscalate": true,
                      "useGlobalFallback": true
                    },
                    "templateId": "defaultPromptTemplate",
                    "containsPii": false,
                    "description": "Description for Prompt",
                    "applyInputsToFlow": false,
                    "nodeDisplayOption": "description"
                  },
                  {
                    "id": "58bfe847-46f0-46aa-96f6-37deb87bd0e5",
                    "flow": [
                      {
                        "id": "70e1a2ab-d39b-4379-818b-02b0e819a27f",
                        "type": "flowCondition",
                        "label": "default",
                        "order": 1,
                        "toNode": "closedq",
                        "linkType": "down",
                        "description": "default",
                        "gotoNodeType": "normal"
                      },
                      {
                        "id": "9b158438-617f-44e0-9cf7-8a9878cc33d3",
                        "type": "flowCondition",
                        "label": "Repair",
                        "order": 2,
                        "toNode": "openq",
                        "linkType": "loop"
                      }
                    ],
                    "type": "node",
                    "input": [],
                    "label": "openq",
                    "output": [
                      {
                        "id": "c002e0b4-fa0b-4179-9c71-dbbf958be985",
                        "type": "outputCondition",
                        "label": "Default",
                        "edited": true,
                        "content": [
                          {
                            "id": "58bd0448-2301-4b52-a6a0-4c31a8e83598",
                            "value": "openq text",
                            "channel": "IVR",
                            "dynamic": false,
                            "contentType": "Prompt"
                          }
                        ],
                        "template": false,
                        "conditionType": "primary"
                      }
                    ],
                    "parent": "editnodeproject/flowNodes/subflowNodes",
                    "nodeType": "openQuestion",
                    "parentId": "fb923d3a-2be5-4176-8855-907a80d37a1b/849556be-3c98-48a1-afb7-119b9125df7f/cb4f90e3-7ecd-4400-b279-62ebe164f324",
                    "nodeRules": {
                      "repairRules": [],
                      "useGlobalRepairs": true,
                      "useGlobalEscalate": true,
                      "useGlobalFallback": true
                    },
                    "templateId": "defaultOpenTemplate",
                    "containsPii": false,
                    "description": "If you prefer I can text you the link.",
                    "channelSettings": {
                      "ttsEngine": "",
                      "acceptDTMF": true,
                      "talkingSpeed": 10
                    },
                    "applyInputsToFlow": false,
                    "nodeDisplayOption": "description"
                  },
                  {
                    "id": "880c1ab5-29b3-48f1-a7c8-0675cf8350d0",
                    "flow": [
                      {
                        "id": "5f461577-5021-4899-942f-19754567653c",
                        "type": "flowCondition",
                        "label": "default",
                        "order": 1,
                        "toNode": "addPoint",
                        "linkType": "down"
                      },
                      {
                        "id": "e9cc410a-0301-4ed8-abbd-9b802aadae24",
                        "type": "flowCondition",
                        "label": "Repair",
                        "order": 2,
                        "toNode": "closedq",
                        "linkType": "loop"
                      }
                    ],
                    "type": "node",
                    "input": [
                      {
                        "id": "ae9527e2-4f38-4c30-b671-0d5d65f2fd0c",
                        "type": "inputCondition",
                        "label": "OfferParser",
                        "order": 1,
                        "parser": "HelloModel",
                        "inputType": "NLUModel"
                      }
                    ],
                    "label": "closedq",
                    "output": [
                      {
                        "id": "da286234-2f36-488e-9750-12a044c5a1c0",
                        "type": "outputCondition",
                        "label": "Default",
                        "edited": true,
                        "content": [
                          {
                            "id": "203ea302-fb1e-478b-bb84-5078c0ce2307",
                            "value": "closedq text",
                            "channel": "IVR",
                            "dynamic": false,
                            "contentType": "Prompt"
                          }
                        ],
                        "template": false,
                        "conditionType": "primary"
                      }
                    ],
                    "parent": "editnodeproject/flowNodes/subflowNodes",
                    "nodeType": "closedQuestion",
                    "parentId": "fb923d3a-2be5-4176-8855-907a80d37a1b/849556be-3c98-48a1-afb7-119b9125df7f/cb4f90e3-7ecd-4400-b279-62ebe164f324",
                    "nodeRules": {
                      "repairRules": [],
                      "useGlobalRepairs": true,
                      "useGlobalEscalate": true,
                      "useGlobalFallback": true
                    },
                    "templateId": "defaultClosedTemplate",
                    "containsPii": false,
                    "description": "Closed Question Description",
                    "channelSettings": {
                      "ttsEngine": "",
                      "acceptDTMF": true,
                      "talkingSpeed": 10
                    },
                    "applyInputsToFlow": false,
                    "nodeDisplayOption": "description"
                  }
                ]
              }
            ]
          }
        ],
        "description": "",
        "patternType": "Inbound",
        "entityGroups": [
          {
            "id": "c54669f8-4a89-48a3-8539-9bd5a38080d2",
            "type": "entityGroup",
            "label": "defaultEntityGroup",
            "dependsOn": [],
            "primaryKey": "default",
            "description": "defaultEntityGroup",
            "sharedEndPoint": false
          }
        ]
      },
      {
        "id": "c67eed5a-9ba7-4d7c-a443-de55f4c0fa03",
        "type": "pattern",
        "label": "skillrouter",
        "mapper": [],
        "parent": "editnodeproject",
        "channels": [
          {
            "id": "RWC",
            "type": "channel",
            "label": "RWC",
            "description": "Rich webchat UI"
          },
          {
            "id": "SMS",
            "type": "channel",
            "label": "SMS",
            "description": "Text messaging"
          },
          {
            "id": "IVR",
            "type": "channel",
            "label": "IVR",
            "description": "Voice over the phone"
          }
        ],
        "entities": [],
        "flowData": [
          {
            "id": "232fdf4f-6055-4f46-baf6-087bba2760b8",
            "flow": [
              {
                "id": "5cd0ed14-7e14-4242-86ce-6cf87adac035",
                "type": "flowCondition",
                "label": "default",
                "order": 1,
                "toNode": "skillrouter",
                "description": "",
                "gotoNodeType": "normal"
              }
            ],
            "type": "node",
            "label": "Start",
            "parent": "editnodeproject/skillrouter",
            "nodeType": "startPoint",
            "parentId": "fb923d3a-2be5-4176-8855-907a80d37a1b/2f54dbee-766b-4a2b-9f1b-edd786aad0ec",
            "description": "Pattern Flow Start",
            "applyInputsToFlow": false,
            "nodeDisplayOption": "description"
          },
          {
            "id": "af356451-bc29-40b8-af48-d9f777ed72c0",
            "flow": [
              {
                "id": "ced3ee1c-6d05-43ec-9101-0e00ed48e33a",
                "type": "flowCondition",
                "label": "default",
                "order": 1,
                "toNode": "addPoint",
                "linkType": "down"
              }
            ],
            "type": "node",
            "label": "skillrouter",
            "output": [
              {
                "id": "d945aa95-3554-47c4-a35b-b3961a01a95e",
                "type": "outputCondition",
                "label": "default",
                "content": [
                  {
                    "id": "cf94cef5-6328-490a-93fb-85fbacb7595a",
                    "value": "What can I do for you today?"
                  }
                ],
                "description": "",
                "conditionType": "primary"
              }
            ],
            "parent": "editnodeproject/skillrouter",
            "skills": [
              "skill1"
            ],
            "channels": [],
            "nodeType": "routerMenu",
            "parentId": "fb923d3a-2be5-4176-8855-907a80d37a1b/2f54dbee-766b-4a2b-9f1b-edd786aad0ec",
            "description": "Skill Router Description",
            "applyInputsToFlow": false,
            "nodeDisplayOption": "description"
          }
        ],
        "nodeType": "pattern",
        "outcomes": [],
        "parentId": "fb923d3a-2be5-4176-8855-907a80d37a1b",
        "subflows": [],
        "description": "",
        "patternType": "Skill",
        "entityGroups": [
          {
            "id": "1ab48c67-abc3-4dec-9611-914f2e378c0f",
            "type": "entityGroup",
            "label": "defaultEntityGroup",
            "dependsOn": [],
            "primaryKey": "default",
            "description": "defaultEntityGroup",
            "sharedEndPoint": false
          }
        ]
      },
      {
        "id": "bd0e6e35-ffce-4195-b757-7c17c05406eb",
        "type": "pattern",
        "label": "Testpattern",
        "mapper": [],
        "parent": "editnodeproject",
        "channels": [
          {
            "id": "RWC",
            "type": "channel",
            "label": "RWC",
            "description": "Rich webchat UI"
          },
          {
            "id": "SMS",
            "type": "channel",
            "label": "SMS",
            "description": "Text messaging"
          },
          {
            "id": "IVR",
            "type": "channel",
            "label": "IVR",
            "description": "Voice over the phone"
          },
          {
            "id": "MM",
            "type": "channel",
            "label": "MM",
            "description": "Multimodal"
          },
          {
            "id": "App",
            "type": "channel",
            "label": "App",
            "description": "Mobile app"
          }
        ],
        "entities": [],
        "flowData": [
          {
            "id": "125a3550-fd73-4e43-95e6-739949ce3d0f",
            "flow": [
              {
                "id": "1f86ff35-d625-4f05-9941-23913bd03a51",
                "type": "flowCondition",
                "label": "default",
                "order": 1,
                "toNode": "Testsubflow",
                "description": "",
                "gotoNodeType": "normal"
              }
            ],
            "type": "node",
            "label": "Start",
            "parent": "editnodeproject/Testpattern",
            "nodeType": "startPoint",
            "parentId": "a85ce7fd-8289-43ca-9d2e-ea54d9d3e946/7cf0590a-d60a-41e7-b967-e8aed7fb3984",
            "description": "Pattern Flow Start",
            "applyInputsToFlow": false,
            "nodeDisplayOption": "description"
          },
          {
            "id": "2424ed77-fecb-464b-9ffa-2d625701e900",
            "flow": [
              {
                "id": "63a26fd9-a81a-49af-96b0-6bd85b6a2931",
                "type": "flowCondition",
                "label": "default",
                "order": 1,
                "toNode": "addPoint",
                "linkType": "down"
              }
            ],
            "type": "node",
            "label": "Testsubflow",
            "parent": "editnodeproject/Testpattern",
            "nodeType": "subFlow",
            "parentId": "a85ce7fd-8289-43ca-9d2e-ea54d9d3e946/7cf0590a-d60a-41e7-b967-e8aed7fb3984",
            "subflowId": "57d8ee57-fff6-441d-973e-0275f4666514",
            "containsPii": false,
            "description": "",
            "applyInputsToFlow": false,
            "nodeDisplayOption": "description"
          }
        ],
        "nodeType": "pattern",
        "outcomes": [
          {
            "id": "3ddd1a3d-45b7-47f1-8173-b53b6d3410b3",
            "type": "outcome",
            "color": "#FFED8F",
            "label": "Contained",
            "reasons": [],
            "percentage": 33,
            "description": "User completes task without Human Assistance, Golden Call.",
            "outcomeType": "Project",
            "outcomeValue": "Positive"
          }
        ],
        "parentId": "a85ce7fd-8289-43ca-9d2e-ea54d9d3e946",
        "subflows": [
          {
            "id": "57d8ee57-fff6-441d-973e-0275f4666514",
            "type": "subFlow",
            "label": "Testsubflow",
            "parent": "editnodeproject/Testpattern",
            "parentId": "a85ce7fd-8289-43ca-9d2e-ea54d9d3e946/7cf0590a-d60a-41e7-b967-e8aed7fb3984",
            "subflows": [
              {
                "id": "1d1bf83d-1ef4-4c20-8307-a5c986676a83",
                "type": "subFlow",
                "label": "testsubflow",
                "parent": "editnodeproject/Testpattern/Testsubflow",
                "parentId": "a85ce7fd-8289-43ca-9d2e-ea54d9d3e946/7cf0590a-d60a-41e7-b967-e8aed7fb3984/57d8ee57-fff6-441d-973e-0275f4666514",
                "subflows": [],
                "description": "",
                "flowDataSet": [
                  {
                    "channel": {
                      "id": "RWC",
                      "type": "channel",
                      "label": "RWC",
                      "description": "Rich webchat UI"
                    },
                    "flowData": [
                      {
                        "id": "a098df6e-a5c0-4120-a0ca-3e2f1431efbf",
                        "flow": [
                          {
                            "id": "848647ef-09b8-45bc-bbdb-e26cc24b908d",
                            "type": "flowCondition",
                            "label": "default",
                            "order": 1,
                            "toNode": "addPoint",
                            "description": "Start Experience"
                          }
                        ],
                        "type": "node",
                        "label": "Start",
                        "parent": "editnodeproject/Testpattern/Testsubflow/testsubflow",
                        "nodeType": "startPoint",
                        "parentId": "a85ce7fd-8289-43ca-9d2e-ea54d9d3e946/7cf0590a-d60a-41e7-b967-e8aed7fb3984/57d8ee57-fff6-441d-973e-0275f4666514/1d1bf83d-1ef4-4c20-8307-a5c986676a83",
                        "description": "Pattern Flow Start",
                        "applyInputsToFlow": false,
                        "nodeDisplayOption": "description"
                      }
                    ]
                  },
                  {
                    "channel": {
                      "id": "SMS",
                      "type": "channel",
                      "label": "SMS",
                      "description": "Text messaging"
                    },
                    "flowData": [
                      {
                        "id": "7c8c1aa6-50ff-4e97-81a0-6a926b776c77",
                        "flow": [
                          {
                            "id": "85024acb-7e88-4409-9b94-bbb9495f32f4",
                            "type": "flowCondition",
                            "label": "default",
                            "order": 1,
                            "toNode": "addPoint",
                            "description": "Start Experience"
                          }
                        ],
                        "type": "node",
                        "label": "Start",
                        "parent": "editnodeproject/Testpattern/Testsubflow/testsubflow",
                        "nodeType": "startPoint",
                        "parentId": "a85ce7fd-8289-43ca-9d2e-ea54d9d3e946/7cf0590a-d60a-41e7-b967-e8aed7fb3984/57d8ee57-fff6-441d-973e-0275f4666514/1d1bf83d-1ef4-4c20-8307-a5c986676a83",
                        "description": "Pattern Flow Start",
                        "applyInputsToFlow": false,
                        "nodeDisplayOption": "description"
                      }
                    ]
                  },
                  {
                    "channel": {
                      "id": "IVR",
                      "type": "channel",
                      "label": "IVR",
                      "description": "Voice over the phone"
                    },
                    "flowData": [
                      {
                        "id": "feb29cff-c723-451d-8692-c78945419862",
                        "flow": [
                          {
                            "id": "f810e5ad-84a6-4891-81f9-0b2396342d5d",
                            "type": "flowCondition",
                            "label": "default",
                            "order": 1,
                            "toNode": "addPoint",
                            "description": "Start Experience"
                          }
                        ],
                        "type": "node",
                        "label": "Start",
                        "parent": "editnodeproject/Testpattern/Testsubflow/testsubflow",
                        "nodeType": "startPoint",
                        "parentId": "a85ce7fd-8289-43ca-9d2e-ea54d9d3e946/7cf0590a-d60a-41e7-b967-e8aed7fb3984/57d8ee57-fff6-441d-973e-0275f4666514/1d1bf83d-1ef4-4c20-8307-a5c986676a83",
                        "description": "Pattern Flow Start",
                        "applyInputsToFlow": false,
                        "nodeDisplayOption": "description"
                      }
                    ]
                  },
                  {
                    "channel": {
                      "id": "MM",
                      "type": "channel",
                      "label": "MM",
                      "description": "Multimodal"
                    },
                    "flowData": [
                      {
                        "id": "c328328b-fa7a-4ea9-86b6-0e290a969396",
                        "flow": [
                          {
                            "id": "51112a61-d59f-4630-927d-dfc0c8514f8d",
                            "type": "flowCondition",
                            "label": "default",
                            "order": 1,
                            "toNode": "addPoint",
                            "description": "Start Experience"
                          }
                        ],
                        "type": "node",
                        "label": "Start",
                        "parent": "editnodeproject/Testpattern/Testsubflow/testsubflow",
                        "nodeType": "startPoint",
                        "parentId": "a85ce7fd-8289-43ca-9d2e-ea54d9d3e946/7cf0590a-d60a-41e7-b967-e8aed7fb3984/57d8ee57-fff6-441d-973e-0275f4666514/1d1bf83d-1ef4-4c20-8307-a5c986676a83",
                        "description": "Pattern Flow Start",
                        "applyInputsToFlow": false,
                        "nodeDisplayOption": "description"
                      }
                    ]
                  },
                  {
                    "channel": {
                      "id": "App",
                      "type": "channel",
                      "label": "App",
                      "description": "Mobile app"
                    },
                    "flowData": [
                      {
                        "id": "de9c8ab0-66d1-4f64-a6dc-a5683d84727b",
                        "flow": [
                          {
                            "id": "d117741b-a5d8-4f05-8873-632a845f3bb7",
                            "type": "flowCondition",
                            "label": "default",
                            "order": 1,
                            "toNode": "addPoint",
                            "description": "Start Experience"
                          }
                        ],
                        "type": "node",
                        "label": "Start",
                        "parent": "editnodeproject/Testpattern/Testsubflow/testsubflow",
                        "nodeType": "startPoint",
                        "parentId": "a85ce7fd-8289-43ca-9d2e-ea54d9d3e946/7cf0590a-d60a-41e7-b967-e8aed7fb3984/57d8ee57-fff6-441d-973e-0275f4666514/1d1bf83d-1ef4-4c20-8307-a5c986676a83",
                        "description": "Pattern Flow Start",
                        "applyInputsToFlow": false,
                        "nodeDisplayOption": "description"
                      }
                    ]
                  }
                ]
              }
            ],
            "description": "",
            "flowDataSet": [
              {
                "channel": {
                  "id": "RWC",
                  "type": "channel",
                  "label": "RWC",
                  "description": "Rich webchat UI"
                },
                "flowData": [
                  {
                    "id": "01cc41ca-d232-4b02-b27b-3d5127f97180",
                    "flow": [
                      {
                        "id": "8f7478fb-c921-4154-a863-5a8ef6a52fee",
                        "type": "flowCondition",
                        "label": "default",
                        "order": 1,
                        "toNode": "Testprompt",
                        "description": "Testprompt",
                        "gotoNodeType": "normal"
                      }
                    ],
                    "type": "node",
                    "label": "Start",
                    "parent": "editnodeproject/Testpattern/Testsubflow",
                    "nodeType": "startPoint",
                    "parentId": "a85ce7fd-8289-43ca-9d2e-ea54d9d3e946/7cf0590a-d60a-41e7-b967-e8aed7fb3984/57d8ee57-fff6-441d-973e-0275f4666514",
                    "description": "Pattern Flow Start",
                    "applyInputsToFlow": false,
                    "nodeDisplayOption": "description"
                  },
                  {
                    "id": "2788072c-d100-41a7-8fc8-7c559521c072",
                    "flow": [
                      {
                        "id": "5c116154-a335-401d-bcfe-a91ee598561f",
                        "type": "flowCondition",
                        "label": "default",
                        "order": 1,
                        "toNode": "testclosedquestion",
                        "linkType": "down",
                        "description": "testclosedquestion",
                        "gotoNodeType": "normal"
                      }
                    ],
                    "type": "node",
                    "input": [],
                    "label": "Testprompt",
                    "output": [
                      {
                        "id": "e08c72a2-ddce-487d-9c4d-ebf3c82e738c",
                        "type": "outputCondition",
                        "label": "Default",
                        "edited": true,
                        "content": [
                          {
                            "id": "3334df0d-243d-4787-a70b-b97ed73c5fd1",
                            "value": "Testprompt",
                            "channel": "RWC",
                            "dynamic": false,
                            "contentType": "Prompt"
                          }
                        ],
                        "template": false,
                        "conditionType": "primary"
                      }
                    ],
                    "parent": "editnodeproject/Testpattern/Testsubflow",
                    "nodeType": "prompt",
                    "parentId": "a85ce7fd-8289-43ca-9d2e-ea54d9d3e946/7cf0590a-d60a-41e7-b967-e8aed7fb3984/57d8ee57-fff6-441d-973e-0275f4666514",
                    "nodeRules": {
                      "id": "9e4b788d-1a39-4e2f-8d93-89a26d698cab",
                      "repairRules": [],
                      "useGlobalRepairs": true,
                      "useGlobalEscalate": true,
                      "useGlobalFallback": true
                    },
                    "templateId": "defaultPromptTemplate",
                    "containsPii": false,
                    "description": "Testprompt",
                    "applyInputsToFlow": false,
                    "nodeDisplayOption": "description"
                  },
                  {
                    "id": "39cc9068-678b-4987-9a42-36a180e17e8c",
                    "flow": [
                      {
                        "id": "83a83712-249e-40d8-b3ee-e706db2670df",
                        "type": "flowCondition",
                        "label": "default",
                        "order": 1,
                        "toNode": "testopenquestion",
                        "linkType": "down",
                        "description": "",
                        "gotoNodeType": "normal"
                      },
                      {
                        "id": "e0ecf240-0a2a-4334-84ff-43acfe4cbc04",
                        "type": "flowCondition",
                        "label": "Repair",
                        "order": 2,
                        "toNode": "testclosedquestion",
                        "linkType": "loop"
                      }
                    ],
                    "type": "node",
                    "input": [
                      {
                        "id": "a4e3055f-c2a3-4dc9-bde1-7dac72d99b08",
                        "type": "inputCondition",
                        "label": "OfferParser",
                        "order": 1,
                        "parser": "HelloModel",
                        "inputType": "NLUModel"
                      }
                    ],
                    "label": "testclosedquestion",
                    "output": [],
                    "parent": "editnodeproject/Testpattern/Testsubflow",
                    "nodeType": "closedQuestion",
                    "parentId": "a85ce7fd-8289-43ca-9d2e-ea54d9d3e946/7cf0590a-d60a-41e7-b967-e8aed7fb3984/57d8ee57-fff6-441d-973e-0275f4666514",
                    "nodeRules": {
                      "repairRules": [],
                      "useGlobalRepairs": true,
                      "useGlobalEscalate": true,
                      "useGlobalFallback": true
                    },
                    "templateId": "defaultClosedTemplate",
                    "containsPii": false,
                    "description": "testclosedquestion",
                    "channelSettings": {
                      "acceptTextInput": true,
                      "openInputButtonLabel": "",
                      "useOpenInputControls": false,
                      "closedInputButtonType": "Carousel",
                      "openInputPlaceholderText": ""
                    },
                    "applyInputsToFlow": false,
                    "nodeDisplayOption": "description"
                  },
                  {
                    "id": "f405e756-fb4f-4bb7-bf3a-f584338fcc03",
                    "flow": [
                      {
                        "id": "ae117437-33f7-4c28-9aee-299fb4d0b430",
                        "type": "flowCondition",
                        "label": "default",
                        "order": 1,
                        "toNode": "testsubflow",
                        "linkType": "down",
                        "description": "",
                        "gotoNodeType": "normal"
                      },
                      {
                        "id": "64ae7f0a-946e-4eab-ba2d-af367787a844",
                        "type": "flowCondition",
                        "label": "Repair",
                        "order": 2,
                        "toNode": "testopenquestion",
                        "linkType": "loop"
                      }
                    ],
                    "type": "node",
                    "input": [],
                    "label": "testopenquestion",
                    "output": [],
                    "parent": "editnodeproject/Testpattern/Testsubflow",
                    "nodeType": "openQuestion",
                    "parentId": "a85ce7fd-8289-43ca-9d2e-ea54d9d3e946/7cf0590a-d60a-41e7-b967-e8aed7fb3984/57d8ee57-fff6-441d-973e-0275f4666514",
                    "nodeRules": {
                      "repairRules": [],
                      "useGlobalRepairs": true,
                      "useGlobalEscalate": true,
                      "useGlobalFallback": true
                    },
                    "templateId": "defaultOpenTemplate",
                    "containsPii": false,
                    "description": "If you prefer I can text you the link.",
                    "channelSettings": {
                      "acceptTextInput": true,
                      "openInputButtonLabel": "",
                      "useOpenInputControls": false,
                      "closedInputButtonType": "Carousel",
                      "openInputPlaceholderText": ""
                    },
                    "applyInputsToFlow": false,
                    "nodeDisplayOption": "description"
                  },
                  {
                    "id": "1d06acee-1af6-49a9-bf6b-0840f511de23",
                    "flow": [
                      {
                        "id": "e5db1873-e485-4868-92a7-4b512fa192fc",
                        "type": "flowCondition",
                        "label": "default",
                        "order": 1,
                        "toNode": "testtag",
                        "linkType": "down",
                        "description": "testtag",
                        "gotoNodeType": "normal"
                      }
                    ],
                    "type": "node",
                    "label": "testsubflow",
                    "parent": "editnodeproject/Testpattern/Testsubflow",
                    "nodeType": "subFlow",
                    "parentId": "a85ce7fd-8289-43ca-9d2e-ea54d9d3e946/7cf0590a-d60a-41e7-b967-e8aed7fb3984/57d8ee57-fff6-441d-973e-0275f4666514",
                    "subflowId": "1d1bf83d-1ef4-4c20-8307-a5c986676a83",
                    "containsPii": false,
                    "description": "",
                    "applyInputsToFlow": false,
                    "nodeDisplayOption": "description"
                  },
                  {
                    "id": "fbdd3a96-cad8-472a-9c15-e60447ab8dff",
                    "flow": [
                      {
                        "id": "452a524c-3198-4bf4-a4ab-c30a38c280bd",
                        "type": "flowCondition",
                        "label": "default",
                        "order": 1,
                        "toNode": "addPoint",
                        "linkType": "down"
                      }
                    ],
                    "type": "node",
                    "label": "testtag",
                    "parent": "editnodeproject/Testpattern/Testsubflow",
                    "nodeType": "tagNode",
                    "parentId": "a85ce7fd-8289-43ca-9d2e-ea54d9d3e946/7cf0590a-d60a-41e7-b967-e8aed7fb3984/57d8ee57-fff6-441d-973e-0275f4666514",
                    "containsPii": false,
                    "description": "Tagnode Description",
                    "applyInputsToFlow": false,
                    "nodeDisplayOption": "description"
                  }
                ]
              },
              {
                "channel": {
                  "id": "SMS",
                  "type": "channel",
                  "label": "SMS",
                  "description": "Text messaging"
                },
                "flowData": [
                  {
                    "id": "40643f48-9c94-4f72-908e-847b13f35c6c",
                    "flow": [
                      {
                        "id": "6d7c4b23-f9fb-4caa-9ca9-70f03e362092",
                        "type": "flowCondition",
                        "label": "default",
                        "order": 1,
                        "toNode": "addPoint",
                        "description": "Start Experience"
                      }
                    ],
                    "type": "node",
                    "label": "Start",
                    "parent": "editnodeproject/Testpattern/Testsubflow",
                    "nodeType": "startPoint",
                    "parentId": "a85ce7fd-8289-43ca-9d2e-ea54d9d3e946/7cf0590a-d60a-41e7-b967-e8aed7fb3984/57d8ee57-fff6-441d-973e-0275f4666514",
                    "description": "Pattern Flow Start",
                    "applyInputsToFlow": false,
                    "nodeDisplayOption": "description"
                  }
                ]
              },
              {
                "channel": {
                  "id": "IVR",
                  "type": "channel",
                  "label": "IVR",
                  "description": "Voice over the phone"
                },
                "flowData": [
                  {
                    "id": "deb0d0fb-b27b-45e5-8a58-0b8e5d9891b6",
                    "flow": [
                      {
                        "id": "27df0367-59d9-4d07-ad80-5fafccce013a",
                        "type": "flowCondition",
                        "label": "default",
                        "order": 1,
                        "toNode": "addPoint",
                        "description": "Start Experience"
                      }
                    ],
                    "type": "node",
                    "label": "Start",
                    "parent": "editnodeproject/Testpattern/Testsubflow",
                    "nodeType": "startPoint",
                    "parentId": "a85ce7fd-8289-43ca-9d2e-ea54d9d3e946/7cf0590a-d60a-41e7-b967-e8aed7fb3984/57d8ee57-fff6-441d-973e-0275f4666514",
                    "description": "Pattern Flow Start",
                    "applyInputsToFlow": false,
                    "nodeDisplayOption": "description"
                  }
                ]
              },
              {
                "channel": {
                  "id": "MM",
                  "type": "channel",
                  "label": "MM",
                  "description": "Multimodal"
                },
                "flowData": [
                  {
                    "id": "00593013-d822-4143-8852-439c19f49717",
                    "flow": [
                      {
                        "id": "f43ccfd4-d031-4f56-adf5-23536abad6e0",
                        "type": "flowCondition",
                        "label": "default",
                        "order": 1,
                        "toNode": "addPoint",
                        "description": "Start Experience"
                      }
                    ],
                    "type": "node",
                    "label": "Start",
                    "parent": "editnodeproject/Testpattern/Testsubflow",
                    "nodeType": "startPoint",
                    "parentId": "a85ce7fd-8289-43ca-9d2e-ea54d9d3e946/7cf0590a-d60a-41e7-b967-e8aed7fb3984/57d8ee57-fff6-441d-973e-0275f4666514",
                    "description": "Pattern Flow Start",
                    "applyInputsToFlow": false,
                    "nodeDisplayOption": "description"
                  }
                ]
              },
              {
                "channel": {
                  "id": "App",
                  "type": "channel",
                  "label": "App",
                  "description": "Mobile app"
                },
                "flowData": [
                  {
                    "id": "b4d188f3-64f2-4c17-99df-030a3c211bb2",
                    "flow": [
                      {
                        "id": "91e11d4e-8219-49b4-9547-49c5d9a500d5",
                        "type": "flowCondition",
                        "label": "default",
                        "order": 1,
                        "toNode": "addPoint",
                        "description": "Start Experience"
                      }
                    ],
                    "type": "node",
                    "label": "Start",
                    "parent": "editnodeproject/Testpattern/Testsubflow",
                    "nodeType": "startPoint",
                    "parentId": "a85ce7fd-8289-43ca-9d2e-ea54d9d3e946/7cf0590a-d60a-41e7-b967-e8aed7fb3984/57d8ee57-fff6-441d-973e-0275f4666514",
                    "description": "Pattern Flow Start",
                    "applyInputsToFlow": false,
                    "nodeDisplayOption": "description"
                  }
                ]
              }
            ]
          }
        ],
        "description": "Testpattern",
        "patternType": "Inbound",
        "entityGroups": [
          {
            "id": "aa9e9865-91cb-41a2-87c4-ccf5d92d97da",
            "type": "entityGroup",
            "label": "defaultEntityGroup",
            "dependsOn": [],
            "primaryKey": "default",
            "description": "defaultEntityGroup",
            "sharedEndPoint": false
          }
        ]
      }
    ],
    "templates": {
      "YesNoTemplateId": {
        "id": "YesNoTemplateId",
        "label": "YesNoQuestion",
        "hasPre": true,
        "hasPost": true,
        "hasRepair": true,
        "description": "This is the default ClosedQuestion template",
        "templateType": "closedQuestion",
        "channelConditions": [
          {
            "flow": [],
            "input": {
              "models": [
                {
                  "id": "d9a780a7-7346-4162-a401-ab98d55518f8",
                  "type": "inputCondition",
                  "label": "Yes",
                  "parser": "yes, yeah, yah",
                  "inputType": "Matcher",
                  "containsPii": false,
                  "description": "positive user response"
                },
                {
                  "id": "f53d9392-c9a1-4717-986b-e3e7c7f0a786",
                  "type": "inputCondition",
                  "label": "No",
                  "parser": "no, nope, nah",
                  "inputType": "Matcher",
                  "containsPii": false,
                  "description": "negative user response"
                }
              ]
            },
            "output": [],
            "channelId": "IVR"
          },
          {
            "flow": [],
            "input": {
              "models": [
                {
                  "id": "d47a3424-7cb3-4c12-ad60-55d627055ad3",
                  "type": "inputCondition",
                  "label": "Yes",
                  "parser": "yes, yeah, yah",
                  "inputType": "Matcher",
                  "containsPii": false,
                  "description": "positive user response"
                },
                {
                  "id": "aac76c02-1a83-4545-9950-1f548f38c01c",
                  "type": "inputCondition",
                  "label": "No",
                  "parser": "no, nope, nah",
                  "inputType": "Matcher",
                  "containsPii": false,
                  "description": "negative user response"
                }
              ]
            },
            "output": [],
            "channelId": "RWC"
          },
          {
            "flow": [],
            "input": {
              "models": [
                {
                  "id": "9183efdb-bf55-49a3-86c2-c1ae0df12e12",
                  "type": "inputCondition",
                  "label": "Yes",
                  "parser": "yes, yeah, yah",
                  "inputType": "Matcher",
                  "containsPii": false,
                  "description": "positive user response"
                },
                {
                  "id": "b7bd56b0-30fe-4b17-90aa-247ce75aeefa",
                  "type": "inputCondition",
                  "label": "No",
                  "parser": "no, nope, nah",
                  "inputType": "Matcher",
                  "containsPii": false,
                  "description": "negative user response"
                }
              ]
            },
            "output": [],
            "channelId": "SMS"
          },
          {
            "flow": [],
            "input": {
              "models": []
            },
            "output": [],
            "channelId": "App"
          },
          {
            "flow": [],
            "input": {
              "models": [
                {
                  "id": "3a8ae99f-d031-4b8d-8661-b7fe1846ceb4",
                  "type": "inputCondition",
                  "label": "Yes",
                  "parser": "yes, yeah, yah",
                  "inputType": "Matcher",
                  "containsPii": false,
                  "description": "positive user response"
                },
                {
                  "id": "9aa4b96f-c3d6-41e3-bbdf-979a1002b43d",
                  "type": "inputCondition",
                  "label": "No",
                  "parser": "no, nope, nah",
                  "inputType": "Matcher",
                  "containsPii": false,
                  "description": "negative user response"
                }
              ]
            },
            "output": [],
            "channelId": "rSMS"
          },
          {
            "flow": [],
            "input": {
              "models": [
                {
                  "id": "c9e0edd8-87f7-42bb-b1b1-e33b494bf0ad",
                  "type": "inputCondition",
                  "label": "Yes",
                  "parser": "yes, yeah, yah",
                  "inputType": "Matcher",
                  "containsPii": false,
                  "description": "positive user response"
                },
                {
                  "id": "97f4e5e2-e517-49ec-a448-e284314b273e",
                  "type": "inputCondition",
                  "label": "No",
                  "parser": "no, nope, nah",
                  "inputType": "Matcher",
                  "containsPii": false,
                  "description": "negative user response"
                }
              ]
            },
            "output": [],
            "channelId": "VoIP"
          }
        ]
      },
      "defaultOpenTemplate": {
        "id": "defaultOpenTemplate",
        "label": "DefaultOpenTemplate",
        "hasPre": true,
        "hasPost": true,
        "hasRepair": true,
        "description": "This is the default open template.",
        "templateType": "openQuestion",
        "channelConditions": [
          {
            "flow": [],
            "input": {
              "models": []
            },
            "output": [],
            "channelId": "IVR"
          },
          {
            "flow": [],
            "input": {
              "models": []
            },
            "output": [],
            "channelId": "RWC"
          },
          {
            "flow": [],
            "input": {
              "models": []
            },
            "output": [],
            "channelId": "SMS"
          },
          {
            "flow": [],
            "input": {
              "models": []
            },
            "output": [],
            "channelId": "App"
          },
          {
            "flow": [],
            "input": {
              "models": []
            },
            "output": [],
            "channelId": "rSMS"
          },
          {
            "flow": [],
            "input": {
              "models": []
            },
            "output": [],
            "channelId": "VoIP"
          }
        ]
      },
      "defaultClosedTemplate": {
        "id": "defaultClosedTemplate",
        "label": "DefaultClosedTemplate",
        "hasPre": true,
        "hasPost": true,
        "hasRepair": true,
        "description": "This is the default closed template.",
        "templateType": "closedQuestion",
        "channelConditions": [
          {
            "flow": [],
            "input": {
              "models": []
            },
            "output": [],
            "channelId": "IVR"
          },
          {
            "flow": [],
            "input": {
              "models": []
            },
            "output": [],
            "channelId": "RWC"
          },
          {
            "flow": [],
            "input": {
              "models": []
            },
            "output": [],
            "channelId": "SMS"
          },
          {
            "flow": [],
            "input": {
              "models": []
            },
            "output": [],
            "channelId": "App"
          },
          {
            "flow": [],
            "input": {
              "models": []
            },
            "output": [],
            "channelId": "rSMS"
          },
          {
            "flow": [],
            "input": {
              "models": []
            },
            "output": [],
            "channelId": "VoIP"
          }
        ]
      },
      "defaultPromptTemplate": {
        "id": "defaultPromptTemplate",
        "label": "DefaultPromptTemplate",
        "hasPre": true,
        "hasPost": true,
        "hasRepair": true,
        "description": "This is the default prompt template.",
        "templateType": "prompt",
        "channelConditions": [
          {
            "flow": [],
            "input": {
              "models": []
            },
            "output": [],
            "channelId": "IVR"
          },
          {
            "flow": [],
            "input": {
              "models": []
            },
            "output": [],
            "channelId": "RWC"
          },
          {
            "flow": [],
            "input": {
              "models": []
            },
            "output": [],
            "channelId": "SMS"
          },
          {
            "flow": [],
            "input": {
              "models": []
            },
            "output": [],
            "channelId": "App"
          },
          {
            "flow": [],
            "input": {
              "models": []
            },
            "output": [],
            "channelId": "rSMS"
          },
          {
            "flow": [],
            "input": {
              "models": []
            },
            "output": [],
            "channelId": "VoIP"
          }
        ]
      }
    },
    "description": "",
    "projectType": "Test",
    "destinationPdes": [],
    "outcomesBaseline": [],
    "globalRepairRules": [
      {
        "id": "OOCRule",
        "label": "Out of Context",
        "outcome": "fallback",
        "repairType": "outOfContext",
        "description": "Out of context response are when the NLU is unable to classify the user's input. The user is asked to repeat.",
        "numberOfAttempts": 2
      },
      {
        "id": "NRRule",
        "label": "No Response",
        "outcome": "fallback",
        "repairType": "noResponse",
        "description": "No response is when the user does not provide any input. The system will reprompt the user to provide a response",
        "numberOfAttempts": 2
      },
      {
        "id": "ARRule",
        "label": "Agent Request",
        "outcome": "escalate",
        "repairType": "agentRequest",
        "description": "User requests Agent Transfer will trigger an Escalate flow",
        "numberOfAttempts": 1
      },
      {
        "id": "MRBFrule",
        "label": "Maximum Repair before Fallback",
        "outcome": "fallback",
        "repairType": "maximum",
        "description": "Total number of repairs before triggering a fallback action. Fallback should be offering another channel or escalating to an agent",
        "numberOfAttempts": 3
      }
    ],
    "projectObjectVersion": 1
  }