{
  "id": "b67d5bd0-f272-4f66-8ebc-f2f606dcd2bc",
  "type": "project",
  "cards": {},
  "label": "add-node-project",
  "parent": "",
  "outcomes": [
      {
          "id": "e1f5d180-5561-494c-a915-f6c7c9195ce9",
          "type": "outcome",
          "color": "#8FBCFF",
          "label": "HITL",
          "reasons": [],
          "percentage": 33,
          "description": "Human in the Loop",
          "outcomeType": "Project",
          "outcomeValue": "Neutral"
      },
      {
          "id": "14b0d6ed-c9ab-4ceb-a4d9-3441921dc2ae",
          "type": "outcome",
          "color": "#FFBFCB",
          "label": "Abandon",
          "reasons": [],
          "percentage": 33,
          "description": "User exits system without completion point.",
          "outcomeType": "Project",
          "outcomeValue": "Negative"
      },
      {
          "id": "3ddd1a3d-45b7-47f1-8173-b53b6d3410b3",
          "type": "outcome",
          "color": "#FFED8F",
          "label": "Contained",
          "reasons": [],
          "percentage": 33,
          "description": "User completes task without Human Assistance, Golden Call.",
          "outcomeType": "Project",
          "outcomeValue": "Positive"
      },
      {
          "id": "escalate",
          "type": "outcome",
          "color": "#8FBCFF",
          "label": "Escalate",
          "description": "User is moved to Global Agent Transfer pattern, passing along flow and context.",
          "outcomeType": "Global",
          "outcomeValue": "Neutral",
          "destinationPattern": ""
      },
      {
          "id": "fallback",
          "type": "outcome",
          "color": "#EBBFFF",
          "label": "Fallback",
          "description": "If user is stuck in n or more repairs on the voice channel. Offer alternate channel if available, or switch to easier input.",
          "outcomeType": "Global",
          "outcomeValue": "Neutral",
          "destinationPattern": ""
      }
  ],
  "parentId": "",
  "patterns": [
      {
          "id": "618de8c2-ec42-45f3-a448-d9ebbff76695",
          "type": "pattern",
          "label": "skill1",
          "mapper": [],
          "parent": "editnodeproject_1665476043994",
          "channels": [
              {
                  "id": "IVR",
                  "type": "channel",
                  "label": "IVR",
                  "description": "Voice over the phone"
              },
              {
                  "id": "RWC",
                  "type": "channel",
                  "label": "RWC",
                  "description": "Rich webchat UI"
              },
              {
                  "id": "SMS",
                  "type": "channel",
                  "label": "SMS",
                  "description": "Text messaging"
              }
          ],
          "entities": [],
          "flowData": [
              {
                  "id": "888cf98f-9563-4a80-a430-9ee8dd40be88",
                  "flow": [
                      {
                          "id": "3c0babe5-165f-4463-98a2-35d56d099eb3",
                          "type": "flowCondition",
                          "label": "default",
                          "order": 1,
                          "toNode": "addPoint",
                          "description": "Start Experience"
                      }
                  ],
                  "type": "node",
                  "label": "Start",
                  "parent": "editnodeproject_1665476043994/skill1",
                  "nodeType": "startPoint",
                  "parentId": "fb923d3a-2be5-4176-8855-907a80d37a1b/618de8c2-ec42-45f3-a448-d9ebbff76695",
                  "description": "Pattern Flow Start",
                  "applyInputsToFlow": false,
                  "nodeDisplayOption": "description"
              }
          ],
          "nodeType": "pattern",
          "outcomes": [
              {
                  "id": "5f622c55-5b74-4533-b0b8-46a5dcc854d7",
                  "color": "#8FBCFF",
                  "label": "skilloutcome1",
                  "bucket": "Baseline",
                  "percentage": 33,
                  "description": "",
                  "outcomeType": "Skill",
                  "outcomeValue": "Neutral"
              }
          ],
          "parentId": "fb923d3a-2be5-4176-8855-907a80d37a1b",
          "subflows": [],
          "description": "",
          "patternType": "Skill",
          "entityGroups": [
              {
                  "id": "f9257ae1-f343-4573-a912-f363cf6e75c8",
                  "type": "entityGroup",
                  "label": "defaultEntityGroup",
                  "dependsOn": [],
                  "primaryKey": "default",
                  "description": "defaultEntityGroup",
                  "sharedEndPoint": false
              }
          ]
      },
      {
          "id": "159c4879-ed84-418e-9bd8-999bffb6ff70",
          "type": "pattern",
          "label": "skill2",
          "mapper": [],
          "parent": "editnodeproject_1665476043994",
          "channels": [
              {
                  "id": "IVR",
                  "type": "channel",
                  "label": "IVR",
                  "description": "Voice over the phone"
              },
              {
                  "id": "RWC",
                  "type": "channel",
                  "label": "RWC",
                  "description": "Rich webchat UI"
              },
              {
                  "id": "SMS",
                  "type": "channel",
                  "label": "SMS",
                  "description": "Text messaging"
              }
          ],
          "entities": [],
          "flowData": [
              {
                  "id": "72c5c6de-5a05-4356-bb91-8027feaeb6e8",
                  "flow": [
                      {
                          "id": "dfbd743f-f7c6-41ae-a29c-3731d6714b56",
                          "type": "flowCondition",
                          "label": "default",
                          "order": 1,
                          "toNode": "addPoint",
                          "description": "Start Experience"
                      }
                  ],
                  "type": "node",
                  "label": "Start",
                  "parent": "editnodeproject_1665476043994/skill2",
                  "nodeType": "startPoint",
                  "parentId": "fb923d3a-2be5-4176-8855-907a80d37a1b/159c4879-ed84-418e-9bd8-999bffb6ff70",
                  "description": "Pattern Flow Start",
                  "applyInputsToFlow": false,
                  "nodeDisplayOption": "description"
              }
          ],
          "nodeType": "pattern",
          "outcomes": [
              {
                  "id": "8aaff896-509b-4682-a48f-9661fccfe3fe",
                  "color": "#8FBCFF",
                  "label": "skilloutcome2",
                  "percentage": 33,
                  "description": "",
                  "outcomeType": "Skill",
                  "outcomeValue": "Neutral"
              }
          ],
          "parentId": "fb923d3a-2be5-4176-8855-907a80d37a1b",
          "subflows": [],
          "description": "",
          "patternType": "Skill",
          "entityGroups": [
              {
                  "id": "d8a8965e-da9c-4d8a-bc8f-8b7c187c3d0d",
                  "type": "entityGroup",
                  "label": "defaultEntityGroup",
                  "dependsOn": [],
                  "primaryKey": "default",
                  "description": "defaultEntityGroup",
                  "sharedEndPoint": false
              }
          ]
      },
      {
          "id": "f0e6b9d3-7639-4e46-84f5-5034d07e70cc",
          "type": "pattern",
          "label": "tag",
          "mapper": [],
          "parent": "editnodeproject_1665476043994",
          "channels": [
              {
                  "id": "RWC",
                  "type": "channel",
                  "label": "RWC",
                  "description": "Rich webchat UI"
              },
              {
                  "id": "SMS",
                  "type": "channel",
                  "label": "SMS",
                  "description": "Text messaging"
              },
              {
                  "id": "IVR",
                  "type": "channel",
                  "label": "IVR",
                  "description": "Voice over the phone"
              }
          ],
          "entities": [],
          "flowData": [
              {
                  "id": "09ba40c7-7b20-4d39-a1e4-79e4c8a62450",
                  "flow": [
                      {
                          "id": "edab4bdd-7e09-4251-a2e5-0b61d1b1f7de",
                          "type": "flowCondition",
                          "label": "default",
                          "order": 1,
                          "toNode": "tag",
                          "description": "",
                          "gotoNodeType": "normal"
                      }
                  ],
                  "type": "node",
                  "label": "Start",
                  "parent": "editnodeproject_1665476043994/tag",
                  "nodeType": "startPoint",
                  "parentId": "fb923d3a-2be5-4176-8855-907a80d37a1b/f0e6b9d3-7639-4e46-84f5-5034d07e70cc",
                  "description": "Pattern Flow Start",
                  "applyInputsToFlow": false,
                  "nodeDisplayOption": "description"
              },
              {
                  "id": "d57e67a8-738a-4d01-abe0-915fc7319abc",
                  "flow": [
                      {
                          "id": "4a288606-5375-45c8-ba8d-e4a7a007b094",
                          "type": "flowCondition",
                          "label": "default",
                          "order": 1,
                          "toNode": "addPoint",
                          "linkType": "down"
                      }
                  ],
                  "type": "node",
                  "label": "tag",
                  "parent": "editnodeproject_1665476043994/tag",
                  "nodeType": "tagNode",
                  "parentId": "fb923d3a-2be5-4176-8855-907a80d37a1b/f0e6b9d3-7639-4e46-84f5-5034d07e70cc",
                  "containsPii": false,
                  "description": "Tagnode Description",
                  "applyInputsToFlow": false,
                  "nodeDisplayOption": "description"
              }
          ],
          "nodeType": "pattern",
          "outcomes": [
              {
                  "id": "3ddd1a3d-45b7-47f1-8173-b53b6d3410b3",
                  "type": "outcome",
                  "color": "#FFED8F",
                  "label": "Contained",
                  "reasons": [],
                  "percentage": 33,
                  "description": "User completes task without Human Assistance, Golden Call.",
                  "outcomeType": "Project",
                  "outcomeValue": "Positive"
              }
          ],
          "parentId": "fb923d3a-2be5-4176-8855-907a80d37a1b",
          "subflows": [],
          "description": "",
          "patternType": "Inbound",
          "entityGroups": [
              {
                  "id": "3af178ed-9c5e-44e2-a483-1fde06ec7187",
                  "type": "entityGroup",
                  "label": "defaultEntityGroup",
                  "dependsOn": [],
                  "primaryKey": "default",
                  "description": "defaultEntityGroup",
                  "sharedEndPoint": false
              }
          ]
      },
      {
          "id": "849556be-3c98-48a1-afb7-119b9125df7f",
          "type": "pattern",
          "label": "flowNodes",
          "mapper": [],
          "parent": "editnodeproject_1665476043994",
          "channels": [
              {
                  "id": "IVR",
                  "type": "channel",
                  "label": "IVR",
                  "description": "Voice over the phone"
              },
              {
                  "id": "RWC",
                  "type": "channel",
                  "label": "RWC",
                  "description": "Rich webchat UI"
              },
              {
                  "id": "SMS",
                  "type": "channel",
                  "label": "SMS",
                  "description": "Text messaging"
              }
          ],
          "entities": [],
          "flowData": [
              {
                  "id": "8589c4d0-917b-4977-be37-c65e7610708b",
                  "flow": [
                      {
                          "id": "75350a70-7271-4307-8227-51601dc2d85e",
                          "type": "flowCondition",
                          "label": "default",
                          "order": 1,
                          "toNode": "subflowNodes",
                          "description": "",
                          "gotoNodeType": "normal"
                      }
                  ],
                  "type": "node",
                  "label": "Start",
                  "parent": "editnodeproject_1665476043994/flowNodes",
                  "nodeType": "startPoint",
                  "parentId": "fb923d3a-2be5-4176-8855-907a80d37a1b/849556be-3c98-48a1-afb7-119b9125df7f",
                  "description": "Pattern Flow Start",
                  "applyInputsToFlow": false,
                  "nodeDisplayOption": "description"
              },
              {
                  "id": "2505b978-897b-45a4-84e6-bff95a50576f",
                  "flow": [
                      {
                          "id": "e68e8820-73b9-4064-9382-c0140efb1d4e",
                          "type": "flowCondition",
                          "label": "default",
                          "order": 1,
                          "toNode": "addPoint",
                          "linkType": "down"
                      }
                  ],
                  "type": "node",
                  "label": "subflowNodes",
                  "parent": "editnodeproject_1665476043994/flowNodes",
                  "nodeType": "subFlow",
                  "parentId": "fb923d3a-2be5-4176-8855-907a80d37a1b/849556be-3c98-48a1-afb7-119b9125df7f",
                  "subflowId": "cb4f90e3-7ecd-4400-b279-62ebe164f324",
                  "containsPii": false,
                  "description": "",
                  "applyInputsToFlow": false,
                  "nodeDisplayOption": "description"
              }
          ],
          "nodeType": "pattern",
          "outcomes": [
              {
                  "id": "3ddd1a3d-45b7-47f1-8173-b53b6d3410b3",
                  "type": "outcome",
                  "color": "#FFED8F",
                  "label": "Contained",
                  "reasons": [],
                  "percentage": 33,
                  "description": "User completes task without Human Assistance, Golden Call.",
                  "outcomeType": "Project",
                  "outcomeValue": "Positive"
              }
          ],
          "parentId": "fb923d3a-2be5-4176-8855-907a80d37a1b",
          "subflows": [
              {
                  "id": "cb4f90e3-7ecd-4400-b279-62ebe164f324",
                  "type": "subFlow",
                  "label": "subflowNodes",
                  "parent": "editnodeproject_1665476043994/flowNodes",
                  "parentId": "fb923d3a-2be5-4176-8855-907a80d37a1b/849556be-3c98-48a1-afb7-119b9125df7f",
                  "subflows": [],
                  "description": "",
                  "flowDataSet": [
                      {
                          "channel": {
                              "id": "IVR",
                              "type": "channel",
                              "label": "IVR",
                              "description": "Voice over the phone"
                          },
                          "flowData": [
                              {
                                  "id": "1d222cac-b0c1-4645-a87a-e37167075e4a",
                                  "flow": [
                                      {
                                          "id": "773de132-2920-4398-b72c-814f12ffb2e3",
                                          "type": "flowCondition",
                                          "label": "default",
                                          "order": 1,
                                          "toNode": "prompt",
                                          "description": "default",
                                          "gotoNodeType": "normal"
                                      }
                                  ],
                                  "type": "node",
                                  "label": "Start",
                                  "parent": "editnodeproject_1665476043994/flowNodes/subflowNodes",
                                  "nodeType": "startPoint",
                                  "parentId": "fb923d3a-2be5-4176-8855-907a80d37a1b/849556be-3c98-48a1-afb7-119b9125df7f/cb4f90e3-7ecd-4400-b279-62ebe164f324",
                                  "description": "Pattern Flow Start",
                                  "applyInputsToFlow": false,
                                  "nodeDisplayOption": "description"
                              },
                              {
                                  "id": "6953bdbb-1ae6-4fe4-b621-d0e007c741d5",
                                  "flow": [
                                      {
                                          "id": "6202ea7c-343c-4919-ac14-da8877db53cf",
                                          "type": "flowCondition",
                                          "label": "default",
                                          "order": 1,
                                          "toNode": "openq",
                                          "linkType": "down",
                                          "description": "default",
                                          "gotoNodeType": "normal"
                                      }
                                  ],
                                  "type": "node",
                                  "input": [],
                                  "label": "prompt",
                                  "output": [
                                      {
                                          "id": "9030dc2d-4fb7-40f0-b1c6-eb3c137ddd4d",
                                          "type": "outputCondition",
                                          "label": "Default",
                                          "edited": true,
                                          "content": [
                                              {
                                                  "id": "2495a17d-4faa-4aec-a866-84c215cf03e8",
                                                  "value": "propmt text",
                                                  "channel": "IVR",
                                                  "dynamic": false,
                                                  "contentType": "Prompt"
                                              }
                                          ],
                                          "template": false
                                      }
                                  ],
                                  "parent": "editnodeproject_1665476043994/flowNodes/subflowNodes",
                                  "nodeType": "prompt",
                                  "parentId": "fb923d3a-2be5-4176-8855-907a80d37a1b/849556be-3c98-48a1-afb7-119b9125df7f/cb4f90e3-7ecd-4400-b279-62ebe164f324",
                                  "nodeRules": {
                                      "id": "d36eb69e-7d96-4358-84f5-074be7e8a589",
                                      "repairRules": [],
                                      "useGlobalRepairs": true,
                                      "useGlobalEscalate": true,
                                      "useGlobalFallback": true
                                  },
                                  "templateId": "defaultPromptTemplate",
                                  "containsPii": false,
                                  "description": "Description for Prompt",
                                  "applyInputsToFlow": false,
                                  "nodeDisplayOption": "description"
                              },
                              {
                                  "id": "58bfe847-46f0-46aa-96f6-37deb87bd0e5",
                                  "flow": [
                                      {
                                          "id": "70e1a2ab-d39b-4379-818b-02b0e819a27f",
                                          "type": "flowCondition",
                                          "label": "default",
                                          "order": 1,
                                          "toNode": "closedq",
                                          "linkType": "down",
                                          "description": "default",
                                          "gotoNodeType": "normal"
                                      },
                                      {
                                          "id": "9b158438-617f-44e0-9cf7-8a9878cc33d3",
                                          "type": "flowCondition",
                                          "label": "Repair",
                                          "order": 2,
                                          "toNode": "nodeLabel",
                                          "linkType": "loop"
                                      }
                                  ],
                                  "type": "node",
                                  "input": [],
                                  "label": "nodeLabel",
                                  "output": [
                                      {
                                          "id": "c002e0b4-fa0b-4179-9c71-dbbf958be985",
                                          "type": "outputCondition",
                                          "label": "Default",
                                          "edited": true,
                                          "content": [
                                              {
                                                  "id": "58bd0448-2301-4b52-a6a0-4c31a8e83598",
                                                  "value": "nodeLabel text",
                                                  "channel": "IVR",
                                                  "dynamic": false,
                                                  "contentType": "Prompt"
                                              }
                                          ],
                                          "template": false
                                      }
                                  ],
                                  "parent": "editnodeproject_1665476043994/flowNodes/subflowNodes",
                                  "nodeType": "openQuestion",
                                  "parentId": "fb923d3a-2be5-4176-8855-907a80d37a1b/849556be-3c98-48a1-afb7-119b9125df7f/cb4f90e3-7ecd-4400-b279-62ebe164f324",
                                  "nodeRules": {
                                      "repairRules": [],
                                      "useGlobalRepairs": true,
                                      "useGlobalEscalate": true,
                                      "useGlobalFallback": true
                                  },
                                  "templateId": "defaultOpenTemplate",
                                  "containsPii": false,
                                  "description": "If you prefer I can text you the link.",
                                  "channelSettings": {
                                      "ttsEngine": "",
                                      "acceptDTMF": true,
                                      "talkingSpeed": 10
                                  },
                                  "applyInputsToFlow": false,
                                  "nodeDisplayOption": "description"
                              },
                              {
                                  "id": "880c1ab5-29b3-48f1-a7c8-0675cf8350d0",
                                  "flow": [
                                      {
                                          "id": "5f461577-5021-4899-942f-19754567653c",
                                          "type": "flowCondition",
                                          "label": "default",
                                          "order": 1,
                                          "toNode": "addPoint",
                                          "linkType": "down"
                                      },
                                      {
                                          "id": "e9cc410a-0301-4ed8-abbd-9b802aadae24",
                                          "type": "flowCondition",
                                          "label": "Repair",
                                          "order": 2,
                                          "toNode": "closedq",
                                          "linkType": "loop"
                                      }
                                  ],
                                  "type": "node",
                                  "input": [
                                      {
                                          "id": "ae9527e2-4f38-4c30-b671-0d5d65f2fd0c",
                                          "type": "inputCondition",
                                          "label": "OfferParser",
                                          "order": 1,
                                          "parser": "HelloModel",
                                          "inputType": "NLUModel"
                                      }
                                  ],
                                  "label": "closedq",
                                  "output": [
                                      {
                                          "id": "da286234-2f36-488e-9750-12a044c5a1c0",
                                          "type": "outputCondition",
                                          "label": "Default",
                                          "edited": true,
                                          "content": [
                                              {
                                                  "id": "203ea302-fb1e-478b-bb84-5078c0ce2307",
                                                  "value": "closedq text",
                                                  "channel": "IVR",
                                                  "dynamic": false,
                                                  "contentType": "Prompt"
                                              }
                                          ],
                                          "template": false
                                      }
                                  ],
                                  "parent": "editnodeproject_1665476043994/flowNodes/subflowNodes",
                                  "nodeType": "closedQuestion",
                                  "parentId": "fb923d3a-2be5-4176-8855-907a80d37a1b/849556be-3c98-48a1-afb7-119b9125df7f/cb4f90e3-7ecd-4400-b279-62ebe164f324",
                                  "nodeRules": {
                                      "repairRules": [],
                                      "useGlobalRepairs": true,
                                      "useGlobalEscalate": true,
                                      "useGlobalFallback": true
                                  },
                                  "templateId": "defaultClosedTemplate",
                                  "containsPii": false,
                                  "description": "Closed Question Description",
                                  "channelSettings": {
                                      "ttsEngine": "",
                                      "acceptDTMF": true,
                                      "talkingSpeed": 10
                                  },
                                  "applyInputsToFlow": false,
                                  "nodeDisplayOption": "description"
                              }
                          ]
                      }
                  ]
              }
          ],
          "description": "",
          "patternType": "Inbound",
          "entityGroups": [
              {
                  "id": "c54669f8-4a89-48a3-8539-9bd5a38080d2",
                  "type": "entityGroup",
                  "label": "defaultEntityGroup",
                  "dependsOn": [],
                  "primaryKey": "default",
                  "description": "defaultEntityGroup",
                  "sharedEndPoint": false
              }
          ]
      },
      {
          "id": "077958a0-5fcf-4c7d-af62-7e35e7c757c1",
          "type": "pattern",
          "label": "general",
          "mapper": [],
          "parent": "editnodeproject_1665476043994",
          "channels": [
              {
                  "id": "IVR",
                  "type": "channel",
                  "label": "IVR",
                  "description": "Voice over the phone"
              },
              {
                  "id": "RWC",
                  "type": "channel",
                  "label": "RWC",
                  "description": "Rich webchat UI"
              },
              {
                  "id": "SMS",
                  "type": "channel",
                  "label": "SMS",
                  "description": "Text messaging"
              }
          ],
          "entities": [],
          "flowData": [
              {
                  "id": "782032f5-0a92-4705-bb08-c6f9683a55a6",
                  "flow": [
                      {
                          "id": "ab91a1a4-5217-4ea3-98fb-c76909aa7949",
                          "type": "flowCondition",
                          "label": "Yes",
                          "order": 1,
                          "toNode": "nodeLabel",
                          "description": "",
                          "gotoNodeType": "normal"
                      }
                  ],
                  "type": "node",
                  "label": "Start",
                  "parent": "editnodeproject_1665476043994/general",
                  "nodeType": "startPoint",
                  "parentId": "fb923d3a-2be5-4176-8855-907a80d37a1b/077958a0-5fcf-4c7d-af62-7e35e7c757c1",
                  "description": "Pattern Flow Start",
                  "applyInputsToFlow": false,
                  "nodeDisplayOption": "description"
              },
              {
                  "id": "14f8c4e3-5d53-4842-bcc9-1f3b4efac142",
                  "flow": [
                      {
                          "id": "4430b342-fc78-4488-bb9c-cc858e2ee399",
                          "type": "flowCondition",
                          "label": "No",
                          "order": 1,
                          "toNode": "subflow12",
                          "linkType": "down",
                          "description": "",
                          "gotoNodeType": "normal"
                      }
                  ],
                  "type": "node",
                  "label": "nodeLabel",
                  "parent": "editnodeproject_1665476043994/general",
                  "nodeType": "subFlow",
                  "parentId": "fb923d3a-2be5-4176-8855-907a80d37a1b/077958a0-5fcf-4c7d-af62-7e35e7c757c1",
                  "subflowId": "0dee95cb-9b48-4a9b-8126-c0a10b9eb566",
                  "containsPii": false,
                  "description": "",
                  "applyInputsToFlow": false,
                  "nodeDisplayOption": "description"
              },
              {
                  "id": "3d011da8-3277-4061-aff6-ec7a6560c34c",
                  "flow": [
                      {
                          "label": "default",
                          "order": 1,
                          "linkType": "down",
                          "id": "0568d2f9-a52f-445c-8012-1681da29741f",
                          "toNode": "addPoint",
                          "type": "flowCondition"
                      }
                  ],
                  "type": "node",
                  "label": "subflow12",
                  "nodeType": "subFlow",
                  "subflowId": "1221c93f-e02c-4726-aed7-4da3e8a73959",
                  "containsPii": false,
                  "description": "",
                  "nodeDisplayOption": "description",
                  "parent": "editnodeproject_1665476043994/general",
                  "parentId": "fb923d3a-2be5-4176-8855-907a80d37a1b/077958a0-5fcf-4c7d-af62-7e35e7c757c1",
                  "applyInputsToFlow": false
              }
          ],
          "nodeType": "pattern",
          "outcomes": [
              {
                  "id": "3ddd1a3d-45b7-47f1-8173-b53b6d3410b3",
                  "type": "outcome",
                  "color": "#FFED8F",
                  "label": "Contained",
                  "reasons": [],
                  "percentage": 33,
                  "description": "User completes task without Human Assistance, Golden Call.",
                  "outcomeType": "Project",
                  "outcomeValue": "Positive"
              }
          ],
          "parentId": "fb923d3a-2be5-4176-8855-907a80d37a1b",
          "subflows": [
              {
                  "id": "0dee95cb-9b48-4a9b-8126-c0a10b9eb566",
                  "type": "subFlow",
                  "label": "subflow",
                  "parent": "editnodeproject_1665476043994/general",
                  "parentId": "fb923d3a-2be5-4176-8855-907a80d37a1b/077958a0-5fcf-4c7d-af62-7e35e7c757c1",
                  "subflows": [],
                  "description": "",
                  "flowDataSet": [
                      {
                          "channel": {
                              "id": "IVR",
                              "type": "channel",
                              "label": "IVR",
                              "description": "Voice over the phone"
                          },
                          "flowData": [
                              {
                                  "id": "2e039985-7602-4727-8a3f-1422cda2f197",
                                  "flow": [
                                      {
                                          "id": "7f992782-dadd-420c-9a64-d5efe2e8b325",
                                          "type": "flowCondition",
                                          "label": "default",
                                          "order": 1,
                                          "toNode": "addPoint",
                                          "description": "",
                                          "gotoNodeType": "addPoint"
                                      }
                                  ],
                                  "type": "node",
                                  "label": "Start",
                                  "parent": "editnodeproject_1665476043994/general/subflow",
                                  "nodeType": "startPoint",
                                  "parentId": "fb923d3a-2be5-4176-8855-907a80d37a1b/077958a0-5fcf-4c7d-af62-7e35e7c757c1/0dee95cb-9b48-4a9b-8126-c0a10b9eb566",
                                  "description": "Pattern Flow Start",
                                  "applyInputsToFlow": false,
                                  "nodeDisplayOption": "description"
                              }
                          ]
                      },
                      {
                          "channel": {
                              "id": "RWC",
                              "type": "channel",
                              "label": "RWC",
                              "description": "Rich webchat UI"
                          },
                          "flowData": [
                              {
                                  "id": "7bd4fd23-859f-4fe8-b903-30654f02d77f",
                                  "flow": [
                                      {
                                          "id": "c4594945-fe7f-472b-aff1-4ff916daaa13",
                                          "type": "flowCondition",
                                          "label": "default",
                                          "order": 1,
                                          "toNode": "addPoint",
                                          "description": "Start Experience"
                                      }
                                  ],
                                  "type": "node",
                                  "label": "Start",
                                  "parent": "editnodeproject_1665476043994/general/subflow",
                                  "nodeType": "startPoint",
                                  "parentId": "fb923d3a-2be5-4176-8855-907a80d37a1b/077958a0-5fcf-4c7d-af62-7e35e7c757c1/0dee95cb-9b48-4a9b-8126-c0a10b9eb566",
                                  "description": "Pattern Flow Start",
                                  "applyInputsToFlow": false,
                                  "nodeDisplayOption": "description"
                              }
                          ]
                      }
                  ]
              },
              {
                  "id": "1221c93f-e02c-4726-aed7-4da3e8a73959",
                  "type": "subFlow",
                  "label": "subflow12",
                  "parent": "editnodeproject_1665476043994/general",
                  "parentId": "fb923d3a-2be5-4176-8855-907a80d37a1b/077958a0-5fcf-4c7d-af62-7e35e7c757c1",
                  "subflows": [],
                  "description": "",
                  "flowDataSet": [
                      {
                          "channel": {
                              "id": "IVR",
                              "type": "channel",
                              "label": "IVR",
                              "description": "Voice over the phone"
                          },
                          "flowData": [
                              {
                                  "id": "ca621d8b-5ab9-4528-a84f-ef971a51b415",
                                  "flow": [
                                      {
                                          "id": "fff788b0-4d4a-460e-bd97-c7d420fa9d2a",
                                          "label": "default",
                                          "order": 1,
                                          "toNode": "addPoint",
                                          "description": "Start Experience",
                                          "type": "flowCondition"
                                      }
                                  ],
                                  "type": "node",
                                  "label": "Start",
                                  "nodeType": "startPoint",
                                  "description": "Pattern Flow Start",
                                  "parent": "editnodeproject_1665476043994/general/subflow12",
                                  "parentId": "fb923d3a-2be5-4176-8855-907a80d37a1b/077958a0-5fcf-4c7d-af62-7e35e7c757c1/1221c93f-e02c-4726-aed7-4da3e8a73959",
                                  "nodeDisplayOption": "description",
                                  "applyInputsToFlow": false
                              }
                          ]
                      },
                      {
                          "channel": {
                              "id": "RWC",
                              "type": "channel",
                              "label": "RWC",
                              "description": "Rich webchat UI"
                          },
                          "flowData": [
                              {
                                  "id": "f2ea5f95-1dfa-4046-9786-684a0f5b3a8c",
                                  "flow": [
                                      {
                                          "id": "cce83f33-ab0d-488c-9768-aaaf64003304",
                                          "label": "default",
                                          "order": 1,
                                          "toNode": "addPoint",
                                          "description": "Start Experience",
                                          "type": "flowCondition"
                                      }
                                  ],
                                  "type": "node",
                                  "label": "Start",
                                  "nodeType": "startPoint",
                                  "description": "Pattern Flow Start",
                                  "parent": "editnodeproject_1665476043994/general/subflow12",
                                  "parentId": "fb923d3a-2be5-4176-8855-907a80d37a1b/077958a0-5fcf-4c7d-af62-7e35e7c757c1/1221c93f-e02c-4726-aed7-4da3e8a73959",
                                  "nodeDisplayOption": "description",
                                  "applyInputsToFlow": false
                              }
                          ]
                      },
                      {
                          "channel": {
                              "id": "SMS",
                              "type": "channel",
                              "label": "SMS",
                              "description": "Text messaging"
                          },
                          "flowData": [
                              {
                                  "id": "79022ef8-ae7f-475a-90e5-f544d0a92176",
                                  "flow": [
                                      {
                                          "id": "a984f5d8-72c7-463d-a77b-44d73ca7acd7",
                                          "label": "default",
                                          "order": 1,
                                          "toNode": "addPoint",
                                          "description": "Start Experience",
                                          "type": "flowCondition"
                                      }
                                  ],
                                  "type": "node",
                                  "label": "Start",
                                  "nodeType": "startPoint",
                                  "description": "Pattern Flow Start",
                                  "parent": "editnodeproject_1665476043994/general/subflow12",
                                  "parentId": "fb923d3a-2be5-4176-8855-907a80d37a1b/077958a0-5fcf-4c7d-af62-7e35e7c757c1/1221c93f-e02c-4726-aed7-4da3e8a73959",
                                  "nodeDisplayOption": "description",
                                  "applyInputsToFlow": false
                              }
                          ]
                      }
                  ]
              }
          ],
          "description": "",
          "patternType": "Inbound",
          "entityGroups": [
              {
                  "id": "95433f64-12ff-4c1e-bb30-18a42a41a20f",
                  "type": "entityGroup",
                  "label": "defaultEntityGroup",
                  "dependsOn": [],
                  "primaryKey": "default",
                  "description": "defaultEntityGroup",
                  "sharedEndPoint": false
              }
          ]
      },
      {
          "id": "2f54dbee-766b-4a2b-9f1b-edd786aad0ec",
          "type": "pattern",
          "label": "skillrouter",
          "mapper": [],
          "parent": "editnodeproject_1665476043994",
          "channels": [
              {
                  "id": "RWC",
                  "type": "channel",
                  "label": "RWC",
                  "description": "Rich webchat UI"
              },
              {
                  "id": "SMS",
                  "type": "channel",
                  "label": "SMS",
                  "description": "Text messaging"
              },
              {
                  "id": "IVR",
                  "type": "channel",
                  "label": "IVR",
                  "description": "Voice over the phone"
              }
          ],
          "entities": [],
          "flowData": [
              {
                  "id": "232fdf4f-6055-4f46-baf6-087bba2760b8",
                  "flow": [
                      {
                          "id": "5cd0ed14-7e14-4242-86ce-6cf87adac035",
                          "type": "flowCondition",
                          "label": "default",
                          "order": 1,
                          "toNode": "nodeLabel",
                          "description": "",
                          "gotoNodeType": "normal"
                      }
                  ],
                  "type": "node",
                  "label": "Start",
                  "parent": "editnodeproject_1665476043994/skillrouter",
                  "nodeType": "startPoint",
                  "parentId": "fb923d3a-2be5-4176-8855-907a80d37a1b/2f54dbee-766b-4a2b-9f1b-edd786aad0ec",
                  "description": "Pattern Flow Start",
                  "applyInputsToFlow": false,
                  "nodeDisplayOption": "description"
              },
              {
                  "id": "af356451-bc29-40b8-af48-d9f777ed72c0",
                  "flow": [
                      {
                          "id": "ced3ee1c-6d05-43ec-9101-0e00ed48e33a",
                          "type": "flowCondition",
                          "label": "default",
                          "order": 1,
                          "toNode": "skillrouter11",
                          "linkType": "down",
                          "description": "",
                          "gotoNodeType": "normal"
                      }
                  ],
                  "type": "node",
                  "label": "nodeLabel",
                  "output": [
                      {
                          "id": "d945aa95-3554-47c4-a35b-b3961a01a95e",
                          "type": "outputCondition",
                          "label": "default",
                          "content": [
                              {
                                  "id": "cf94cef5-6328-490a-93fb-85fbacb7595a",
                                  "value": "What can I do for you today?"
                              }
                          ],
                          "description": ""
                      }
                  ],
                  "parent": "editnodeproject_1665476043994/skillrouter",
                  "skills": [
                      "618de8c2-ec42-45f3-a448-d9ebbff76695"
                  ],
                  "channels": [],
                  "nodeType": "routerMenu",
                  "parentId": "fb923d3a-2be5-4176-8855-907a80d37a1b/2f54dbee-766b-4a2b-9f1b-edd786aad0ec",
                  "description": "Skill Router Description",
                  "applyInputsToFlow": false,
                  "nodeDisplayOption": "description"
              },
              {
                  "id": "e8a5a62f-e931-4338-8825-fb1529a9a368",
                  "flow": [
                      {
                          "label": "default",
                          "order": 1,
                          "linkType": "down",
                          "id": "d1f80535-975c-4c3e-b675-8f3d511a015c",
                          "toNode": "addPoint",
                          "type": "flowCondition"
                      }
                  ],
                  "type": "node",
                  "label": "skillrouter11",
                  "output": [
                      {
                          "id": "9008944f-c33c-4c01-9f1a-36ed4aa07b92",
                          "type": "outputCondition",
                          "label": "default",
                          "content": [
                              {
                                  "id": "f9e48018-a4b2-4168-9c90-78c9b5d50251",
                                  "value": "What can I do for you today?"
                              }
                          ],
                          "description": ""
                      }
                  ],
                  "parent": "editnodeproject_1665476043994/skillrouter",
                  "skills": [],
                  "channels": [],
                  "nodeType": "routerMenu",
                  "parentId": "fb923d3a-2be5-4176-8855-907a80d37a1b/2f54dbee-766b-4a2b-9f1b-edd786aad0ec",
                  "description": "Skill Router Description",
                  "nodeDisplayOption": "description",
                  "applyInputsToFlow": false
              }
          ],
          "nodeType": "pattern",
          "outcomes": [
              {
                  "id": "3ddd1a3d-45b7-47f1-8173-b53b6d3410b3",
                  "type": "outcome",
                  "color": "#FFED8F",
                  "label": "Contained",
                  "reasons": [],
                  "percentage": 33,
                  "description": "User completes task without Human Assistance, Golden Call.",
                  "outcomeType": "Project",
                  "outcomeValue": "Positive"
              }
          ],
          "parentId": "fb923d3a-2be5-4176-8855-907a80d37a1b",
          "subflows": [],
          "description": "",
          "patternType": "Inbound",
          "entityGroups": [
              {
                  "id": "1ab48c67-abc3-4dec-9611-914f2e378c0f",
                  "type": "entityGroup",
                  "label": "defaultEntityGroup",
                  "dependsOn": [],
                  "primaryKey": "default",
                  "description": "defaultEntityGroup",
                  "sharedEndPoint": false
              }
          ]
      },
      {
          "label": "ResetTag",
          "id": "769cc768-f50d-4e86-af7e-7b7c9d05be30",
          "parent": "add-node-project",
          "parentId": "c7935639-7a23-4086-86f2-65be6498dc4a",
          "patternType": "Inbound",
          "nodeType": "pattern",
          "type": "pattern",
          "channels": [
              {
                  "id": "IVR",
                  "label": "IVR",
                  "description": "Voice over the phone",
                  "type": "channel"
              }
          ],
          "flowData": [
              {
                  "type": "node",
                  "id": "bb799eaa-eab9-4b88-a9db-ebc43e0a02ef",
                  "label": "Start",
                  "nodeType": "startPoint",
                  "description": "Pattern Flow Start",
                  "flow": [
                      {
                          "id": "6fccc217-d02c-4cb2-b5ec-bc6cc288425e",
                          "label": "default",
                          "order": 1,
                          "description": "Start Experience",
                          "toNode": "addPoint",
                          "type": "flowCondition"
                      }
                  ],
                  "parent": "add-node-project/ResetTag",
                  "parentId": "b67d5bd0-f272-4f66-8ebc-f2f606dcd2bc/769cc768-f50d-4e86-af7e-7b7c9d05be30",
                  "nodeDisplayOption": "description",
                  "applyInputsToFlow": false
              }
          ],
          "entities": [],
          "entityGroups": [
              {
                  "id": "eaceb1e2-862a-45e0-8b97-178065785d70",
                  "type": "entityGroup",
                  "label": "defaultEntityGroup",
                  "description": "defaultEntityGroup",
                  "primaryKey": "default",
                  "dependsOn": [],
                  "sharedEndPoint": false
              }
          ],
          "outcomes": [
              {
                  "id": "73b3b94b-f335-4e94-b8d9-d8a901ab5bbb",
                  "type": "outcome",
                  "color": "#8FBCFF",
                  "label": "HITL",
                  "reasons": [],
                  "percentage": 33,
                  "description": "Human in the Loop",
                  "outcomeType": "Project",
                  "outcomeValue": "Neutral"
              }
          ],
          "subflows": [],
          "mapper": [],
          "description": ""
      }          
  ],
  "templates": {
      "YesNoTemplateId": {
          "id": "YesNoTemplateId",
          "label": "YesNoQuestion",
          "hasPre": true,
          "hasPost": true,
          "hasRepair": true,
          "description": "This is the default ClosedQuestion template",
          "templateType": "closedQuestion",
          "channelConditions": [
              {
                  "flow": [],
                  "input": {
                      "models": [
                          {
                              "id": "d9a780a7-7346-4162-a401-ab98d55518f8",
                              "type": "inputCondition",
                              "label": "Yes",
                              "parser": "yes, yeah, yah",
                              "inputType": "Matcher",
                              "containsPii": false,
                              "description": "positive user response"
                          },
                          {
                              "id": "f53d9392-c9a1-4717-986b-e3e7c7f0a786",
                              "type": "inputCondition",
                              "label": "No",
                              "parser": "no, nope, nah",
                              "inputType": "Matcher",
                              "containsPii": false,
                              "description": "negative user response"
                          }
                      ]
                  },
                  "output": [],
                  "channelId": "IVR"
              },
              {
                  "flow": [],
                  "input": {
                      "models": [
                          {
                              "id": "d47a3424-7cb3-4c12-ad60-55d627055ad3",
                              "type": "inputCondition",
                              "label": "Yes",
                              "parser": "yes, yeah, yah",
                              "inputType": "Matcher",
                              "containsPii": false,
                              "description": "positive user response"
                          },
                          {
                              "id": "aac76c02-1a83-4545-9950-1f548f38c01c",
                              "type": "inputCondition",
                              "label": "No",
                              "parser": "no, nope, nah",
                              "inputType": "Matcher",
                              "containsPii": false,
                              "description": "negative user response"
                          }
                      ]
                  },
                  "output": [],
                  "channelId": "RWC"
              },
              {
                  "flow": [],
                  "input": {
                      "models": [
                          {
                              "id": "9183efdb-bf55-49a3-86c2-c1ae0df12e12",
                              "type": "inputCondition",
                              "label": "Yes",
                              "parser": "yes, yeah, yah",
                              "inputType": "Matcher",
                              "containsPii": false,
                              "description": "positive user response"
                          },
                          {
                              "id": "b7bd56b0-30fe-4b17-90aa-247ce75aeefa",
                              "type": "inputCondition",
                              "label": "No",
                              "parser": "no, nope, nah",
                              "inputType": "Matcher",
                              "containsPii": false,
                              "description": "negative user response"
                          }
                      ]
                  },
                  "output": [],
                  "channelId": "SMS"
              },
              {
                  "flow": [],
                  "input": {
                      "models": []
                  },
                  "output": [],
                  "channelId": "App"
              },
              {
                  "flow": [],
                  "input": {
                      "models": [
                          {
                              "id": "3a8ae99f-d031-4b8d-8661-b7fe1846ceb4",
                              "type": "inputCondition",
                              "label": "Yes",
                              "parser": "yes, yeah, yah",
                              "inputType": "Matcher",
                              "containsPii": false,
                              "description": "positive user response"
                          },
                          {
                              "id": "9aa4b96f-c3d6-41e3-bbdf-979a1002b43d",
                              "type": "inputCondition",
                              "label": "No",
                              "parser": "no, nope, nah",
                              "inputType": "Matcher",
                              "containsPii": false,
                              "description": "negative user response"
                          }
                      ]
                  },
                  "output": [],
                  "channelId": "rSMS"
              },
              {
                  "flow": [],
                  "input": {
                      "models": [
                          {
                              "id": "c9e0edd8-87f7-42bb-b1b1-e33b494bf0ad",
                              "type": "inputCondition",
                              "label": "Yes",
                              "parser": "yes, yeah, yah",
                              "inputType": "Matcher",
                              "containsPii": false,
                              "description": "positive user response"
                          },
                          {
                              "id": "97f4e5e2-e517-49ec-a448-e284314b273e",
                              "type": "inputCondition",
                              "label": "No",
                              "parser": "no, nope, nah",
                              "inputType": "Matcher",
                              "containsPii": false,
                              "description": "negative user response"
                          }
                      ]
                  },
                  "output": [],
                  "channelId": "VoIP"
              }
          ]
      },
      "defaultOpenTemplate": {
          "id": "defaultOpenTemplate",
          "label": "DefaultOpenTemplate",
          "hasPre": true,
          "hasPost": true,
          "hasRepair": true,
          "description": "This is the default open template.",
          "templateType": "openQuestion",
          "channelConditions": [
              {
                  "flow": [],
                  "input": {
                      "models": []
                  },
                  "output": [],
                  "channelId": "IVR"
              },
              {
                  "flow": [],
                  "input": {
                      "models": []
                  },
                  "output": [],
                  "channelId": "RWC"
              },
              {
                  "flow": [],
                  "input": {
                      "models": []
                  },
                  "output": [],
                  "channelId": "SMS"
              },
              {
                  "flow": [],
                  "input": {
                      "models": []
                  },
                  "output": [],
                  "channelId": "App"
              },
              {
                  "flow": [],
                  "input": {
                      "models": []
                  },
                  "output": [],
                  "channelId": "rSMS"
              },
              {
                  "flow": [],
                  "input": {
                      "models": []
                  },
                  "output": [],
                  "channelId": "VoIP"
              }
          ]
      },
      "defaultClosedTemplate": {
          "id": "defaultClosedTemplate",
          "label": "DefaultClosedTemplate",
          "hasPre": true,
          "hasPost": true,
          "hasRepair": true,
          "description": "This is the default closed template.",
          "templateType": "closedQuestion",
          "channelConditions": [
              {
                  "flow": [],
                  "input": {
                      "models": []
                  },
                  "output": [],
                  "channelId": "IVR"
              },
              {
                  "flow": [],
                  "input": {
                      "models": []
                  },
                  "output": [],
                  "channelId": "RWC"
              },
              {
                  "flow": [],
                  "input": {
                      "models": []
                  },
                  "output": [],
                  "channelId": "SMS"
              },
              {
                  "flow": [],
                  "input": {
                      "models": []
                  },
                  "output": [],
                  "channelId": "App"
              },
              {
                  "flow": [],
                  "input": {
                      "models": []
                  },
                  "output": [],
                  "channelId": "rSMS"
              },
              {
                  "flow": [],
                  "input": {
                      "models": []
                  },
                  "output": [],
                  "channelId": "VoIP"
              }
          ]
      },
      "defaultPromptTemplate": {
          "id": "defaultPromptTemplate",
          "label": "DefaultPromptTemplate",
          "hasPre": true,
          "hasPost": true,
          "hasRepair": true,
          "description": "This is the default prompt template.",
          "templateType": "prompt",
          "channelConditions": [
              {
                  "flow": [],
                  "input": {
                      "models": []
                  },
                  "output": [],
                  "channelId": "IVR"
              },
              {
                  "flow": [],
                  "input": {
                      "models": []
                  },
                  "output": [],
                  "channelId": "RWC"
              },
              {
                  "flow": [],
                  "input": {
                      "models": []
                  },
                  "output": [],
                  "channelId": "SMS"
              },
              {
                  "flow": [],
                  "input": {
                      "models": []
                  },
                  "output": [],
                  "channelId": "App"
              },
              {
                  "flow": [],
                  "input": {
                      "models": []
                  },
                  "output": [],
                  "channelId": "rSMS"
              },
              {
                  "flow": [],
                  "input": {
                      "models": []
                  },
                  "output": [],
                  "channelId": "VoIP"
              }
          ]
      }
  },
  "description": "",
  "projectType": "Test",
  "destinationPdes": [],
  "outcomesBaseline": [],
  "globalRepairRules": [
      {
          "id": "OOCRule",
          "label": "Out of Context",
          "outcome": "fallback",
          "repairType": "outOfContext",
          "description": "Out of context response are when the NLU is unable to classify the user's input. The user is asked to repeat.",
          "numberOfAttempts": 2
      },
      {
          "id": "NRRule",
          "label": "No Response",
          "outcome": "fallback",
          "repairType": "noResponse",
          "description": "No response is when the user does not provide any input. The system will reprompt the user to provide a response",
          "numberOfAttempts": 2
      },
      {
          "id": "ARRule",
          "label": "Agent Request",
          "outcome": "escalate",
          "repairType": "agentRequest",
          "description": "User requests Agent Transfer will trigger an Escalate flow",
          "numberOfAttempts": 1
      },
      {
          "id": "MRBFrule",
          "label": "Maximum Repair before Fallback",
          "outcome": "fallback",
          "repairType": "maximum",
          "description": "Total number of repairs before triggering a fallback action. Fallback should be offering another channel or escalating to an agent",
          "numberOfAttempts": 3
      }
  ],
  "projectObjectVersion": 1
}