{
  "label": " ",
  "description": "",
  "project Type": "",
  "type": "project",
  "projectObjectVersion": 1,
  "outcomesBaseline": [],
  "outcomes": {
    "8c777d4f-4d31-477f-a526-d0937b5c94f7": {
      "id": "8c777d4f-4d31-477f-a526-d0937b5c94f7",
      "label": "HITL",
      "description": "Human in the Loop",
      "type": "outcome",
      "outcomeType": "Project",
      "outcomeValue": "Neutral",
      "color": "#8FBCFF",
      "percentage": 33,
      "reasons": []
    },
    "5ce47155-2d5f-49ae-a7eb-ecc14dff0c19": {
      "id": "5ce47155-2d5f-49ae-a7eb-ecc14dff0c19",
      "label": "Abandon",
      "description": "User exits system without completion point.",
      "type": "outcome",
      "outcomeType": "Project",
      "outcomeValue": "Negative",
      "color": "#FFBFCB",
      "percentage": 33,
      "reasons": []
    },
    "51075149-9e23-4684-8813-ce7d17d86a32": {
      "id": "51075149-9e23-4684-8813-ce7d17d86a32",
      "label": "Contained",
      "description": "User completes task without Human Assistance, Golden Call.",
      "type": "outcome",
      "outcomeType": "Project",
      "outcomeValue": "Positive",
      "color": "#FFED8F",
      "percentage": 33,
      "reasons": []
    }
  },
  "templates": {
    "defaultPromptTemplate": {
      "label": "DefaultPromptTemplate",
      "description": "This is the default prompt template.",
      "templateType": "prompt",
      "id": "defaultPromptTemplate",
      "hasPre": true,
      "hasPost": true,
      "hasRepair": true,
      "channelConditions": [
        {
          "channelId": "IVR",
          "output": [],
          "input": {
            "models": []
          },
          "flow": []
        },
        {
          "channelId": "RWC",
          "output": [],
          "input": {
            "models": []
          },
          "flow": []
        },
        {
          "channelId": "SMS",
          "output": [],
          "input": {
            "models": []
          },
          "flow": []
        },
        {
          "channelId": "App",
          "output": [],
          "input": {
            "models": []
          },
          "flow": []
        },
        {
          "channelId": "rSMS",
          "output": [],
          "input": {
            "models": []
          },
          "flow": []
        },
        {
          "channelId": "VoIP",
          "output": [],
          "input": {
            "models": []
          },
          "flow": []
        }
      ]
    },
    "defaultOpenTemplate": {
      "label": "DefaultOpenTemplate",
      "description": "This is the default open template.",
      "templateType": "openQuestion",
      "id": "defaultOpenTemplate",
      "hasPre": true,
      "hasPost": true,
      "hasRepair": true,
      "channelConditions": [
        {
          "channelId": "IVR",
          "output": [],
          "input": {
            "models": []
          },
          "flow": []
        },
        {
          "channelId": "RWC",
          "output": [],
          "input": {
            "models": []
          },
          "flow": []
        },
        {
          "channelId": "SMS",
          "output": [],
          "input": {
            "models": []
          },
          "flow": []
        },
        {
          "channelId": "App",
          "output": [],
          "input": {
            "models": []
          },
          "flow": []
        },
        {
          "channelId": "rSMS",
          "output": [],
          "input": {
            "models": []
          },
          "flow": []
        },
        {
          "channelId": "VoIP",
          "output": [],
          "input": {
            "models": []
          },
          "flow": []
        }
      ]
    },
    "defaultClosedTemplate": {
      "label": "DefaultClosedTemplate",
      "description": "This is the default closed template.",
      "templateType": "closedQuestion",
      "id": "defaultClosedTemplate",
      "hasPre": true,
      "hasPost": true,
      "hasRepair": true,
      "channelConditions": [
        {
          "channelId": "IVR",
          "output": [],
          "input": {
            "models": []
          },
          "flow": []
        },
        {
          "channelId": "RWC",
          "output": [],
          "input": {
            "models": []
          },
          "flow": []
        },
        {
          "channelId": "SMS",
          "output": [],
          "input": {
            "models": []
          },
          "flow": []
        },
        {
          "channelId": "App",
          "output": [],
          "input": {
            "models": []
          },
          "flow": []
        },
        {
          "channelId": "rSMS",
          "output": [],
          "input": {
            "models": []
          },
          "flow": []
        },
        {
          "channelId": "VoIP",
          "output": [],
          "input": {
            "models": []
          },
          "flow": []
        }
      ]
    }
  },
  "patterns": []
}
