{
        "id": "6f5cee28-8c92-4675-8782-e89f9cd32205",
        "type": "project",
        "cards": {},
        "label": "node-details-spec-project",
        "parent": "",
        "outcomes": [
            {
                "id": "63a600c7-d407-4234-9160-2c518d8708ab",
                "type": "outcome",
                "color": "#8FBCFF",
                "label": "HITL",
                "reasons": [],
                "percentage": 33,
                "description": "Human in the Loop",
                "outcomeType": "Project",
                "outcomeValue": "Neutral"
            },
            {
                "id": "1fa0dca1-7483-4794-a86f-9c0cae83590a",
                "type": "outcome",
                "color": "#FFBFCB",
                "label": "Abandon",
                "reasons": [],
                "percentage": 33,
                "description": "User exits system without completion point.",
                "outcomeType": "Project",
                "outcomeValue": "Negative"
            },
            {
                "id": "77cc08a6-1140-46f0-800d-a5c76c098004",
                "type": "outcome",
                "color": "#FFED8F",
                "label": "Contained",
                "reasons": [],
                "percentage": 33,
                "description": "User completes task without Human Assistance, Golden Call.",
                "outcomeType": "Project",
                "outcomeValue": "Positive"
            },
            {
                "id": "escalate",
                "type": "outcome",
                "color": "#8FBCFF",
                "label": "Escalate",
                "description": "User is moved to Global Agent Transfer pattern, passing along flow and context.",
                "outcomeType": "Global",
                "outcomeValue": "Neutral",
                "destinationPattern": ""
            },
            {
                "id": "fallback",
                "type": "outcome",
                "color": "#EBBFFF",
                "label": "Fallback",
                "description": "If user is stuck in n or more repairs on the voice channel. Offer alternate channel if available, or switch to easier input.",
                "outcomeType": "Global",
                "outcomeValue": "Neutral",
                "destinationPattern": ""
            }
        ],
        "parentId": "",
        "patterns": [
            {
                "id": "2cf6ba68-bd84-441d-ad56-15eb8e724f91",
                "type": "pattern",
                "label": "TestPatternName",
                "mapper": [],
                "parent": "testproject",
                "channels": [
                    {
                        "id": "RWC",
                        "type": "channel",
                        "label": "RWC",
                        "description": "Rich webchat UI"
                    },
                    {
                        "id": "IVR",
                        "type": "channel",
                        "label": "IVR",
                        "description": "Voice over the phone"
                    }
                ],
                "entities": [],
                "flowData": [
                    {
                        "id": "38fc60fd-64b5-4832-8656-b739cf6d999f",
                        "flow": [
                            {
                                "id": "d5acdd00-d073-4b71-babc-f71f4c287ae5",
                                "type": "flowCondition",
                                "label": "default",
                                "order": 1,
                                "toNode": "First",
                                "description": " ",
                                "gotoNodeType": "normal"
                            }
                        ],
                        "type": "node",
                        "label": "Start",
                        "parent": "testproject/TestPatternName",
                        "nodeType": "startPoint",
                        "parentId": "6f5cee28-8c92-4675-8782-e89f9cd32205/2cf6ba68-bd84-441d-ad56-15eb8e724f91",
                        "description": "Pattern Flow Start",
                        "applyInputsToFlow": false,
                        "nodeDisplayOption": "description"
                    },
                    {
                        "id": "64822820-13f0-4186-8467-d9169e752455",
                        "flow": [
                            {
                                "id": "f0a98fe1-af6b-4f68-be99-ba6ef2c1540e",
                                "type": "flowCondition",
                                "label": "default",
                                "order": 1,
                                "toNode": "SkillRouter",
                                "linkType": "down",
                                "description": " ",
                                "gotoNodeType": "normal"
                            }
                        ],
                        "type": "node",
                        "label": "First",
                        "parent": "testproject/TestPatternName",
                        "nodeType": "subFlow",
                        "parentId": "6f5cee28-8c92-4675-8782-e89f9cd32205/2cf6ba68-bd84-441d-ad56-15eb8e724f91",
                        "subflowId": "b78b7498-97e6-4874-b2c8-2cf922f4c64f",
                        "containsPii": false,
                        "description": "RWC channel only",
                        "applyInputsToFlow": false,
                        "nodeDisplayOption": "description"
                    },
                    {
                        "id": "be0b375a-06e9-4359-a25f-95af3fbfd0ad",
                        "flow": [
                            {
                                "id": "fffeec28-a50d-4414-b860-448b014c1278",
                                "type": "flowCondition",
                                "label": "default",
                                "order": 1,
                                "toNode": "Tag",
                                "linkType": "down",
                                "description": " ",
                                "gotoNodeType": "normal"
                            }
                        ],
                        "type": "node",
                        "label": "SkillRouter",
                        "output": [
                            {
                                "id": "dc10e863-b879-4bdb-a6dc-3668267865fe",
                                "type": "outputCondition",
                                "label": "default",
                                "content": [
                                    {
                                        "id": "726cb380-cc24-42f9-b9c0-feef2eb402bc",
                                        "value": "What can I do for you today?"
                                    }
                                ],
                                "description": ""
                            }
                        ],
                        "parent": "testproject/TestPatternName",
                        "skills": [],
                        "channels": [],
                        "nodeType": "routerMenu",
                        "parentId": "6f5cee28-8c92-4675-8782-e89f9cd32205/2cf6ba68-bd84-441d-ad56-15eb8e724f91",
                        "description": "routerMenu descr",
                        "applyInputsToFlow": false,
                        "nodeDisplayOption": "description"
                    },
                    {
                        "id": "3634bbbf-2b2c-4455-b1f0-0469287d8f96",
                        "flow": [
                            {
                                "id": "f83b4e5a-353c-4411-9392-cbbc827faf61",
                                "type": "flowCondition",
                                "label": "default",
                                "order": 1,
                                "toNode": "addPoint",
                                "linkType": "down"
                            },
                            {
                                "id": "38202d8b-c2c7-4a38-adac-79fc8d3439e9",
                                "type": "flowCondition",
                                "label": "goto",
                                "order": 2,
                                "toNode": "First",
                                "linkType": "down",
                                "description": "goto descr",
                                "gotoNodeType": "gotoLink"
                            }
                        ],
                        "type": "node",
                        "label": "Tag",
                        "parent": "testproject/TestPatternName",
                        "nodeType": "tagNode",
                        "parentId": "6f5cee28-8c92-4675-8782-e89f9cd32205/2cf6ba68-bd84-441d-ad56-15eb8e724f91",
                        "containsPii": false,
                        "description": "tag descr",
                        "applyInputsToFlow": false,
                        "nodeDisplayOption": "description"
                    }
                ],
                "nodeType": "pattern",
                "outcomes": [
                    {
                        "id": "63a600c7-d407-4234-9160-2c518d8708ab",
                        "type": "outcome",
                        "color": "#8FBCFF",
                        "label": "HITL",
                        "reasons": [],
                        "percentage": 33,
                        "description": "Human in the Loop",
                        "outcomeType": "Project",
                        "outcomeValue": "Neutral"
                    },
                    {
                        "id": "1fa0dca1-7483-4794-a86f-9c0cae83590a",
                        "type": "outcome",
                        "color": "#FFBFCB",
                        "label": "Abandon",
                        "reasons": [],
                        "percentage": 33,
                        "description": "User exits system without completion point.",
                        "outcomeType": "Project",
                        "outcomeValue": "Negative"
                    }
                ],
                "parentId": "6f5cee28-8c92-4675-8782-e89f9cd32205",
                "subflows": [
                    {
                        "id": "b78b7498-97e6-4874-b2c8-2cf922f4c64f",
                        "type": "subFlow",
                        "label": "First",
                        "parent": "testproject/TestPatternName",
                        "parentId": "6f5cee28-8c92-4675-8782-e89f9cd32205/2cf6ba68-bd84-441d-ad56-15eb8e724f91",
                        "subflows": [
                            {
                                "id": "15b1c9d6-d8b6-466b-9657-32d85781ea13",
                                "type": "subFlow",
                                "label": "Subflow2",
                                "parent": "testproject/TestPatternName/First",
                                "parentId": "6f5cee28-8c92-4675-8782-e89f9cd32205/2cf6ba68-bd84-441d-ad56-15eb8e724f91/b78b7498-97e6-4874-b2c8-2cf922f4c64f",
                                "subflows": [],
                                "description": "descr",
                                "flowDataSet": [
                                    {
                                        "channel": {
                                            "id": "RWC",
                                            "type": "channel",
                                            "label": "RWC",
                                            "description": "Rich webchat UI"
                                        },
                                        "flowData": [
                                            {
                                                "id": "3fb9e2df-666a-43d5-bdb8-180e879252e2",
                                                "flow": [
                                                    {
                                                        "id": "6d788093-ea9f-417d-b6da-2103ba88e492",
                                                        "label": "default",
                                                        "order": 1,
                                                        "toNode": "addPoint",
                                                        "description": "Start Experience",
                                                        "type": "flowCondition"
                                                    }
                                                ],
                                                "type": "node",
                                                "label": "Start",
                                                "nodeType": "startPoint",
                                                "description": "Pattern Flow Start",
                                                "parent": "testproject/TestPatternName/First/Subflow2",
                                                "parentId": "6f5cee28-8c92-4675-8782-e89f9cd32205/2cf6ba68-bd84-441d-ad56-15eb8e724f91/b78b7498-97e6-4874-b2c8-2cf922f4c64f/15b1c9d6-d8b6-466b-9657-32d85781ea13",
                                                "nodeDisplayOption": "description",
                                                "applyInputsToFlow": false
                                            }
                                        ]
                                    }
                                ]
                            }
                        ],
                        "description": "RWC channel only",
                        "flowDataSet": [
                            {
                                "channel": {
                                    "id": "RWC",
                                    "type": "channel",
                                    "label": "RWC",
                                    "description": "Rich webchat UI"
                                },
                                "flowData": [
                                    {
                                        "id": "1a90e2dc-fe3f-4311-9cfb-4b1b0c51b997",
                                        "flow": [
                                            {
                                                "id": "59fa927c-017e-4fc7-a018-e5d073e791b9",
                                                "type": "flowCondition",
                                                "label": "default",
                                                "order": 1,
                                                "toNode": "Subflow2",
                                                "description": " ",
                                                "gotoNodeType": "normal"
                                            }
                                        ],
                                        "type": "node",
                                        "label": "Start",
                                        "parent": "testproject/TestPatternName/First",
                                        "nodeType": "startPoint",
                                        "parentId": "6f5cee28-8c92-4675-8782-e89f9cd32205/2cf6ba68-bd84-441d-ad56-15eb8e724f91/b78b7498-97e6-4874-b2c8-2cf922f4c64f",
                                        "description": "Pattern Flow Start",
                                        "applyInputsToFlow": false,
                                        "nodeDisplayOption": "description"
                                    },
                                    {
                                        "id": "888b6442-28e2-436a-9711-b47901559b91",
                                        "flow": [
                                            {
                                                "label": "default",
                                                "order": 1,
                                                "toNode": "Tag2",
                                                "linkType": "down",
                                                "description": " ",
                                                "gotoNodeType": "normal",
                                                "id": "c9ab6801-478e-4cfd-b331-871706b943a6",
                                                "type": "flowCondition"
                                            }
                                        ],
                                        "type": "node",
                                        "label": "Subflow2",
                                        "nodeType": "subFlow",
                                        "subflowId": "15b1c9d6-d8b6-466b-9657-32d85781ea13",
                                        "containsPii": false,
                                        "description": "descr",
                                        "nodeDisplayOption": "description",
                                        "parent": "testproject/TestPatternName/First",
                                        "parentId": "6f5cee28-8c92-4675-8782-e89f9cd32205/2cf6ba68-bd84-441d-ad56-15eb8e724f91/b78b7498-97e6-4874-b2c8-2cf922f4c64f",
                                        "applyInputsToFlow": false
                                    },
                                    {
                                        "id": "37448310-21cd-447f-a22d-8881abbb64af",
                                        "flow": [
                                            {
                                                "label": "default",
                                                "order": 1,
                                                "toNode": "Prompt",
                                                "linkType": "down",
                                                "description": "link descr",
                                                "gotoNodeType": "normal",
                                                "id": "478133b3-4065-48a1-bdf8-3ba1535d66b2",
                                                "type": "flowCondition"
                                            }
                                        ],
                                        "type": "node",
                                        "label": "Tag2",
                                        "parent": "testproject/TestPatternName/First",
                                        "nodeType": "tagNode",
                                        "parentId": "6f5cee28-8c92-4675-8782-e89f9cd32205/2cf6ba68-bd84-441d-ad56-15eb8e724f91/b78b7498-97e6-4874-b2c8-2cf922f4c64f",
                                        "containsPii": false,
                                        "description": "tag descr",
                                        "nodeDisplayOption": "description",
                                        "applyInputsToFlow": false
                                    },
                                    {
                                        "id": "4c2caa79-0b8d-49fe-9f74-9585ea6c923b",
                                        "flow": [
                                            {
                                                "label": "default",
                                                "order": 1,
                                                "toNode": "OpenQuestion",
                                                "linkType": "down",
                                                "description": "link descr",
                                                "gotoNodeType": "normal",
                                                "id": "d9a90c0e-5df0-4082-81ae-cfd53ce7e816",
                                                "type": "flowCondition"
                                            }
                                        ],
                                        "type": "node",
                                        "label": "Prompt",
                                        "output": [
                                            {
                                                "id": "e94f7ad0-51af-49ac-b781-fa3608448804",
                                                "type": "outputCondition",
                                                "label": "Default",
                                                "edited": true,
                                                "content": [
                                                    {
                                                        "id": "22930517-8945-423b-9c87-a0583d5e8132",
                                                        "value": "text",
                                                        "channel": "RWC",
                                                        "dynamic": false,
                                                        "contentType": "Prompt"
                                                    }
                                                ],
                                                "template": false
                                            }
                                        ],
                                        "parent": "testproject/TestPatternName/First",
                                        "nodeType": "prompt",
                                        "parentId": "6f5cee28-8c92-4675-8782-e89f9cd32205/2cf6ba68-bd84-441d-ad56-15eb8e724f91/b78b7498-97e6-4874-b2c8-2cf922f4c64f",
                                        "templateId": "defaultPromptTemplate",
                                        "containsPii": false,
                                        "description": "prompt descr",
                                        "nodeDisplayOption": "description",
                                        "applyInputsToFlow": false,
                                        "input": [],
                                        "nodeRules": {
                                            "id": "878856a8-466f-45db-bbc9-d476f02abf52",
                                            "useGlobalEscalate": true,
                                            "useGlobalFallback": true,
                                            "useGlobalRepairs": true,
                                            "repairRules": []
                                        }
                                    },
                                    {
                                        "id": "cb096cee-18fc-43b4-b609-6cd9700b0ccf",
                                        "flow": [
                                            {
                                                "label": "default",
                                                "order": 1,
                                                "toNode": "ClosedQuestion",
                                                "linkType": "down",
                                                "description": "closedq link descr",
                                                "gotoNodeType": "normal",
                                                "id": "cdaf0c45-672f-4cb7-ba1e-7d2c2905cced",
                                                "type": "flowCondition"
                                            },
                                            {
                                                "label": "Repair",
                                                "order": 2,
                                                "toNode": "OpenQuestion",
                                                "linkType": "loop",
                                                "id": "b2bdbb0c-0eb8-4f52-a289-15dab16570de",
                                                "type": "flowCondition"
                                            }
                                        ],
                                        "type": "node",
                                        "label": "OpenQuestion",
                                        "output": [
                                            {
                                                "id": "8e75e64c-0be5-471a-bde5-fb9f0d4f29d6",
                                                "type": "outputCondition",
                                                "label": "Default",
                                                "edited": true,
                                                "content": [
                                                    {
                                                        "id": "58241db3-2ec1-4fae-84c5-92704990a5ce",
                                                        "value": "prompt",
                                                        "channel": "RWC",
                                                        "dynamic": false,
                                                        "contentType": "Prompt"
                                                    }
                                                ],
                                                "template": false
                                            }
                                        ],
                                        "parent": "testproject/TestPatternName/First",
                                        "nodeType": "openQuestion",
                                        "parentId": "6f5cee28-8c92-4675-8782-e89f9cd32205/2cf6ba68-bd84-441d-ad56-15eb8e724f91/b78b7498-97e6-4874-b2c8-2cf922f4c64f",
                                        "nodeRules": {
                                            "repairRules": [],
                                            "useGlobalRepairs": true,
                                            "useGlobalEscalate": true,
                                            "useGlobalFallback": true
                                        },
                                        "templateId": "defaultOpenTemplate",
                                        "description": "openq descr",
                                        "channelSettings": {
                                            "acceptTextInput": true,
                                            "openInputButtonLabel": "",
                                            "useOpenInputControls": false,
                                            "closedInputButtonType": "Carousel",
                                            "openInputPlaceholderText": ""
                                        },
                                        "nodeDisplayOption": "description",
                                        "applyInputsToFlow": false,
                                        "input": [],
                                        "containsPii": false
                                    },
                                    {
                                        "id": "56fb6282-99b0-4f0b-ab18-96b56879f2e8",
                                        "flow": [
                                            {
                                                "label": "default",
                                                "order": 1,
                                                "linkType": "down",
                                                "id": "229dc20c-bcbe-4e90-9a74-20131b981202",
                                                "toNode": "addPoint",
                                                "type": "flowCondition"
                                            },
                                            {
                                                "label": "Repair",
                                                "order": 2,
                                                "toNode": "ClosedQuestion",
                                                "linkType": "loop",
                                                "id": "a3d7a257-933a-4dfb-bc4e-0a490729dd94",
                                                "type": "flowCondition"
                                            }
                                        ],
                                        "type": "node",
                                        "input": [
                                            {
                                                "id": "5cbc2b0d-7cee-4635-be3d-aafc5627b705",
                                                "type": "inputCondition",
                                                "label": "OfferParser",
                                                "order": 1,
                                                "parser": "HelloModel",
                                                "inputType": "NLUModel"
                                            }
                                        ],
                                        "label": "ClosedQuestion",
                                        "output": [
                                            {
                                                "id": "7db53ec4-c501-4528-b7af-f1d8f84c22ca",
                                                "type": "outputCondition",
                                                "label": "Default",
                                                "edited": true,
                                                "content": [
                                                    {
                                                        "id": "2a44cf22-9b11-42b1-83be-b30bb36f0174",
                                                        "value": "text",
                                                        "channel": "RWC",
                                                        "dynamic": false,
                                                        "contentType": "Prompt"
                                                    }
                                                ],
                                                "template": false
                                            }
                                        ],
                                        "parent": "testproject/TestPatternName/First",
                                        "nodeType": "closedQuestion",
                                        "parentId": "6f5cee28-8c92-4675-8782-e89f9cd32205/2cf6ba68-bd84-441d-ad56-15eb8e724f91/b78b7498-97e6-4874-b2c8-2cf922f4c64f",
                                        "nodeRules": {
                                            "repairRules": [],
                                            "useGlobalRepairs": true,
                                            "useGlobalEscalate": true,
                                            "useGlobalFallback": true
                                        },
                                        "templateId": "defaultClosedTemplate",
                                        "containsPii": false,
                                        "description": "closedq descr",
                                        "channelSettings": {
                                            "acceptTextInput": true,
                                            "openInputButtonLabel": "",
                                            "useOpenInputControls": false,
                                            "closedInputButtonType": "Carousel",
                                            "openInputPlaceholderText": ""
                                        },
                                        "nodeDisplayOption": "description",
                                        "applyInputsToFlow": false
                                    }
                                ]
                            }
                        ]
                    }
                ],
                "description": "Test Description",
                "patternType": "Agent",
                "entityGroups": [
                    {
                        "id": "e25fda60-421f-4e12-aebe-6892c8705ce7",
                        "type": "entityGroup",
                        "label": "defaultEntityGroup",
                        "dependsOn": [],
                        "primaryKey": "default",
                        "description": "defaultEntityGroup",
                        "sharedEndPoint": false
                    }
                ]
            }
        ],
        "templates": {
            "YesNoTemplateId": {
                "id": "YesNoTemplateId",
                "label": "YesNoQuestion",
                "hasPre": true,
                "hasPost": true,
                "hasRepair": true,
                "description": "This is the default ClosedQuestion template",
                "templateType": "closedQuestion",
                "channelConditions": [
                    {
                        "flow": [],
                        "input": {
                            "models": [
                                {
                                    "id": "0dbacff5-1a0a-484b-891e-64414bc28f1d",
                                    "type": "inputCondition",
                                    "label": "Yes",
                                    "parser": "yes, yeah, yah",
                                    "inputType": "Matcher",
                                    "containsPii": false,
                                    "description": "positive user response"
                                },
                                {
                                    "id": "048d5821-34b3-40d4-b663-b0cb0217e192",
                                    "type": "inputCondition",
                                    "label": "No",
                                    "parser": "no, nope, nah",
                                    "inputType": "Matcher",
                                    "containsPii": false,
                                    "description": "negative user response"
                                }
                            ]
                        },
                        "output": [],
                        "channelId": "IVR"
                    },
                    {
                        "flow": [],
                        "input": {
                            "models": [
                                {
                                    "id": "659f5043-ee3c-49a7-a756-92dd8511746e",
                                    "type": "inputCondition",
                                    "label": "Yes",
                                    "parser": "yes, yeah, yah",
                                    "inputType": "Matcher",
                                    "containsPii": false,
                                    "description": "positive user response"
                                },
                                {
                                    "id": "9267c713-c3b9-4067-b00c-920b9d8bb8b6",
                                    "type": "inputCondition",
                                    "label": "No",
                                    "parser": "no, nope, nah",
                                    "inputType": "Matcher",
                                    "containsPii": false,
                                    "description": "negative user response"
                                }
                            ]
                        },
                        "output": [],
                        "channelId": "RWC"
                    },
                    {
                        "flow": [],
                        "input": {
                            "models": [
                                {
                                    "id": "22a30bbc-2956-4242-b08b-24eee49984b4",
                                    "type": "inputCondition",
                                    "label": "Yes",
                                    "parser": "yes, yeah, yah",
                                    "inputType": "Matcher",
                                    "containsPii": false,
                                    "description": "positive user response"
                                },
                                {
                                    "id": "16068b9c-2ab0-4108-9075-baa24fcb51bc",
                                    "type": "inputCondition",
                                    "label": "No",
                                    "parser": "no, nope, nah",
                                    "inputType": "Matcher",
                                    "containsPii": false,
                                    "description": "negative user response"
                                }
                            ]
                        },
                        "output": [],
                        "channelId": "SMS"
                    },
                    {
                        "flow": [],
                        "input": {
                            "models": []
                        },
                        "output": [],
                        "channelId": "App"
                    },
                    {
                        "flow": [],
                        "input": {
                            "models": [
                                {
                                    "id": "f6143384-e2a1-486c-97a8-68086af67456",
                                    "type": "inputCondition",
                                    "label": "Yes",
                                    "parser": "yes, yeah, yah",
                                    "inputType": "Matcher",
                                    "containsPii": false,
                                    "description": "positive user response"
                                },
                                {
                                    "id": "ea758e6b-1aa3-445a-bba8-09b001e61791",
                                    "type": "inputCondition",
                                    "label": "No",
                                    "parser": "no, nope, nah",
                                    "inputType": "Matcher",
                                    "containsPii": false,
                                    "description": "negative user response"
                                }
                            ]
                        },
                        "output": [],
                        "channelId": "rSMS"
                    },
                    {
                        "flow": [],
                        "input": {
                            "models": [
                                {
                                    "id": "a62ad6db-1e82-4040-b6c8-6f8d45c78ad5",
                                    "type": "inputCondition",
                                    "label": "Yes",
                                    "parser": "yes, yeah, yah",
                                    "inputType": "Matcher",
                                    "containsPii": false,
                                    "description": "positive user response"
                                },
                                {
                                    "id": "0a3badd4-7df7-4210-a531-c60b737442b5",
                                    "type": "inputCondition",
                                    "label": "No",
                                    "parser": "no, nope, nah",
                                    "inputType": "Matcher",
                                    "containsPii": false,
                                    "description": "negative user response"
                                }
                            ]
                        },
                        "output": [],
                        "channelId": "VoIP"
                    }
                ]
            },
            "defaultOpenTemplate": {
                "id": "defaultOpenTemplate",
                "label": "DefaultOpenTemplate",
                "hasPre": true,
                "hasPost": true,
                "hasRepair": true,
                "description": "This is the default open template.",
                "templateType": "openQuestion",
                "channelConditions": [
                    {
                        "flow": [],
                        "input": {
                            "models": []
                        },
                        "output": [],
                        "channelId": "IVR"
                    },
                    {
                        "flow": [],
                        "input": {
                            "models": []
                        },
                        "output": [],
                        "channelId": "RWC"
                    },
                    {
                        "flow": [],
                        "input": {
                            "models": []
                        },
                        "output": [],
                        "channelId": "SMS"
                    },
                    {
                        "flow": [],
                        "input": {
                            "models": []
                        },
                        "output": [],
                        "channelId": "App"
                    },
                    {
                        "flow": [],
                        "input": {
                            "models": []
                        },
                        "output": [],
                        "channelId": "rSMS"
                    },
                    {
                        "flow": [],
                        "input": {
                            "models": []
                        },
                        "output": [],
                        "channelId": "VoIP"
                    }
                ]
            },
            "defaultClosedTemplate": {
                "id": "defaultClosedTemplate",
                "label": "DefaultClosedTemplate",
                "hasPre": true,
                "hasPost": true,
                "hasRepair": true,
                "description": "This is the default closed template.",
                "templateType": "closedQuestion",
                "channelConditions": [
                    {
                        "flow": [],
                        "input": {
                            "models": []
                        },
                        "output": [],
                        "channelId": "IVR"
                    },
                    {
                        "flow": [],
                        "input": {
                            "models": []
                        },
                        "output": [],
                        "channelId": "RWC"
                    },
                    {
                        "flow": [],
                        "input": {
                            "models": []
                        },
                        "output": [],
                        "channelId": "SMS"
                    },
                    {
                        "flow": [],
                        "input": {
                            "models": []
                        },
                        "output": [],
                        "channelId": "App"
                    },
                    {
                        "flow": [],
                        "input": {
                            "models": []
                        },
                        "output": [],
                        "channelId": "rSMS"
                    },
                    {
                        "flow": [],
                        "input": {
                            "models": []
                        },
                        "output": [],
                        "channelId": "VoIP"
                    }
                ]
            },
            "defaultPromptTemplate": {
                "id": "defaultPromptTemplate",
                "label": "DefaultPromptTemplate",
                "hasPre": true,
                "hasPost": true,
                "hasRepair": true,
                "description": "This is the default prompt template.",
                "templateType": "prompt",
                "channelConditions": [
                    {
                        "flow": [],
                        "input": {
                            "models": []
                        },
                        "output": [],
                        "channelId": "IVR"
                    },
                    {
                        "flow": [],
                        "input": {
                            "models": []
                        },
                        "output": [],
                        "channelId": "RWC"
                    },
                    {
                        "flow": [],
                        "input": {
                            "models": []
                        },
                        "output": [],
                        "channelId": "SMS"
                    },
                    {
                        "flow": [],
                        "input": {
                            "models": []
                        },
                        "output": [],
                        "channelId": "App"
                    },
                    {
                        "flow": [],
                        "input": {
                            "models": []
                        },
                        "output": [],
                        "channelId": "rSMS"
                    },
                    {
                        "flow": [],
                        "input": {
                            "models": []
                        },
                        "output": [],
                        "channelId": "VoIP"
                    }
                ]
            }
        },
        "description": "",
        "projectType": "None",
        "destinationPdes": [],
        "outcomesBaseline": [],
        "globalRepairRules": [
            {
                "id": "OOCRule",
                "label": "Out of Context",
                "outcome": "fallback",
                "repairType": "outOfContext",
                "description": "Out of context response are when the NLU is unable to classify the user's input. The user is asked to repeat.",
                "numberOfAttempts": 2
            },
            {
                "id": "NRRule",
                "label": "No Response",
                "outcome": "fallback",
                "repairType": "noResponse",
                "description": "No response is when the user does not provide any input. The system will reprompt the user to provide a response",
                "numberOfAttempts": 2
            },
            {
                "id": "ARRule",
                "label": "Agent Request",
                "outcome": "escalate",
                "repairType": "agentRequest",
                "description": "User requests Agent Transfer will trigger an Escalate flow",
                "numberOfAttempts": 1
            },
            {
                "id": "MRBFrule",
                "label": "Maximum Repair before Fallback",
                "outcome": "fallback",
                "repairType": "maximum",
                "description": "Total number of repairs before triggering a fallback action. Fallback should be offering another channel or escalating to an agent",
                "numberOfAttempts": 3
            }
        ],
        "projectObjectVersion": 1
    }