  {
        "type": "project",
        "cards": {},
        "label": "Project to test user ",
        "parent": "",
        "outcomes": [
            {
                "id": "20f7dd3f-e006-43bc-8044-ec55e927e8a3",
                "type": "outcome",
                "color": "#8FBCFF",
                "label": "HITL",
                "reasons": [],
                "percentage": 33,
                "description": "Human in the Loop",
                "outcomeType": "Project",
                "outcomeValue": "Neutral"
            },
            {
                "id": "6e4b5dac-551b-44c9-9bab-b6d33d28db03",
                "type": "outcome",
                "color": "#FFBFCB",
                "label": "Abandon",
                "reasons": [],
                "percentage": 33,
                "description": "User exits system without completion point.",
                "outcomeType": "Project",
                "outcomeValue": "Negative"
            },
            {
                "id": "406aee0e-1060-4db4-9a5a-bec8610db20a",
                "type": "outcome",
                "color": "#FFED8F",
                "label": "Contained",
                "reasons": [],
                "percentage": 33,
                "description": "User completes task without Human Assistance, Golden Call.",
                "outcomeType": "Project",
                "outcomeValue": "Positive"
            },
            {
                "id": "escalate",
                "type": "outcome",
                "color": "#8FBCFF",
                "label": "Escalate",
                "description": "User is moved to Global Agent Transfer pattern, passing along flow and context.",
                "outcomeType": "Global",
                "outcomeValue": "Neutral",
                "destinationPattern": ""
            },
            {
                "id": "fallback",
                "type": "outcome",
                "color": "#EBBFFF",
                "label": "Fallback",
                "description": "If user is stuck in n or more repairs on the voice channel. Offer alternate channel if available, or switch to easier input.",
                "outcomeType": "Global",
                "outcomeValue": "Neutral",
                "destinationPattern": ""
            }
        ],
        "parentId": "",
        "patterns": [
            {
                "label": "Pattern",
                "id": "a1a519b8-8949-44e5-9b54-ad05c6a96528",
                "parent": "Projecttotestuser",
                "parentId": "35b750d1-fb6f-437b-85fa-ea30780d5c6c",
                "patternType": "Inbound",
                "nodeType": "pattern",
                "type": "pattern",
                "channels": [
                    {
                        "id": "IVR",
                        "type": "channel",
                        "label": "IVR",
                        "description": "Voice over the phone"
                    }
                ],
                "flowData": [
                    {
                        "id": "ca835c7c-1e2e-4a78-916c-a4ae7709532e",
                        "flow": [
                            {
                                "id": "d480f8be-2dd5-43b0-aa2d-a7d8d389ee77",
                                "type": "flowCondition",
                                "label": "default",
                                "order": 1,
                                "toNode": "addPoint",
                                "description": "Start Experience"
                            }
                        ],
                        "type": "node",
                        "label": "Start",
                        "parent": "Projecttotestuser/Pattern",
                        "nodeType": "startPoint",
                        "parentId": "35b750d1-fb6f-437b-85fa-ea30780d5c6c/a1a519b8-8949-44e5-9b54-ad05c6a96528",
                        "description": "Pattern Flow Start",
                        "applyInputsToFlow": false,
                        "nodeDisplayOption": "description"
                    }
                ],
                "entities": [],
                "entityGroups": [
                    {
                        "id": "e6893d50-32c8-4658-b19e-e8e41318ed58",
                        "type": "entityGroup",
                        "label": "defaultEntityGroup",
                        "dependsOn": [],
                        "primaryKey": "default",
                        "description": "defaultEntityGroup",
                        "sharedEndPoint": false
                    }
                ],
                "outcomes": [
                    {
                        "id": "20f7dd3f-e006-43bc-8044-ec55e927e8a3",
                        "type": "outcome",
                        "color": "#8FBCFF",
                        "label": "HITL",
                        "reasons": [],
                        "percentage": 33,
                        "description": "Human in the Loop",
                        "outcomeType": "Project",
                        "outcomeValue": "Neutral"
                    }
                ],
                "subflows": [],
                "mapper": [],
                "description": ""
            }
        ],
        "templates": {
            "YesNoTemplateId": {
                "id": "YesNoTemplateId",
                "label": "YesNoQuestion",
                "hasPre": true,
                "hasPost": true,
                "hasRepair": true,
                "description": "This is the default ClosedQuestion template",
                "templateType": "closedQuestion",
                "channelConditions": [
                    {
                        "flow": [],
                        "input": {
                            "models": [
                                {
                                    "id": "7b639cb6-7863-43f5-abbc-083367d18441",
                                    "type": "inputCondition",
                                    "label": "Yes",
                                    "parser": "yes, yeah, yah",
                                    "inputType": "Matcher",
                                    "containsPii": false,
                                    "description": "positive user response"
                                },
                                {
                                    "id": "fe7dd08e-e490-4dd8-8b7c-f813431f5517",
                                    "type": "inputCondition",
                                    "label": "No",
                                    "parser": "no, nope, nah",
                                    "inputType": "Matcher",
                                    "containsPii": false,
                                    "description": "negative user response"
                                }
                            ]
                        },
                        "output": [],
                        "channelId": "IVR"
                    },
                    {
                        "flow": [],
                        "input": {
                            "models": [
                                {
                                    "id": "a9927b4a-b407-4530-82d6-39c05d73e446",
                                    "type": "inputCondition",
                                    "label": "Yes",
                                    "parser": "yes, yeah, yah",
                                    "inputType": "Matcher",
                                    "containsPii": false,
                                    "description": "positive user response"
                                },
                                {
                                    "id": "d5ec0549-47b5-4928-b777-eab176aab592",
                                    "type": "inputCondition",
                                    "label": "No",
                                    "parser": "no, nope, nah",
                                    "inputType": "Matcher",
                                    "containsPii": false,
                                    "description": "negative user response"
                                }
                            ]
                        },
                        "output": [],
                        "channelId": "RWC"
                    },
                    {
                        "flow": [],
                        "input": {
                            "models": [
                                {
                                    "id": "83366a2c-de0e-4a6e-9706-134115ba8c36",
                                    "type": "inputCondition",
                                    "label": "Yes",
                                    "parser": "yes, yeah, yah",
                                    "inputType": "Matcher",
                                    "containsPii": false,
                                    "description": "positive user response"
                                },
                                {
                                    "id": "9c5b5a56-9c94-444c-a341-46de5239efff",
                                    "type": "inputCondition",
                                    "label": "No",
                                    "parser": "no, nope, nah",
                                    "inputType": "Matcher",
                                    "containsPii": false,
                                    "description": "negative user response"
                                }
                            ]
                        },
                        "output": [],
                        "channelId": "SMS"
                    },
                    {
                        "flow": [],
                        "input": {
                            "models": []
                        },
                        "output": [],
                        "channelId": "App"
                    },
                    {
                        "flow": [],
                        "input": {
                            "models": [
                                {
                                    "id": "ea0855d9-022d-4d58-b7f0-0d0bb7707e93",
                                    "type": "inputCondition",
                                    "label": "Yes",
                                    "parser": "yes, yeah, yah",
                                    "inputType": "Matcher",
                                    "containsPii": false,
                                    "description": "positive user response"
                                },
                                {
                                    "id": "f84bfe93-802f-41fb-b793-a163385e134c",
                                    "type": "inputCondition",
                                    "label": "No",
                                    "parser": "no, nope, nah",
                                    "inputType": "Matcher",
                                    "containsPii": false,
                                    "description": "negative user response"
                                }
                            ]
                        },
                        "output": [],
                        "channelId": "rSMS"
                    },
                    {
                        "flow": [],
                        "input": {
                            "models": [
                                {
                                    "id": "cc3c16eb-9985-436d-babe-44e52cecba36",
                                    "type": "inputCondition",
                                    "label": "Yes",
                                    "parser": "yes, yeah, yah",
                                    "inputType": "Matcher",
                                    "containsPii": false,
                                    "description": "positive user response"
                                },
                                {
                                    "id": "7f642674-3eda-47b2-89d0-827ebd61b35f",
                                    "type": "inputCondition",
                                    "label": "No",
                                    "parser": "no, nope, nah",
                                    "inputType": "Matcher",
                                    "containsPii": false,
                                    "description": "negative user response"
                                }
                            ]
                        },
                        "output": [],
                        "channelId": "VoIP"
                    }
                ]
            },
            "defaultOpenTemplate": {
                "id": "defaultOpenTemplate",
                "label": "DefaultOpenTemplate",
                "hasPre": true,
                "hasPost": true,
                "hasRepair": true,
                "description": "This is the default open template.",
                "templateType": "openQuestion",
                "channelConditions": [
                    {
                        "flow": [],
                        "input": {
                            "models": []
                        },
                        "output": [],
                        "channelId": "IVR"
                    },
                    {
                        "flow": [],
                        "input": {
                            "models": []
                        },
                        "output": [],
                        "channelId": "RWC"
                    },
                    {
                        "flow": [],
                        "input": {
                            "models": []
                        },
                        "output": [],
                        "channelId": "SMS"
                    },
                    {
                        "flow": [],
                        "input": {
                            "models": []
                        },
                        "output": [],
                        "channelId": "App"
                    },
                    {
                        "flow": [],
                        "input": {
                            "models": []
                        },
                        "output": [],
                        "channelId": "rSMS"
                    },
                    {
                        "flow": [],
                        "input": {
                            "models": []
                        },
                        "output": [],
                        "channelId": "VoIP"
                    }
                ]
            },
            "defaultClosedTemplate": {
                "id": "defaultClosedTemplate",
                "label": "DefaultClosedTemplate",
                "hasPre": true,
                "hasPost": true,
                "hasRepair": true,
                "description": "This is the default closed template.",
                "templateType": "closedQuestion",
                "channelConditions": [
                    {
                        "flow": [],
                        "input": {
                            "models": []
                        },
                        "output": [],
                        "channelId": "IVR"
                    },
                    {
                        "flow": [],
                        "input": {
                            "models": []
                        },
                        "output": [],
                        "channelId": "RWC"
                    },
                    {
                        "flow": [],
                        "input": {
                            "models": []
                        },
                        "output": [],
                        "channelId": "SMS"
                    },
                    {
                        "flow": [],
                        "input": {
                            "models": []
                        },
                        "output": [],
                        "channelId": "App"
                    },
                    {
                        "flow": [],
                        "input": {
                            "models": []
                        },
                        "output": [],
                        "channelId": "rSMS"
                    },
                    {
                        "flow": [],
                        "input": {
                            "models": []
                        },
                        "output": [],
                        "channelId": "VoIP"
                    }
                ]
            },
            "defaultPromptTemplate": {
                "id": "defaultPromptTemplate",
                "label": "DefaultPromptTemplate",
                "hasPre": true,
                "hasPost": true,
                "hasRepair": true,
                "description": "This is the default prompt template.",
                "templateType": "prompt",
                "channelConditions": [
                    {
                        "flow": [],
                        "input": {
                            "models": []
                        },
                        "output": [],
                        "channelId": "IVR"
                    },
                    {
                        "flow": [],
                        "input": {
                            "models": []
                        },
                        "output": [],
                        "channelId": "RWC"
                    },
                    {
                        "flow": [],
                        "input": {
                            "models": []
                        },
                        "output": [],
                        "channelId": "SMS"
                    },
                    {
                        "flow": [],
                        "input": {
                            "models": []
                        },
                        "output": [],
                        "channelId": "App"
                    },
                    {
                        "flow": [],
                        "input": {
                            "models": []
                        },
                        "output": [],
                        "channelId": "rSMS"
                    },
                    {
                        "flow": [],
                        "input": {
                            "models": []
                        },
                        "output": [],
                        "channelId": "VoIP"
                    }
                ]
            }
        },
        "description": "",
        "projectType": "None",
        "destinationPdes": [],
        "outcomesBaseline": [],
        "globalRepairRules": [
            {
                "id": "OOCRule",
                "label": "Out of Context",
                "outcome": "fallback",
                "repairType": "outOfContext",
                "description": "Out of context response are when the NLU is unable to classify the user's input. The user is asked to repeat.",
                "numberOfAttempts": 2
            },
            {
                "id": "NRRule",
                "label": "No Response",
                "outcome": "fallback",
                "repairType": "noResponse",
                "description": "No response is when the user does not provide any input. The system will reprompt the user to provide a response",
                "numberOfAttempts": 2
            },
            {
                "id": "ARRule",
                "label": "Agent Request",
                "outcome": "escalate",
                "repairType": "agentRequest",
                "description": "User requests Agent Transfer will trigger an Escalate flow",
                "numberOfAttempts": 1
            },
            {
                "id": "MRBFrule",
                "label": "Maximum Repair before Fallback",
                "outcome": "fallback",
                "repairType": "maximum",
                "description": "Total number of repairs before triggering a fallback action. Fallback should be offering another channel or escalating to an agent",
                "numberOfAttempts": 3
            }
        ],
        "projectObjectVersion": 1
    }
