{
        "type": "project",
        "label": "Automation Project",
        "outcomes": [
            {
                "id": "36eece74-b55b-4afa-ba5c-61b1c93bc1f6",
                "type": "outcome",
                "color": "#8FBCFF",
                "label": "HITL",
                "reasons": [],
                "percentage": 33,
                "description": "Human in the Loop",
                "outcomeType": "Project",
                "outcomeValue": "Neutral"
            },
            {
                "id": "0b618a6b-f6fe-45f3-afcc-fe4f87052147",
                "type": "outcome",
                "color": "#FFBFCB",
                "label": "Abandon",
                "reasons": [],
                "percentage": 33,
                "description": "User exits system without completion point.",
                "outcomeType": "Project",
                "outcomeValue": "Negative"
            },
            {
                "id": "e47820be-d01f-40bc-bc77-a84eabc6a3d9",
                "type": "outcome",
                "color": "#FFED8F",
                "label": "Contained",
                "reasons": [],
                "percentage": 33,
                "description": "User completes task without Human Assistance, Golden Call.",
                "outcomeType": "Project",
                "outcomeValue": "Positive"
            },
            {
                "id": "escalate",
                "label": "Escalate",
                "description": "User is moved to Global Agent Transfer pattern, passing along flow and context.",
                "destinationPattern": "",
                "outcomeType": "Global",
                "outcomeValue": "Neutral",
                "type": "outcome",
                "color": "#8FBCFF"
            },
            {
                "id": "fallback",
                "label": "Fallback",
                "description": "If user is stuck in n or more repairs on the voice channel. Offer alternate channel if available, or switch to easier input.",
                "destinationPattern": "",
                "outcomeType": "Global",
                "outcomeValue": "Neutral",
                "type": "outcome",
                "color": "#EBBFFF"
            }
        ],
        "patterns": [],
        "templates": {
            "defaultOpenTemplate": {
                "id": "defaultOpenTemplate",
                "label": "DefaultOpenTemplate",
                "hasPre": true,
                "hasPost": true,
                "hasRepair": true,
                "description": "This is the default open template.",
                "templateType": "openQuestion",
                "channelConditions": [
                    {
                        "channelId": "IVR",
                        "output": [],
                        "input": {
                            "models": []
                        },
                        "flow": []
                    },
                    {
                        "channelId": "RWC",
                        "output": [],
                        "input": {
                            "models": []
                        },
                        "flow": []
                    },
                    {
                        "channelId": "SMS",
                        "output": [],
                        "input": {
                            "models": []
                        },
                        "flow": []
                    },
                    {
                        "channelId": "App",
                        "output": [],
                        "input": {
                            "models": []
                        },
                        "flow": []
                    },
                    {
                        "channelId": "rSMS",
                        "output": [],
                        "input": {
                            "models": []
                        },
                        "flow": []
                    },
                    {
                        "channelId": "VoIP",
                        "output": [],
                        "input": {
                            "models": []
                        },
                        "flow": []
                    }
                ]
            },
            "defaultClosedTemplate": {
                "id": "defaultClosedTemplate",
                "label": "DefaultClosedTemplate",
                "hasPre": true,
                "hasPost": true,
                "hasRepair": true,
                "description": "This is the default closed template.",
                "templateType": "closedQuestion",
                "channelConditions": [
                    {
                        "channelId": "IVR",
                        "output": [],
                        "input": {
                            "models": []
                        },
                        "flow": []
                    },
                    {
                        "channelId": "RWC",
                        "output": [],
                        "input": {
                            "models": []
                        },
                        "flow": []
                    },
                    {
                        "channelId": "SMS",
                        "output": [],
                        "input": {
                            "models": []
                        },
                        "flow": []
                    },
                    {
                        "channelId": "App",
                        "output": [],
                        "input": {
                            "models": []
                        },
                        "flow": []
                    },
                    {
                        "channelId": "rSMS",
                        "output": [],
                        "input": {
                            "models": []
                        },
                        "flow": []
                    },
                    {
                        "channelId": "VoIP",
                        "output": [],
                        "input": {
                            "models": []
                        },
                        "flow": []
                    }
                ]
            },
            "defaultPromptTemplate": {
                "id": "defaultPromptTemplate",
                "label": "DefaultPromptTemplate",
                "hasPre": true,
                "hasPost": true,
                "hasRepair": true,
                "description": "This is the default prompt template.",
                "templateType": "prompt",
                "channelConditions": [
                    {
                        "channelId": "IVR",
                        "output": [],
                        "input": {
                            "models": []
                        },
                        "flow": []
                    },
                    {
                        "channelId": "RWC",
                        "output": [],
                        "input": {
                            "models": []
                        },
                        "flow": []
                    },
                    {
                        "channelId": "SMS",
                        "output": [],
                        "input": {
                            "models": []
                        },
                        "flow": []
                    },
                    {
                        "channelId": "App",
                        "output": [],
                        "input": {
                            "models": []
                        },
                        "flow": []
                    },
                    {
                        "channelId": "rSMS",
                        "output": [],
                        "input": {
                            "models": []
                        },
                        "flow": []
                    },
                    {
                        "channelId": "VoIP",
                        "output": [],
                        "input": {
                            "models": []
                        },
                        "flow": []
                    }
                ]
            },
            "YesNoTemplateId": {
                "label": "YesNoQuestion",
                "description": "This is the default ClosedQuestion template",
                "templateType": "closedQuestion",
                "id": "YesNoTemplateId",
                "channelConditions": [
                    {
                        "channelId": "IVR",
                        "output": [],
                        "input": {
                            "models": [
                                {
                                    "label": "Yes",
                                    "type": "inputCondition",
                                    "containsPii": false,
                                    "id": "d5dd7b43-f75a-4012-b264-1d300bbb6bb2",
                                    "description": "positive user response",
                                    "inputType": "Matcher",
                                    "parser": "yes, yeah, yah"
                                },
                                {
                                    "label": "No",
                                    "type": "inputCondition",
                                    "containsPii": false,
                                    "id": "2a3dc036-f431-400a-a644-63046080bd8a",
                                    "description": "negative user response",
                                    "inputType": "Matcher",
                                    "parser": "no, nope, nah"
                                }
                            ]
                        },
                        "flow": []
                    },
                    {
                        "channelId": "RWC",
                        "output": [],
                        "input": {
                            "models": [
                                {
                                    "label": "Yes",
                                    "type": "inputCondition",
                                    "containsPii": false,
                                    "id": "3793b994-f4de-4d24-b42f-6bb712ee73a8",
                                    "description": "positive user response",
                                    "inputType": "Matcher",
                                    "parser": "yes, yeah, yah"
                                },
                                {
                                    "label": "No",
                                    "type": "inputCondition",
                                    "containsPii": false,
                                    "id": "d1acb3b9-a027-44c9-b86e-c0875e986e76",
                                    "description": "negative user response",
                                    "inputType": "Matcher",
                                    "parser": "no, nope, nah"
                                }
                            ]
                        },
                        "flow": []
                    },
                    {
                        "channelId": "SMS",
                        "output": [],
                        "input": {
                            "models": [
                                {
                                    "label": "Yes",
                                    "type": "inputCondition",
                                    "containsPii": false,
                                    "id": "0a6ce375-3025-444d-8185-6d82cc91d900",
                                    "description": "positive user response",
                                    "inputType": "Matcher",
                                    "parser": "yes, yeah, yah"
                                },
                                {
                                    "label": "No",
                                    "type": "inputCondition",
                                    "containsPii": false,
                                    "id": "f7b6b163-5f9f-49bb-a2d9-9c4cad95c89a",
                                    "description": "negative user response",
                                    "inputType": "Matcher",
                                    "parser": "no, nope, nah"
                                }
                            ]
                        },
                        "flow": []
                    },
                    {
                        "channelId": "App",
                        "output": [],
                        "input": {
                            "models": []
                        },
                        "flow": []
                    },
                    {
                        "channelId": "rSMS",
                        "output": [],
                        "input": {
                            "models": [
                                {
                                    "label": "Yes",
                                    "type": "inputCondition",
                                    "containsPii": false,
                                    "id": "61b3d91c-82e0-470e-8630-edf230daac13",
                                    "description": "positive user response",
                                    "inputType": "Matcher",
                                    "parser": "yes, yeah, yah"
                                },
                                {
                                    "label": "No",
                                    "type": "inputCondition",
                                    "containsPii": false,
                                    "id": "2d5a1a6c-9999-48ea-a7e3-d8ce45caacca",
                                    "description": "negative user response",
                                    "inputType": "Matcher",
                                    "parser": "no, nope, nah"
                                }
                            ]
                        },
                        "flow": []
                    },
                    {
                        "channelId": "VoIP",
                        "output": [],
                        "input": {
                            "models": [
                                {
                                    "label": "Yes",
                                    "type": "inputCondition",
                                    "containsPii": false,
                                    "id": "3e5742e6-c602-478c-b9d4-e1456f384904",
                                    "description": "positive user response",
                                    "inputType": "Matcher",
                                    "parser": "yes, yeah, yah"
                                },
                                {
                                    "label": "No",
                                    "type": "inputCondition",
                                    "containsPii": false,
                                    "id": "3e813fbf-b041-464d-892e-fcaad01c1692",
                                    "description": "negative user response",
                                    "inputType": "Matcher",
                                    "parser": "no, nope, nah"
                                }
                            ]
                        },
                        "flow": []
                    }
                ],
                "hasPre": true,
                "hasPost": true,
                "hasRepair": true
            }
        },
        "description": "Test Automation Project",
        "projectType": "None",
        "outcomesBaseline": [],
        "projectObjectVersion": 1,
        "parent": "",
        "parentId": "",
        "destinationPdes": [],
        "cards": {},
        "globalRepairRules": [
            {
                "label": "Out of Context",
                "description": "Out of context response are when the NLU is unable to classify the user's input. The user is asked to repeat.",
                "id": "OOCRule",
                "repairType": "outOfContext",
                "numberOfAttempts": 2,
                "outcome": "fallback"
            },
            {
                "label": "No Response",
                "description": "No response is when the user does not provide any input. The system will reprompt the user to provide a response",
                "id": "NRRule",
                "repairType": "noResponse",
                "numberOfAttempts": 2,
                "outcome": "fallback"
            },
            {
                "label": "Agent Request",
                "id": "ARRule",
                "description": "User requests Agent Transfer will trigger an Escalate flow",
                "repairType": "agentRequest",
                "numberOfAttempts": 1,
                "outcome": "escalate"
            },
            {
                "label": "Maximum Repair before Fallback",
                "id": "MRBFrule",
                "description": "Total number of repairs before triggering a fallback action. Fallback should be offering another channel or escalating to an agent",
                "repairType": "maximum",
                "numberOfAttempts": 3,
                "outcome": "fallback"
            }
        ]
    }