{
  "type": "project",
  "cards": {},
  "label": "Test",
  "parent": "",
  "outcomes": [
      {
          "id": "36eece74-b55b-4afa-ba5c-61b1c93bc1f6",
          "type": "outcome",
          "color": "#8FBCFF",
          "label": "HITL",
          "reasons": [],
          "percentage": 33,
          "description": "Human in the Loop",
          "outcomeType": "Project",
          "outcomeValue": "Neutral"
      },
      {
          "id": "0b618a6b-f6fe-45f3-afcc-fe4f87052147",
          "type": "outcome",
          "color": "#FFBFCB",
          "label": "Abandon",
          "reasons": [],
          "percentage": 33,
          "description": "User exits system without completion point.",
          "outcomeType": "Project",
          "outcomeValue": "Negative"
      },
      {
          "id": "e47820be-d01f-40bc-bc77-a84eabc6a3d9",
          "type": "outcome",
          "color": "#FFED8F",
          "label": "Contained",
          "reasons": [],
          "percentage": 33,
          "description": "User completes task without Human Assistance, Golden Call.",
          "outcomeType": "Project",
          "outcomeValue": "Positive"
      },
      {
          "id": "escalate",
          "type": "outcome",
          "color": "#8FBCFF",
          "label": "Escalate",
          "description": "User is moved to Global Agent Transfer pattern, passing along flow and context.",
          "outcomeType": "Global",
          "outcomeValue": "Neutral",
          "destinationPattern": ""
      },
      {
          "id": "fallback",
          "type": "outcome",
          "color": "#EBBFFF",
          "label": "Fallback",
          "description": "If user is stuck in n or more repairs on the voice channel. Offer alternate channel if available, or switch to easier input.",
          "outcomeType": "Global",
          "outcomeValue": "Neutral",
          "destinationPattern": ""
      }
  ],
  "parentId": "",
  "patterns": [
      {
          "label": "TestPattern EntityEditor",
          "id": "114e7225-c076-46c9-99b4-c937de00186f",
          "parent": "Test",
          "parentId": "6a70bd8a-2635-4828-b008-fd046c04a18d",
          "patternType": "Inbound",
          "nodeType": "pattern",
          "type": "pattern",
          "channels": [
              {
                  "id": "IVR",
                  "label": "IVR",
                  "description": "Voice over the phone",
                  "type": "channel"
              },
              {
                  "id": "RWC",
                  "label": "RWC",
                  "description": "Rich webchat UI",
                  "type": "channel"
              },
              {
                  "id": "SMS",
                  "label": "SMS",
                  "description": "Text messaging",
                  "type": "channel"
              },
              {
                  "id": "App",
                  "label": "App",
                  "description": "Mobile app",
                  "type": "channel"
              },
              {
                  "id": "VoIP",
                  "label": "VoIP",
                  "description": "Voice over Internet Protocol in browser",
                  "type": "channel"
              }
          ],
          "flowData": [
              {
                  "type": "node",
                  "id": "4d24cb84-a94c-402d-aa9d-7f7209dd6ab9",
                  "label": "Start",
                  "nodeType": "startPoint",
                  "description": "Pattern Flow Start",
                  "flow": [
                      {
                          "id": "7333ffe3-5168-4e30-a8cb-ba23d69f329f",
                          "label": "default",
                          "order": 1,
                          "description": "Start Experience",
                          "toNode": "addPoint",
                          "type": "flowCondition"
                      }
                  ],
                  "parent": "Test/TestPattern",
                  "parentId": "6a70bd8a-2635-4828-b008-fd046c04a18d/114e7225-c076-46c9-99b4-c937de00186f",
                  "nodeDisplayOption": "description",
                  "applyInputsToFlow": false,
                  "flowData": [
                      {
                          "label": "Start",
                          "nodeType": "startPoint",
                          "description": "Pattern Flow Start",
                          "flow": [
                              {
                                  "label": "default",
                                  "order": 1,
                                  "description": "Start Experience",
                                  "id": "30e13b46-3900-4743-96de-4243b8bde2ab"
                              }
                          ],
                          "id": "d6729087-8dd7-4759-8c29-85c0ba4ac721"
                      }
                  ]
              }
          ],
          "entities": [],
          "entityGroups": [
              {
                  "id": "06cb9489-429b-485a-a7ca-8b58c1837b43",
                  "type": "entityGroup",
                  "label": "defaultEntityGroup",
                  "description": "defaultEntityGroup",
                  "primaryKey": "default",
                  "dependsOn": [],
                  "sharedEndPoint": false
              }
          ],
          "outcomes": [
              {
                  "id": "36eece74-b55b-4afa-ba5c-61b1c93bc1f6",
                  "type": "outcome",
                  "color": "#8FBCFF",
                  "label": "HITL",
                  "reasons": [],
                  "percentage": 33,
                  "description": "Human in the Loop",
                  "outcomeType": "Project",
                  "outcomeValue": "Neutral"
              },
              {
                  "id": "0b618a6b-f6fe-45f3-afcc-fe4f87052147",
                  "type": "outcome",
                  "color": "#FFBFCB",
                  "label": "Abandon",
                  "reasons": [],
                  "percentage": 33,
                  "description": "User exits system without completion point.",
                  "outcomeType": "Project",
                  "outcomeValue": "Negative"
              },
              {
                  "id": "e47820be-d01f-40bc-bc77-a84eabc6a3d9",
                  "type": "outcome",
                  "color": "#FFED8F",
                  "label": "Contained",
                  "reasons": [],
                  "percentage": 33,
                  "description": "User completes task without Human Assistance, Golden Call.",
                  "outcomeType": "Project",
                  "outcomeValue": "Positive"
              },
              {
                  "id": "escalate",
                  "type": "outcome",
                  "color": "#8FBCFF",
                  "label": "Escalate",
                  "description": "User is moved to Global Agent Transfer pattern, passing along flow and context.",
                  "outcomeType": "Global",
                  "outcomeValue": "Neutral",
                  "destinationPattern": ""
              },
              {
                  "id": "fallback",
                  "type": "outcome",
                  "color": "#EBBFFF",
                  "label": "Fallback",
                  "description": "If user is stuck in n or more repairs on the voice channel. Offer alternate channel if available, or switch to easier input.",
                  "outcomeType": "Global",
                  "outcomeValue": "Neutral",
                  "destinationPattern": ""
              }
          ],
          "subflows": [],
          "mapper": [],
          "description": ""
      },
      {
          "label": "A1",
          "id": "114e7225-c076-46c9-99b4-c937de00186f",
          "parent": "Test",
          "parentId": "6a70bd8a-2635-4828-b008-fd046c04a18d",
          "patternType": "Inbound",
          "nodeType": "pattern",
          "type": "pattern",
          "channels": [
              {
                  "id": "IVR",
                  "label": "IVR",
                  "description": "Voice over the phone",
                  "type": "channel"
              }
          ],
          "flowData": [
              {
                  "type": "node",
                  "id": "4d24cb84-a94c-402d-aa9d-7f7209dd6ab9",
                  "label": "Start",
                  "nodeType": "startPoint",
                  "description": "Pattern Flow Start",
                  "flow": [
                      {
                          "id": "7333ffe3-5168-4e30-a8cb-ba23d69f329f",
                          "label": "default",
                          "order": 1,
                          "description": "Start Experience",
                          "toNode": "addPoint",
                          "type": "flowCondition"
                      }
                  ],
                  "parent": "Test/TestPattern",
                  "parentId": "6a70bd8a-2635-4828-b008-fd046c04a18d/114e7225-c076-46c9-99b4-c937de00186f",
                  "nodeDisplayOption": "description",
                  "applyInputsToFlow": false,
                  "flowData": [
                      {
                          "label": "Start",
                          "nodeType": "startPoint",
                          "description": "Pattern Flow Start",
                          "flow": [
                              {
                                  "label": "default",
                                  "order": 1,
                                  "description": "Start Experience",
                                  "id": "e500905f-4c54-4dad-9923-c1d4f9c174e5"
                              }
                          ],
                          "id": "df7b144e-5ef2-4e30-9224-3930b057e681"
                      }
                  ]
              }
          ],
          "entities": [],
          "entityGroups": [
              {
                  "id": "06cb9489-429b-485a-a7ca-8b58c1837b43",
                  "type": "entityGroup",
                  "label": "defaultEntityGroup",
                  "description": "defaultEntityGroup",
                  "primaryKey": "default",
                  "dependsOn": [],
                  "sharedEndPoint": false
              }
          ],
          "outcomes": [
              {
                  "id": "36eece74-b55b-4afa-ba5c-61b1c93bc1f6",
                  "type": "outcome",
                  "color": "#8FBCFF",
                  "label": "HITL",
                  "reasons": [],
                  "percentage": 33,
                  "description": "Human in the Loop",
                  "outcomeType": "Project",
                  "outcomeValue": "Neutral"
              }
          ],
          "subflows": [],
          "mapper": [],
          "description": ""
      },
      {
          "label": "TestPatternAgent Assist",
          "id": "114e7225-c076-46c9-99b4-c937de00186f",
          "parent": "Test",
          "parentId": "6a70bd8a-2635-4828-b008-fd046c04a18d",
          "patternType": "Agent Assist",
          "nodeType": "pattern",
          "type": "pattern",
          "channels": [
              {
                  "id": "IVR",
                  "label": "IVR",
                  "description": "Voice over the phone",
                  "type": "channel"
              }
          ],
          "flowData": [
              {
                  "type": "node",
                  "id": "4d24cb84-a94c-402d-aa9d-7f7209dd6ab9",
                  "label": "Start",
                  "nodeType": "startPoint",
                  "description": "Pattern Flow Start",
                  "flow": [
                      {
                          "id": "7333ffe3-5168-4e30-a8cb-ba23d69f329f",
                          "label": "default",
                          "order": 1,
                          "description": "Start Experience",
                          "toNode": "addPoint",
                          "type": "flowCondition"
                      }
                  ],
                  "parent": "Test/TestPattern",
                  "parentId": "6a70bd8a-2635-4828-b008-fd046c04a18d/114e7225-c076-46c9-99b4-c937de00186f",
                  "nodeDisplayOption": "description",
                  "applyInputsToFlow": false,
                  "flowData": [
                      {
                          "label": "Start",
                          "nodeType": "startPoint",
                          "description": "Pattern Flow Start",
                          "flow": [
                              {
                                  "label": "default",
                                  "order": 1,
                                  "description": "Start Experience",
                                  "id": "5e66c859-69f8-44ca-977e-296b965bd210"
                              }
                          ],
                          "id": "4eb5bfbf-bfe9-4227-8343-70b616778aeb"
                      }
                  ]
              }
          ],
          "entities": [],
          "entityGroups": [
              {
                  "id": "06cb9489-429b-485a-a7ca-8b58c1837b43",
                  "type": "entityGroup",
                  "label": "defaultEntityGroup",
                  "description": "defaultEntityGroup",
                  "primaryKey": "default",
                  "dependsOn": [],
                  "sharedEndPoint": false
              }
          ],
          "outcomes": [
              {
                  "id": "36eece74-b55b-4afa-ba5c-61b1c93bc1f6",
                  "type": "outcome",
                  "color": "#8FBCFF",
                  "label": "HITL",
                  "reasons": [],
                  "percentage": 33,
                  "description": "Human in the Loop",
                  "outcomeType": "Project",
                  "outcomeValue": "Neutral"
              }
          ],
          "subflows": [],
          "mapper": [],
          "description": ""
      },
      {
          "label": "TestPattern Mobile App",
          "id": "114e7225-c076-46c9-99b4-c937de00186f",
          "parent": "Test",
          "parentId": "6a70bd8a-2635-4828-b008-fd046c04a18d",
          "patternType": "Mobile App",
          "nodeType": "pattern",
          "type": "pattern",
          "channels": [
              {
                  "id": "IVR",
                  "label": "IVR",
                  "description": "Voice over the phone",
                  "type": "channel"
              }
          ],
          "flowData": [
              {
                  "type": "node",
                  "id": "4d24cb84-a94c-402d-aa9d-7f7209dd6ab9",
                  "label": "Start",
                  "nodeType": "startPoint",
                  "description": "Pattern Flow Start",
                  "flow": [
                      {
                          "id": "7333ffe3-5168-4e30-a8cb-ba23d69f329f",
                          "label": "default",
                          "order": 1,
                          "description": "Start Experience",
                          "toNode": "addPoint",
                          "type": "flowCondition"
                      }
                  ],
                  "parent": "Test/TestPattern",
                  "parentId": "6a70bd8a-2635-4828-b008-fd046c04a18d/114e7225-c076-46c9-99b4-c937de00186f",
                  "nodeDisplayOption": "description",
                  "applyInputsToFlow": false,
                  "flowData": [
                      {
                          "label": "Start",
                          "nodeType": "startPoint",
                          "description": "Pattern Flow Start",
                          "flow": [
                              {
                                  "label": "default",
                                  "order": 1,
                                  "description": "Start Experience",
                                  "id": "93423298-3377-40ff-bc32-86cdd20f3a63"
                              }
                          ],
                          "id": "3e0ad9de-4bee-4191-8bdb-62eae0d242eb"
                      }
                  ]
              }
          ],
          "entities": [],
          "entityGroups": [
              {
                  "id": "06cb9489-429b-485a-a7ca-8b58c1837b43",
                  "type": "entityGroup",
                  "label": "defaultEntityGroup",
                  "description": "defaultEntityGroup",
                  "primaryKey": "default",
                  "dependsOn": [],
                  "sharedEndPoint": false
              }
          ],
          "outcomes": [
              {
                  "id": "36eece74-b55b-4afa-ba5c-61b1c93bc1f6",
                  "type": "outcome",
                  "color": "#8FBCFF",
                  "label": "HITL",
                  "reasons": [],
                  "percentage": 33,
                  "description": "Human in the Loop",
                  "outcomeType": "Project",
                  "outcomeValue": "Neutral"
              }
          ],
          "subflows": [],
          "mapper": [],
          "description": ""
      },
      {
          "label": "TestPattern Skill Pattern",
          "id": "114e7225-c076-46c9-99b4-c937de00186f",
          "parent": "Test",
          "parentId": "6a70bd8a-2635-4828-b008-fd046c04a18d",
          "patternType": "Skill Pattern",
          "nodeType": "pattern",
          "type": "pattern",
          "channels": [
              {
                  "id": "IVR",
                  "label": "IVR",
                  "description": "Voice over the phone",
                  "type": "channel"
              }
          ],
          "flowData": [
              {
                  "type": "node",
                  "id": "4d24cb84-a94c-402d-aa9d-7f7209dd6ab9",
                  "label": "Start",
                  "nodeType": "startPoint",
                  "description": "Pattern Flow Start",
                  "flow": [
                      {
                          "id": "7333ffe3-5168-4e30-a8cb-ba23d69f329f",
                          "label": "default",
                          "order": 1,
                          "description": "Start Experience",
                          "toNode": "addPoint",
                          "type": "flowCondition"
                      }
                  ],
                  "parent": "Test/TestPattern",
                  "parentId": "6a70bd8a-2635-4828-b008-fd046c04a18d/114e7225-c076-46c9-99b4-c937de00186f",
                  "nodeDisplayOption": "description",
                  "applyInputsToFlow": false,
                  "flowData": [
                      {
                          "label": "Start",
                          "nodeType": "startPoint",
                          "description": "Pattern Flow Start",
                          "flow": [
                              {
                                  "label": "default",
                                  "order": 1,
                                  "description": "Start Experience",
                                  "id": "a63aac30-09f2-443c-af0d-c90301943581"
                              }
                          ],
                          "id": "03c113f8-5b13-44bf-a2d1-e83505771aa6"
                      }
                  ]
              }
          ],
          "entities": [],
          "entityGroups": [
              {
                  "id": "06cb9489-429b-485a-a7ca-8b58c1837b43",
                  "type": "entityGroup",
                  "label": "defaultEntityGroup",
                  "description": "defaultEntityGroup",
                  "primaryKey": "default",
                  "dependsOn": [],
                  "sharedEndPoint": false
              }
          ],
          "outcomes": [
              {
                  "id": "36eece74-b55b-4afa-ba5c-61b1c93bc1f6",
                  "type": "outcome",
                  "color": "#8FBCFF",
                  "label": "HITL",
                  "reasons": [],
                  "percentage": 33,
                  "description": "Human in the Loop",
                  "outcomeType": "Project",
                  "outcomeValue": "Neutral"
              }
          ],
          "subflows": [],
          "mapper": [],
          "description": ""
      },
      {
          "label": "zwfkwpylulgjymtlimfjvehlxdeezwsi",
          "id": "114e7225-c076-46c9-99b4-c937de00186f",
          "parent": "Test",
          "parentId": "6a70bd8a-2635-4828-b008-fd046c04a18d",
          "patternType": "Skill Pattern",
          "nodeType": "pattern",
          "type": "pattern",
          "channels": [
              {
                  "id": "IVR",
                  "label": "IVR",
                  "description": "Voice over the phone",
                  "type": "channel"
              }
          ],
          "flowData": [
              {
                  "type": "node",
                  "id": "4d24cb84-a94c-402d-aa9d-7f7209dd6ab9",
                  "label": "Start",
                  "nodeType": "startPoint",
                  "description": "Pattern Flow Start",
                  "flow": [
                      {
                          "id": "7333ffe3-5168-4e30-a8cb-ba23d69f329f",
                          "label": "default",
                          "order": 1,
                          "description": "Start Experience",
                          "toNode": "addPoint",
                          "type": "flowCondition"
                      }
                  ],
                  "parent": "Test/TestPattern",
                  "parentId": "6a70bd8a-2635-4828-b008-fd046c04a18d/114e7225-c076-46c9-99b4-c937de00186f",
                  "nodeDisplayOption": "description",
                  "applyInputsToFlow": false,
                  "flowData": [
                      {
                          "label": "Start",
                          "nodeType": "startPoint",
                          "description": "Pattern Flow Start",
                          "flow": [
                              {
                                  "label": "default",
                                  "order": 1,
                                  "description": "Start Experience",
                                  "id": "5d607863-cce1-465f-9cfe-72e0243e7908"
                              }
                          ],
                          "id": "5560520d-20c8-4026-b12d-7fbe0c985db7"
                      }
                  ]
              }
          ],
          "entities": [],
          "entityGroups": [
              {
                  "id": "06cb9489-429b-485a-a7ca-8b58c1837b43",
                  "type": "entityGroup",
                  "label": "defaultEntityGroup",
                  "description": "defaultEntityGroup",
                  "primaryKey": "default",
                  "dependsOn": [],
                  "sharedEndPoint": false
              }
          ],
          "outcomes": [
              {
                  "id": "36eece74-b55b-4afa-ba5c-61b1c93bc1f6",
                  "type": "outcome",
                  "color": "#8FBCFF",
                  "label": "HITL",
                  "reasons": [],
                  "percentage": 33,
                  "description": "Human in the Loop",
                  "outcomeType": "Project",
                  "outcomeValue": "Neutral"
              }
          ],
          "subflows": [],
          "mapper": [],
          "description": ""
      },
      {
          "label": "@;'|#+?!#<+*&|&-?-&>+~>@;(;`|&%",
          "id": "114e7225-c076-46c9-99b4-c937de00186f",
          "parent": "Test",
          "parentId": "6a70bd8a-2635-4828-b008-fd046c04a18d",
          "patternType": "Skill Pattern",
          "nodeType": "pattern",
          "type": "pattern",
          "channels": [
              {
                  "id": "IVR",
                  "label": "IVR",
                  "description": "Voice over the phone",
                  "type": "channel"
              }
          ],
          "flowData": [
              {
                  "type": "node",
                  "id": "4d24cb84-a94c-402d-aa9d-7f7209dd6ab9",
                  "label": "Start",
                  "nodeType": "startPoint",
                  "description": "Pattern Flow Start",
                  "flow": [
                      {
                          "id": "7333ffe3-5168-4e30-a8cb-ba23d69f329f",
                          "label": "default",
                          "order": 1,
                          "description": "Start Experience",
                          "toNode": "addPoint",
                          "type": "flowCondition"
                      }
                  ],
                  "parent": "Test/TestPattern",
                  "parentId": "6a70bd8a-2635-4828-b008-fd046c04a18d/114e7225-c076-46c9-99b4-c937de00186f",
                  "nodeDisplayOption": "description",
                  "applyInputsToFlow": false,
                  "flowData": [
                      {
                          "label": "Start",
                          "nodeType": "startPoint",
                          "description": "Pattern Flow Start",
                          "flow": [
                              {
                                  "label": "default",
                                  "order": 1,
                                  "description": "Start Experience",
                                  "id": "9e3e34ab-5c50-453c-970b-20f39a0891ff"
                              }
                          ],
                          "id": "54679114-9ab3-414c-8382-db941b4ca56f"
                      }
                  ]
              }
          ],
          "entities": [],
          "entityGroups": [
              {
                  "id": "06cb9489-429b-485a-a7ca-8b58c1837b43",
                  "type": "entityGroup",
                  "label": "defaultEntityGroup",
                  "description": "defaultEntityGroup",
                  "primaryKey": "default",
                  "dependsOn": [],
                  "sharedEndPoint": false
              }
          ],
          "outcomes": [
              {
                  "id": "36eece74-b55b-4afa-ba5c-61b1c93bc1f6",
                  "type": "outcome",
                  "color": "#8FBCFF",
                  "label": "HITL",
                  "reasons": [],
                  "percentage": 33,
                  "description": "Human in the Loop",
                  "outcomeType": "Project",
                  "outcomeValue": "Neutral"
              }
          ],
          "subflows": [],
          "mapper": [],
          "description": ""
      }     
  ],
  "templates": {
      "YesNoTemplateId": {
          "id": "YesNoTemplateId",
          "label": "YesNoQuestion",
          "hasPre": true,
          "hasPost": true,
          "hasRepair": true,
          "description": "This is the default ClosedQuestion template",
          "templateType": "closedQuestion",
          "channelConditions": [
              {
                  "flow": [],
                  "input": {
                      "models": [
                          {
                              "id": "d5dd7b43-f75a-4012-b264-1d300bbb6bb2",
                              "type": "inputCondition",
                              "label": "Yes",
                              "parser": "yes, yeah, yah",
                              "inputType": "Matcher",
                              "containsPii": false,
                              "description": "positive user response"
                          },
                          {
                              "id": "2a3dc036-f431-400a-a644-63046080bd8a",
                              "type": "inputCondition",
                              "label": "No",
                              "parser": "no, nope, nah",
                              "inputType": "Matcher",
                              "containsPii": false,
                              "description": "negative user response"
                          }
                      ]
                  },
                  "output": [],
                  "channelId": "IVR"
              },
              {
                  "flow": [],
                  "input": {
                      "models": [
                          {
                              "id": "3793b994-f4de-4d24-b42f-6bb712ee73a8",
                              "type": "inputCondition",
                              "label": "Yes",
                              "parser": "yes, yeah, yah",
                              "inputType": "Matcher",
                              "containsPii": false,
                              "description": "positive user response"
                          },
                          {
                              "id": "d1acb3b9-a027-44c9-b86e-c0875e986e76",
                              "type": "inputCondition",
                              "label": "No",
                              "parser": "no, nope, nah",
                              "inputType": "Matcher",
                              "containsPii": false,
                              "description": "negative user response"
                          }
                      ]
                  },
                  "output": [],
                  "channelId": "RWC"
              },
              {
                  "flow": [],
                  "input": {
                      "models": [
                          {
                              "id": "0a6ce375-3025-444d-8185-6d82cc91d900",
                              "type": "inputCondition",
                              "label": "Yes",
                              "parser": "yes, yeah, yah",
                              "inputType": "Matcher",
                              "containsPii": false,
                              "description": "positive user response"
                          },
                          {
                              "id": "f7b6b163-5f9f-49bb-a2d9-9c4cad95c89a",
                              "type": "inputCondition",
                              "label": "No",
                              "parser": "no, nope, nah",
                              "inputType": "Matcher",
                              "containsPii": false,
                              "description": "negative user response"
                          }
                      ]
                  },
                  "output": [],
                  "channelId": "SMS"
              },
              {
                  "flow": [],
                  "input": {
                      "models": []
                  },
                  "output": [],
                  "channelId": "App"
              },
              {
                  "flow": [],
                  "input": {
                      "models": [
                          {
                              "id": "61b3d91c-82e0-470e-8630-edf230daac13",
                              "type": "inputCondition",
                              "label": "Yes",
                              "parser": "yes, yeah, yah",
                              "inputType": "Matcher",
                              "containsPii": false,
                              "description": "positive user response"
                          },
                          {
                              "id": "2d5a1a6c-9999-48ea-a7e3-d8ce45caacca",
                              "type": "inputCondition",
                              "label": "No",
                              "parser": "no, nope, nah",
                              "inputType": "Matcher",
                              "containsPii": false,
                              "description": "negative user response"
                          }
                      ]
                  },
                  "output": [],
                  "channelId": "rSMS"
              },
              {
                  "flow": [],
                  "input": {
                      "models": [
                          {
                              "id": "3e5742e6-c602-478c-b9d4-e1456f384904",
                              "type": "inputCondition",
                              "label": "Yes",
                              "parser": "yes, yeah, yah",
                              "inputType": "Matcher",
                              "containsPii": false,
                              "description": "positive user response"
                          },
                          {
                              "id": "3e813fbf-b041-464d-892e-fcaad01c1692",
                              "type": "inputCondition",
                              "label": "No",
                              "parser": "no, nope, nah",
                              "inputType": "Matcher",
                              "containsPii": false,
                              "description": "negative user response"
                          }
                      ]
                  },
                  "output": [],
                  "channelId": "VoIP"
              }
          ]
      },
      "defaultOpenTemplate": {
          "id": "defaultOpenTemplate",
          "label": "DefaultOpenTemplate",
          "hasPre": true,
          "hasPost": true,
          "hasRepair": true,
          "description": "This is the default open template.",
          "templateType": "openQuestion",
          "channelConditions": [
              {
                  "flow": [],
                  "input": {
                      "models": []
                  },
                  "output": [],
                  "channelId": "IVR"
              },
              {
                  "flow": [],
                  "input": {
                      "models": []
                  },
                  "output": [],
                  "channelId": "RWC"
              },
              {
                  "flow": [],
                  "input": {
                      "models": []
                  },
                  "output": [],
                  "channelId": "SMS"
              },
              {
                  "flow": [],
                  "input": {
                      "models": []
                  },
                  "output": [],
                  "channelId": "App"
              },
              {
                  "flow": [],
                  "input": {
                      "models": []
                  },
                  "output": [],
                  "channelId": "rSMS"
              },
              {
                  "flow": [],
                  "input": {
                      "models": []
                  },
                  "output": [],
                  "channelId": "VoIP"
              }
          ]
      },
      "defaultClosedTemplate": {
          "id": "defaultClosedTemplate",
          "label": "DefaultClosedTemplate",
          "hasPre": true,
          "hasPost": true,
          "hasRepair": true,
          "description": "This is the default closed template.",
          "templateType": "closedQuestion",
          "channelConditions": [
              {
                  "flow": [],
                  "input": {
                      "models": []
                  },
                  "output": [],
                  "channelId": "IVR"
              },
              {
                  "flow": [],
                  "input": {
                      "models": []
                  },
                  "output": [],
                  "channelId": "RWC"
              },
              {
                  "flow": [],
                  "input": {
                      "models": []
                  },
                  "output": [],
                  "channelId": "SMS"
              },
              {
                  "flow": [],
                  "input": {
                      "models": []
                  },
                  "output": [],
                  "channelId": "App"
              },
              {
                  "flow": [],
                  "input": {
                      "models": []
                  },
                  "output": [],
                  "channelId": "rSMS"
              },
              {
                  "flow": [],
                  "input": {
                      "models": []
                  },
                  "output": [],
                  "channelId": "VoIP"
              }
          ]
      },
      "defaultPromptTemplate": {
          "id": "defaultPromptTemplate",
          "label": "DefaultPromptTemplate",
          "hasPre": true,
          "hasPost": true,
          "hasRepair": true,
          "description": "This is the default prompt template.",
          "templateType": "prompt",
          "channelConditions": [
              {
                  "flow": [],
                  "input": {
                      "models": []
                  },
                  "output": [],
                  "channelId": "IVR"
              },
              {
                  "flow": [],
                  "input": {
                      "models": []
                  },
                  "output": [],
                  "channelId": "RWC"
              },
              {
                  "flow": [],
                  "input": {
                      "models": []
                  },
                  "output": [],
                  "channelId": "SMS"
              },
              {
                  "flow": [],
                  "input": {
                      "models": []
                  },
                  "output": [],
                  "channelId": "App"
              },
              {
                  "flow": [],
                  "input": {
                      "models": []
                  },
                  "output": [],
                  "channelId": "rSMS"
              },
              {
                  "flow": [],
                  "input": {
                      "models": []
                  },
                  "output": [],
                  "channelId": "VoIP"
              }
          ]
      }
  },
  "description": "Test",
  "projectType": "None",
  "destinationPdes": [],
  "outcomesBaseline": [],
  "globalRepairRules": [
      {
          "id": "OOCRule",
          "label": "Out of Context",
          "outcome": "fallback",
          "repairType": "outOfContext",
          "description": "Out of context response are when the NLU is unable to classify the user's input. The user is asked to repeat.",
          "numberOfAttempts": 2
      },
      {
          "id": "NRRule",
          "label": "No Response",
          "outcome": "fallback",
          "repairType": "noResponse",
          "description": "No response is when the user does not provide any input. The system will reprompt the user to provide a response",
          "numberOfAttempts": 2
      },
      {
          "id": "ARRule",
          "label": "Agent Request",
          "outcome": "escalate",
          "repairType": "agentRequest",
          "description": "User requests Agent Transfer will trigger an Escalate flow",
          "numberOfAttempts": 1
      },
      {
          "id": "MRBFrule",
          "label": "Maximum Repair before Fallback",
          "outcome": "fallback",
          "repairType": "maximum",
          "description": "Total number of repairs before triggering a fallback action. Fallback should be offering another channel or escalating to an agent",
          "numberOfAttempts": 3
      }
  ],
  "projectObjectVersion": 1
}
